>>>  VASP 5.4.4 with BEEF-vdw and vtst
--------------------------------------------------------
>>>  Job information
     SLURM_JOBID=2852452
     SLURM_JOB_NODELIST=cpn-u24-23
     SLURM_NNODES=1
     SLURMTMPDIR=/scratch/2852452
     working directory = /projects/academic/ericwalk/kevingie/decane_nox_gas_phase/C3H7
--------------------------------------------------------
>>>  Module information
The Intel compilers are in your path. This is adequate for compiling and
running most codes. Source
/util/academic/intel/17.0/compilers_and_libraries_2017/linux/bin/compilervars.sh
for more features. 
 The MKL Libraries are in your library path. This is adequate for compiling and
running most codes. Source $MKL/bin/mklvars.sh" for more features. 
 Intel-MPI is in your path. This is adequate for compiling and running most
codes. Source the
/util/academic/intel/17.0/compilers_and_libraries_2017/linux/mpi/intel64/bin/mpivars.sh
file for more features. 

Currently Loaded Modules:
  1) intel/17.0   2) mkl/2017.0.1   3) intel-mpi/2017.0.1

 

--------------------------------------------------------
>>>  Running Configuration
NPROCS=16
--------------------------------------------------------
>>>  Job started at Fri May  1 18:50:12 EDT 2020
--------------------------------------------------------
 running on   16 total cores
 distrk:  each k-point on   16 cores,    1 groups
 distr:  one band on    4 cores,    4 groups
 using from now: INCAR     
 vasp.5.4.4.18Apr17-6-g9f103f2a35 (build Dec 31 2018 11:41:54) complex          
  
 POSCAR found type information on POSCAR  C  H 
 POSCAR found :  2 types and      10 ions
 scaLAPACK will be used

     **************************************************************************
     Initializing libbeef V0.1.3 with the BEEF-vdW functional.
     Citation: Wellendorff et al., PRB 85, 235149 (2012).
     **************************************************************************


 ----------------------------------------------------------------------------- 
|                                                                             |
|  ADVICE TO THIS USER RUNNING 'VASP/VAMP'   (HEAR YOUR MASTER'S VOICE ...):  |
|                                                                             |
|      You have switched on vdW-DFT.                                          |
|      This routine was written and supplied by Jiri Klimes.                  |
|      We recommed that you carefully read and cite the following             |
|      publication                                                            |
|      J. Klimes, D.R. Bowler, A. Michelides                                  |
|        J. Phys.: Cond Matt. 22 022201 (2010)                                |
|      J. Klimes, D.R. Bowler, A. Michelides                                  |
|        Phys. Rev. B. 83, 195131 (2011)                                      |
|      and references therein.                                                |
|                                                                             |
 ----------------------------------------------------------------------------- 


 ----------------------------------------------------------------------------- 
|                                                                             |
|  ADVICE TO THIS USER RUNNING 'VASP/VAMP'   (HEAR YOUR MASTER'S VOICE ...):  |
|                                                                             |
|      You enforced a specific xc-type in the INCAR file,                     |
|      a different type was found on the POTCAR file                          |
|          I HOPE YOU KNOW, WHAT YOU ARE  DOING                               |
|                                                                             |
 ----------------------------------------------------------------------------- 

 LDA part: xc-table for Pade appr. of Perdew
 POSCAR found type information on POSCAR  C  H 
 POSCAR found :  2 types and      10 ions
 POSCAR, INCAR and KPOINTS ok, starting setup
 FFT: planning ...
 WAVECAR not read
 entering main loop
       N       E                     dE             d eps       ncg     rms          rms(c)
Total vdW correction in eV:      3.5156671
DAV:   1     0.947273098873E+02    0.94727E+02   -0.47298E+03    96   0.434E+02
DAV:   2    -0.184694913483E+02   -0.11320E+03   -0.10937E+03   132   0.106E+02
DAV:   3    -0.456899104315E+02   -0.27220E+02   -0.27107E+02    92   0.575E+01
DAV:   4    -0.470588028600E+02   -0.13689E+01   -0.13650E+01   104   0.168E+01
DAV:   5    -0.470868539947E+02   -0.28051E-01   -0.28031E-01   128   0.233E+00    0.195E+01
Total vdW correction in eV:      3.5790464
DAV:   6    -0.291855643985E+01    0.44168E+02   -0.12724E+02    92   0.609E+01    0.887E+00
Total vdW correction in eV:      3.6747407
DAV:   7    -0.388276055482E+02   -0.35909E+02   -0.35412E+01   112   0.266E+01    0.510E+00
Total vdW correction in eV:      3.7479334
DAV:   8    -0.413415266235E+02   -0.25139E+01   -0.22037E+00   112   0.805E+00    0.323E+00
Total vdW correction in eV:      3.8384522
DAV:   9    -0.510275194342E+02   -0.96860E+01   -0.71209E+00   100   0.102E+01    0.153E+00
Total vdW correction in eV:      3.8448026
DAV:  10    -0.520034744730E+02   -0.97596E+00   -0.39439E-01   112   0.360E+00    0.101E+00
Total vdW correction in eV:      3.8480920
DAV:  11    -0.535323698768E+02   -0.15289E+01   -0.89505E-01    84   0.433E+00    0.576E-01
Total vdW correction in eV:      3.8396418
DAV:  12    -0.538826270257E+02   -0.35026E+00   -0.14377E-01   112   0.211E+00    0.240E-01
Total vdW correction in eV:      3.8342586
DAV:  13    -0.540726588320E+02   -0.19003E+00   -0.20901E-02    96   0.795E-01    0.133E-01
Total vdW correction in eV:      3.8274244
DAV:  14    -0.541588303793E+02   -0.86172E-01   -0.94897E-03    92   0.601E-01    0.584E-02
Total vdW correction in eV:      3.8239812
DAV:  15    -0.541693106924E+02   -0.10480E-01   -0.23673E-03   104   0.306E-01    0.359E-02
Total vdW correction in eV:      3.8217737
DAV:  16    -0.541729608380E+02   -0.36501E-02   -0.11395E-03   100   0.194E-01    0.187E-02
Total vdW correction in eV:      3.8204288
DAV:  17    -0.541740672410E+02   -0.11064E-02   -0.42158E-04    96   0.123E-01    0.116E-02
Total vdW correction in eV:      3.8199149
DAV:  18    -0.541745100763E+02   -0.44284E-03   -0.10833E-04   112   0.608E-02    0.748E-03
Total vdW correction in eV:      3.8195273
DAV:  19    -0.541751145464E+02   -0.60447E-03   -0.16158E-04    96   0.561E-02    0.603E-03
Total vdW correction in eV:      3.8195358
DAV:  20    -0.541752959537E+02   -0.18141E-03   -0.27889E-05   112   0.307E-02    0.365E-03
Total vdW correction in eV:      3.8196025
DAV:  21    -0.541754207616E+02   -0.12481E-03   -0.16449E-05    96   0.220E-02    0.318E-03
Total vdW correction in eV:      3.8197407
DAV:  22    -0.541755466776E+02   -0.12592E-03   -0.13960E-05    96   0.220E-02    0.230E-03
Total vdW correction in eV:      3.8198439
DAV:  23    -0.541755713519E+02   -0.24674E-04   -0.39684E-06    80   0.131E-02    0.115E-03
Total vdW correction in eV:      3.8198667
DAV:  24    -0.541755524603E+02    0.18892E-04   -0.21873E-06    72   0.868E-03    0.858E-04
Total vdW correction in eV:      3.8198436
DAV:  25    -0.541755183923E+02    0.34068E-04   -0.13152E-06    72   0.640E-03    0.650E-04
Total vdW correction in eV:      3.8198326
DAV:  26    -0.541755027438E+02    0.15649E-04   -0.37962E-07    80   0.354E-03    0.367E-04
Total vdW correction in eV:      3.8198238
DAV:  27    -0.541754894854E+02    0.13258E-04   -0.22535E-07    72   0.236E-03    0.202E-04
Total vdW correction in eV:      3.8198187
DAV:  28    -0.541754835831E+02    0.59023E-05   -0.80228E-08    80   0.138E-03
Total vdW correction in eV:      3.8198168
   1 F= -.54175484E+02 E0= -.54175484E+02  d E =-.541755E+02  mag=     1.0000
 BRION: g(F)=  0.536E+00 g(S)=  0.000E+00
 bond charge predicted
       N       E                     dE             d eps       ncg     rms          rms(c)
Total vdW correction in eV:      3.8218029
DAV:   1    -0.508210115918E+02    0.33545E+01   -0.75655E+01    80   0.633E+01    0.192E+00
Total vdW correction in eV:      3.8229443
DAV:   2    -0.542617355188E+02   -0.34407E+01   -0.62166E+00    84   0.142E+01    0.115E+00
Total vdW correction in eV:      3.8243295
DAV:   3    -0.543470432816E+02   -0.85308E-01   -0.28371E-01   100   0.266E+00    0.616E-01
Total vdW correction in eV:      3.8258801
DAV:   4    -0.543417994644E+02    0.52438E-02   -0.51928E-02   104   0.130E+00    0.280E-01
Total vdW correction in eV:      3.8268651
DAV:   5    -0.543480370306E+02   -0.62376E-02   -0.13149E-02    96   0.722E-01    0.145E-01
Total vdW correction in eV:      3.8271046
DAV:   6    -0.543503909092E+02   -0.23539E-02   -0.14946E-03   100   0.289E-01    0.732E-02
Total vdW correction in eV:      3.8273250
DAV:   7    -0.543530259614E+02   -0.26351E-02   -0.12016E-03    92   0.216E-01    0.293E-02
Total vdW correction in eV:      3.8273880
DAV:   8    -0.543534984167E+02   -0.47246E-03   -0.18194E-04   112   0.116E-01    0.165E-02
Total vdW correction in eV:      3.8274299
DAV:   9    -0.543542425522E+02   -0.74414E-03   -0.78503E-05    92   0.518E-02    0.844E-03
Total vdW correction in eV:      3.8274524
DAV:  10    -0.543547512293E+02   -0.50868E-03   -0.25913E-05   104   0.382E-02    0.549E-03
Total vdW correction in eV:      3.8274621
DAV:  11    -0.543549937438E+02   -0.24251E-03   -0.10729E-05    80   0.212E-02    0.295E-03
Total vdW correction in eV:      3.8274711
DAV:  12    -0.543550447489E+02   -0.51005E-04   -0.10516E-05    88   0.175E-02    0.188E-03
Total vdW correction in eV:      3.8274757
DAV:  13    -0.543550385347E+02    0.62142E-05   -0.62635E-06    80   0.117E-02
Total vdW correction in eV:      3.8274749
   2 F= -.54355039E+02 E0= -.54355039E+02  d E =-.179555E+00  mag=     1.0000
 BRION: g(F)=  0.340E+00 g(S)=  0.000E+00 retain N=  1 mean eig= 0.52
 eig:   0.524
 bond charge predicted
       N       E                     dE             d eps       ncg     rms          rms(c)
Total vdW correction in eV:      3.8172201
DAV:   1    -0.544240271383E+02   -0.68982E-01   -0.11205E+01    80   0.193E+01    0.766E-01
Total vdW correction in eV:      3.8156449
DAV:   2    -0.544302095208E+02   -0.61824E-02   -0.17857E-01    96   0.233E+00    0.527E-01
Total vdW correction in eV:      3.8146778
DAV:   3    -0.544257319592E+02    0.44776E-02   -0.26734E-02   104   0.996E-01    0.179E-01
Total vdW correction in eV:      3.8145813
DAV:   4    -0.544264794904E+02   -0.74753E-03   -0.62067E-03    96   0.462E-01    0.862E-02
Total vdW correction in eV:      3.8146764
DAV:   5    -0.544268053031E+02   -0.32581E-03   -0.89676E-04    96   0.197E-01    0.399E-02
Total vdW correction in eV:      3.8146860
DAV:   6    -0.544270747971E+02   -0.26949E-03   -0.30523E-04    96   0.118E-01    0.153E-02
Total vdW correction in eV:      3.8146930
DAV:   7    -0.544271437501E+02   -0.68953E-04   -0.37603E-05    96   0.538E-02    0.902E-03
Total vdW correction in eV:      3.8146870
DAV:   8    -0.544272387234E+02   -0.94973E-04   -0.21753E-05    88   0.359E-02    0.378E-03
Total vdW correction in eV:      3.8146773
DAV:   9    -0.544272625844E+02   -0.23861E-04   -0.84528E-06    80   0.222E-02    0.234E-03
Total vdW correction in eV:      3.8146697
DAV:  10    -0.544272815360E+02   -0.18952E-04   -0.19210E-06    76   0.842E-03    0.137E-03
Total vdW correction in eV:      3.8146579
DAV:  11    -0.544273139981E+02   -0.32462E-04   -0.32061E-06    80   0.837E-03    0.130E-03
Total vdW correction in eV:      3.8146487
DAV:  12    -0.544273380502E+02   -0.24052E-04   -0.18049E-06    80   0.657E-03    0.813E-04
Total vdW correction in eV:      3.8146432
DAV:  13    -0.544273541880E+02   -0.16138E-04   -0.12233E-06    80   0.492E-03    0.429E-04
Total vdW correction in eV:      3.8146432
DAV:  14    -0.544273606878E+02   -0.64998E-05   -0.36338E-07    80   0.284E-03
Total vdW correction in eV:      3.8146440
   3 F= -.54427361E+02 E0= -.54427361E+02  d E =-.723222E-01  mag=     1.0000
 BRION: g(F)=  0.134E+00 g(S)=  0.000E+00 retain N=  2 mean eig= 0.96
 eig:   0.285  1.627
 bond charge predicted
       N       E                     dE             d eps       ncg     rms          rms(c)
Total vdW correction in eV:      3.8192549
DAV:   1    -0.544445660845E+02   -0.17212E-01   -0.25925E+00    80   0.988E+00    0.394E-01
Total vdW correction in eV:      3.8198182
DAV:   2    -0.544496151158E+02   -0.50490E-02   -0.59703E-02    96   0.134E+00    0.312E-01
Total vdW correction in eV:      3.8202329
DAV:   3    -0.544488946544E+02    0.72046E-03   -0.31031E-03    96   0.395E-01    0.167E-01
Total vdW correction in eV:      3.8208001
DAV:   4    -0.544490297914E+02   -0.13514E-03   -0.33177E-03    96   0.367E-01    0.584E-02
Total vdW correction in eV:      3.8207244
DAV:   5    -0.544490630816E+02   -0.33290E-04   -0.74402E-04    92   0.187E-01    0.279E-02
Total vdW correction in eV:      3.8207830
DAV:   6    -0.544490700151E+02   -0.69334E-05   -0.29725E-04    96   0.921E-02    0.129E-02
Total vdW correction in eV:      3.8208080
DAV:   7    -0.544490855938E+02   -0.15579E-04   -0.35186E-05    96   0.466E-02    0.622E-03
Total vdW correction in eV:      3.8208202
DAV:   8    -0.544490774368E+02    0.81570E-05   -0.84593E-06    80   0.185E-02
Total vdW correction in eV:      3.8208442
   4 F= -.54449077E+02 E0= -.54449077E+02  d E =-.217167E-01  mag=     1.0000
 BRION: g(F)=  0.829E-01 g(S)=  0.000E+00 retain N=  3 mean eig= 2.64
 eig:   6.725  0.351  0.855
 bond charge predicted
       N       E                     dE             d eps       ncg     rms          rms(c)
Total vdW correction in eV:      3.8199638
DAV:   1    -0.544654045928E+02   -0.16319E-01   -0.16681E+00    80   0.765E+00    0.289E-01
Total vdW correction in eV:      3.8196888
DAV:   2    -0.544682576523E+02   -0.28531E-02   -0.25478E-02    92   0.907E-01    0.192E-01
Total vdW correction in eV:      3.8196272
DAV:   3    -0.544687053011E+02   -0.44765E-03   -0.14046E-03   100   0.260E-01    0.111E-01
Total vdW correction in eV:      3.8195726
DAV:   4    -0.544686813340E+02    0.23967E-04   -0.10022E-03    88   0.208E-01    0.247E-02
Total vdW correction in eV:      3.8195865
DAV:   5    -0.544687667235E+02   -0.85389E-04   -0.23369E-04    92   0.960E-02    0.120E-02
Total vdW correction in eV:      3.8195947
DAV:   6    -0.544687704552E+02   -0.37318E-05   -0.23389E-05    96   0.324E-02
Total vdW correction in eV:      3.8195966
   5 F= -.54468770E+02 E0= -.54468770E+02  d E =-.196930E-01  mag=     1.0000
 BRION: g(F)=  0.220E-01 g(S)=  0.000E+00 retain N=  4 mean eig= 3.80
 eig:   0.236  0.312  7.328  7.328
 bond charge predicted
       N       E                     dE             d eps       ncg     rms          rms(c)
Total vdW correction in eV:      3.8194101
DAV:   1    -0.544750010716E+02   -0.62343E-02   -0.27052E-01    80   0.311E+00    0.147E-01
Total vdW correction in eV:      3.8193666
DAV:   2    -0.544757716828E+02   -0.77061E-03   -0.56435E-03   104   0.436E-01    0.949E-02
Total vdW correction in eV:      3.8193833
DAV:   3    -0.544757382673E+02    0.33415E-04   -0.33885E-04    96   0.130E-01    0.536E-02
Total vdW correction in eV:      3.8194145
DAV:   4    -0.544757738935E+02   -0.35626E-04   -0.23613E-04    96   0.102E-01    0.135E-02
Total vdW correction in eV:      3.8194095
DAV:   5    -0.544757653261E+02    0.85674E-05   -0.49046E-05    96   0.501E-02
Total vdW correction in eV:      3.8194075
   6 F= -.54475765E+02 E0= -.54475765E+02  d E =-.699487E-02  mag=     1.0000
 BRION: g(F)=  0.812E-02 g(S)=  0.000E+00 retain N=  2 mean eig= 0.35
 eig:   0.345  0.345
 bond charge predicted
       N       E                     dE             d eps       ncg     rms          rms(c)
Total vdW correction in eV:      3.8204311
DAV:   1    -0.544818810167E+02   -0.61071E-02   -0.22817E-01    80   0.296E+00    0.140E-01
Total vdW correction in eV:      3.8204441
DAV:   2    -0.544823947184E+02   -0.51370E-03   -0.31938E-03    92   0.322E-01    0.824E-02
Total vdW correction in eV:      3.8204619
DAV:   3    -0.544824440015E+02   -0.49283E-04   -0.24215E-04    88   0.111E-01    0.460E-02
Total vdW correction in eV:      3.8204806
DAV:   4    -0.544825113117E+02   -0.67310E-04   -0.93126E-05    92   0.722E-02    0.102E-02
Total vdW correction in eV:      3.8204774
DAV:   5    -0.544825049102E+02    0.64014E-05   -0.17965E-05    96   0.304E-02
Total vdW correction in eV:      3.8204760
   7 F= -.54482505E+02 E0= -.54482505E+02  d E =-.673958E-02  mag=     1.0000
 BRION: g(F)=  0.728E-02 g(S)=  0.000E+00 retain N=  3 mean eig= 2.30
 eig:   6.182  0.209  0.514
 bond charge predicted
       N       E                     dE             d eps       ncg     rms          rms(c)
Total vdW correction in eV:      3.8216869
DAV:   1    -0.544904877836E+02   -0.79765E-02   -0.65294E-01    80   0.497E+00    0.211E-01
Total vdW correction in eV:      3.8215972
DAV:   2    -0.544916169787E+02   -0.11292E-02   -0.89712E-03    88   0.541E-01    0.131E-01
Total vdW correction in eV:      3.8215667
DAV:   3    -0.544916383274E+02   -0.21349E-04   -0.54632E-04    96   0.170E-01    0.722E-02
Total vdW correction in eV:      3.8215319
DAV:   4    -0.544917096383E+02   -0.71311E-04   -0.31875E-04    96   0.129E-01    0.158E-02
Total vdW correction in eV:      3.8215236
DAV:   5    -0.544917213185E+02   -0.11680E-04   -0.64763E-05    96   0.546E-02    0.903E-03
Total vdW correction in eV:      3.8215214
DAV:   6    -0.544917150739E+02    0.62446E-05   -0.11184E-05    80   0.213E-02
Total vdW correction in eV:      3.8215197
   8 F= -.54491715E+02 E0= -.54491715E+02  d E =-.921016E-02  mag=     1.0000
 BRION: g(F)=  0.554E-02 g(S)=  0.000E+00 retain N=  4 mean eig= 2.20
 eig:   3.852  3.852  0.555  0.555
 bond charge predicted
       N       E                     dE             d eps       ncg     rms          rms(c)
Total vdW correction in eV:      3.8221862
DAV:   1    -0.545000694704E+02   -0.83482E-02   -0.77394E-01    80   0.547E+00    0.261E-01
Total vdW correction in eV:      3.8219282
DAV:   2    -0.545012872660E+02   -0.12178E-02   -0.10129E-02    88   0.569E-01    0.157E-01
Total vdW correction in eV:      3.8218147
DAV:   3    -0.545013861488E+02   -0.98883E-04   -0.71132E-04    92   0.195E-01    0.817E-02
Total vdW correction in eV:      3.8217136
DAV:   4    -0.545015291520E+02   -0.14300E-03   -0.29383E-04    84   0.134E-01    0.163E-02
Total vdW correction in eV:      3.8217021
DAV:   5    -0.545015483343E+02   -0.19182E-04   -0.52748E-05    96   0.545E-02    0.717E-03
Total vdW correction in eV:      3.8216975
DAV:   6    -0.545015454410E+02    0.28933E-05   -0.52178E-06    80   0.182E-02
Total vdW correction in eV:      3.8216895
   9 F= -.54501545E+02 E0= -.54501545E+02  d E =-.983037E-02  mag=     1.0000
 BRION: g(F)=  0.535E-02 g(S)=  0.000E+00 retain N=  5 mean eig= 2.60
 eig:   5.778  5.778  0.350  0.541  0.541
 bond charge predicted
       N       E                     dE             d eps       ncg     rms          rms(c)
Total vdW correction in eV:      3.8233236
DAV:   1    -0.545058551796E+02   -0.43068E-02   -0.21127E-01    88   0.279E+00    0.132E-01
Total vdW correction in eV:      3.8233767
DAV:   2    -0.545061950430E+02   -0.33986E-03   -0.30036E-03    96   0.312E-01    0.822E-02
Total vdW correction in eV:      3.8234063
DAV:   3    -0.545061937190E+02    0.13241E-05   -0.20861E-04    96   0.106E-01    0.402E-02
Total vdW correction in eV:      3.8234012
DAV:   4    -0.545062394237E+02   -0.45705E-04   -0.10319E-04    96   0.734E-02    0.897E-03
Total vdW correction in eV:      3.8233803
DAV:   5    -0.545062286080E+02    0.10816E-04   -0.17310E-05    96   0.314E-02    0.478E-03
Total vdW correction in eV:      3.8233671
DAV:   6    -0.545062239372E+02    0.46707E-05   -0.34901E-06    80   0.133E-02
Total vdW correction in eV:      3.8233601
  10 F= -.54506224E+02 E0= -.54506224E+02  d E =-.467850E-02  mag=     1.0000
 BRION: g(F)=  0.312E-02 g(S)=  0.000E+00 retain N=  4 mean eig= 2.96
 eig:   5.182  5.182  0.737  0.737
 bond charge predicted
       N       E                     dE             d eps       ncg     rms          rms(c)
Total vdW correction in eV:      3.8252217
DAV:   1    -0.545129359948E+02   -0.67074E-02   -0.64413E-01    80   0.486E+00    0.238E-01
Total vdW correction in eV:      3.8251130
DAV:   2    -0.545137096481E+02   -0.77365E-03   -0.86031E-03    96   0.518E-01    0.150E-01
Total vdW correction in eV:      3.8250528
DAV:   3    -0.545137098304E+02   -0.18237E-06   -0.52330E-04    96   0.170E-01    0.632E-02
Total vdW correction in eV:      3.8249820
DAV:   4    -0.545137975730E+02   -0.87743E-04   -0.29531E-04    96   0.121E-01    0.151E-02
Total vdW correction in eV:      3.8249652
DAV:   5    -0.545137832495E+02    0.14323E-04   -0.39592E-05    96   0.484E-02    0.900E-03
Total vdW correction in eV:      3.8249509
DAV:   6    -0.545137801368E+02    0.31128E-05   -0.15154E-05    96   0.230E-02
Total vdW correction in eV:      3.8249462
  11 F= -.54513780E+02 E0= -.54513780E+02  d E =-.755620E-02  mag=     1.0000
 BRION: g(F)=  0.315E-02 g(S)=  0.000E+00 retain N=  5 mean eig= 2.92
 eig:   5.917  5.917  1.101  1.101  0.577
 bond charge predicted
       N       E                     dE             d eps       ncg     rms          rms(c)
Total vdW correction in eV:      3.8257790
DAV:   1    -0.545180142465E+02   -0.42310E-02   -0.34024E-01    88   0.353E+00    0.169E-01
Total vdW correction in eV:      3.8256378
DAV:   2    -0.545184213620E+02   -0.40712E-03   -0.46350E-03    96   0.378E-01    0.107E-01
Total vdW correction in eV:      3.8255434
DAV:   3    -0.545184045871E+02    0.16775E-04   -0.29530E-04    96   0.121E-01    0.433E-02
Total vdW correction in eV:      3.8254689
DAV:   4    -0.545184538965E+02   -0.49309E-04   -0.12778E-04    96   0.817E-02    0.103E-02
Total vdW correction in eV:      3.8254601
DAV:   5    -0.545184463877E+02    0.75087E-05   -0.18416E-05    88   0.329E-02
Total vdW correction in eV:      3.8254529
  12 F= -.54518446E+02 E0= -.54518446E+02  d E =-.466625E-02  mag=     1.0000
 BRION: g(F)=  0.299E-02 g(S)=  0.000E+00 retain N=  3 mean eig= 2.20
 eig:   5.293  0.455  0.854
 bond charge predicted
       N       E                     dE             d eps       ncg     rms          rms(c)
Total vdW correction in eV:      3.8279060
DAV:   1    -0.545253369393E+02   -0.68830E-02   -0.12732E+00    80   0.680E+00    0.343E-01
Total vdW correction in eV:      3.8276760
DAV:   2    -0.545267746617E+02   -0.14377E-02   -0.17561E-02    96   0.731E-01    0.215E-01
Total vdW correction in eV:      3.8275623
DAV:   3    -0.545267875558E+02   -0.12894E-04   -0.10766E-03    96   0.230E-01    0.887E-02
Total vdW correction in eV:      3.8274463
DAV:   4    -0.545269454968E+02   -0.15794E-03   -0.48006E-04    96   0.153E-01    0.199E-02
Total vdW correction in eV:      3.8274161
DAV:   5    -0.545269531655E+02   -0.76687E-05   -0.66003E-05    96   0.609E-02
Total vdW correction in eV:      3.8273922
  13 F= -.54526953E+02 E0= -.54526953E+02  d E =-.850678E-02  mag=     1.0000
 BRION: g(F)=  0.201E-02 g(S)=  0.000E+00 retain N=  4 mean eig= 2.77
 eig:   4.796  4.796  0.744  0.744
 bond charge predicted
       N       E                     dE             d eps       ncg     rms          rms(c)
Total vdW correction in eV:      3.8295447
DAV:   1    -0.545311976351E+02   -0.42521E-02   -0.87740E-01    88   0.565E+00    0.277E-01
Total vdW correction in eV:      3.8293789
DAV:   2    -0.545322304988E+02   -0.10329E-02   -0.11916E-02    96   0.603E-01    0.174E-01
Total vdW correction in eV:      3.8292939
DAV:   3    -0.545322320245E+02   -0.15257E-05   -0.67371E-04    96   0.189E-01    0.702E-02
Total vdW correction in eV:      3.8292116
DAV:   4    -0.545323337423E+02   -0.10172E-03   -0.34890E-04    96   0.127E-01    0.167E-02
Total vdW correction in eV:      3.8291955
DAV:   5    -0.545323348889E+02   -0.11466E-05   -0.42265E-05    96   0.473E-02
Total vdW correction in eV:      3.8291818
  14 F= -.54532335E+02 E0= -.54532335E+02  d E =-.538172E-02  mag=     1.0000
 BRION: g(F)=  0.179E-02 g(S)=  0.000E+00 retain N=  3 mean eig= 2.03
 eig:   3.493  2.151  0.450
 bond charge predicted
       N       E                     dE             d eps       ncg     rms          rms(c)
Total vdW correction in eV:      3.8307445
DAV:   1    -0.545350485706E+02   -0.27148E-02   -0.42093E-01    80   0.390E+00    0.189E-01
Total vdW correction in eV:      3.8306911
DAV:   2    -0.545356118884E+02   -0.56332E-03   -0.64424E-03    92   0.447E-01    0.121E-01
Total vdW correction in eV:      3.8306664
DAV:   3    -0.545356200169E+02   -0.81286E-05   -0.33633E-04    96   0.131E-01    0.550E-02
Total vdW correction in eV:      3.8306171
DAV:   4    -0.545356773517E+02   -0.57335E-04   -0.20213E-04    96   0.950E-02    0.126E-02
Total vdW correction in eV:      3.8306003
DAV:   5    -0.545356718871E+02    0.54646E-05   -0.28999E-05    96   0.375E-02
Total vdW correction in eV:      3.8305871
  15 F= -.54535672E+02 E0= -.54535672E+02  d E =-.333700E-02  mag=     1.0000
 BRION: g(F)=  0.187E-02 g(S)=  0.000E+00 retain N=  4 mean eig= 3.48
 eig:   6.250  6.250  0.703  0.703
 bond charge predicted
       N       E                     dE             d eps       ncg     rms          rms(c)
Total vdW correction in eV:      3.8314643
DAV:   1    -0.545382765220E+02   -0.25992E-02   -0.64777E-01    80   0.487E+00    0.246E-01
Total vdW correction in eV:      3.8311921
DAV:   2    -0.545389818820E+02   -0.70536E-03   -0.87373E-03    96   0.514E-01    0.154E-01
Total vdW correction in eV:      3.8310403
DAV:   3    -0.545389822314E+02   -0.34937E-06   -0.53857E-04    92   0.158E-01    0.575E-02
Total vdW correction in eV:      3.8309504
DAV:   4    -0.545390434531E+02   -0.61222E-04   -0.19427E-04    88   0.101E-01    0.131E-02
Total vdW correction in eV:      3.8309446
DAV:   5    -0.545390477317E+02   -0.42786E-05   -0.30025E-05    96   0.403E-02
Total vdW correction in eV:      3.8309390
  16 F= -.54539048E+02 E0= -.54539048E+02  d E =-.337584E-02  mag=     1.0000
 BRION: g(F)=  0.137E-02 g(S)=  0.000E+00 retain N=  2 mean eig= 0.95
 eig:   0.071  1.838
 bond charge predicted
       N       E                     dE             d eps       ncg     rms          rms(c)
Total vdW correction in eV:      3.8313445
DAV:   1    -0.545391228886E+02   -0.79436E-04   -0.33234E-02    88   0.111E+00    0.457E-02
Total vdW correction in eV:      3.8314480
DAV:   2    -0.545391844658E+02   -0.61577E-04   -0.53989E-04   104   0.131E-01    0.313E-02
Total vdW correction in eV:      3.8315195
DAV:   3    -0.545392043444E+02   -0.19879E-04   -0.36981E-05    96   0.402E-02    0.146E-02
Total vdW correction in eV:      3.8315684
DAV:   4    -0.545392157223E+02   -0.11378E-04   -0.19452E-05    88   0.300E-02    0.407E-03
Total vdW correction in eV:      3.8315592
DAV:   5    -0.545392081352E+02    0.75871E-05   -0.37934E-06    80   0.148E-02
Total vdW correction in eV:      3.8315553
  17 F= -.54539208E+02 E0= -.54539208E+02  d E =-.160404E-03  mag=     1.0000
 BRION: g(F)=  0.174E-02 g(S)=  0.000E+00 retain N=  2 mean eig= 0.52
 eig:   0.523  0.523
 bond charge predicted
       N       E                     dE             d eps       ncg     rms          rms(c)
Total vdW correction in eV:      3.8311183
DAV:   1    -0.545391029303E+02    0.11279E-03   -0.13765E-02    96   0.715E-01    0.330E-02
Total vdW correction in eV:      3.8310831
DAV:   2    -0.545391262641E+02   -0.23334E-04   -0.30467E-04    96   0.948E-02    0.241E-02
Total vdW correction in eV:      3.8310598
DAV:   3    -0.545391201926E+02    0.60715E-05   -0.16652E-05    80   0.289E-02
Total vdW correction in eV:      3.8310448
  18 F= -.54539120E+02 E0= -.54539120E+02  d E =0.879426E-04  mag=     1.0000
 BRION: g(F)=  0.682E-03 g(S)=  0.000E+00 retain N=  2 mean eig= 2.79
 eig:   0.279  5.303
 bond charge predicted
       N       E                     dE             d eps       ncg     rms          rms(c)
Total vdW correction in eV:      3.8311078
DAV:   1    -0.545397193515E+02   -0.59309E-03   -0.19824E-02    92   0.854E-01    0.413E-02
Total vdW correction in eV:      3.8310808
DAV:   2    -0.545397486754E+02   -0.29324E-04   -0.28261E-04   100   0.946E-02    0.270E-02
Total vdW correction in eV:      3.8310670
DAV:   3    -0.545397451959E+02    0.34795E-05   -0.14588E-05    80   0.282E-02
Total vdW correction in eV:      3.8310569
  19 F= -.54539745E+02 E0= -.54539745E+02  d E =-.625003E-03  mag=     1.0000
 BRION: g(F)=  0.547E-03 g(S)=  0.000E+00 retain N=  2 mean eig= 0.20
 eig:   0.301  0.102
 bond charge predicted
       N       E                     dE             d eps       ncg     rms          rms(c)
Total vdW correction in eV:      3.8312378
DAV:   1    -0.545400273090E+02   -0.27863E-03   -0.82422E-03    96   0.558E-01    0.263E-02
Total vdW correction in eV:      3.8312491
DAV:   2    -0.545400484134E+02   -0.21104E-04   -0.16397E-04    96   0.740E-02    0.179E-02
Total vdW correction in eV:      3.8312550
DAV:   3    -0.545400467994E+02    0.16140E-05   -0.76646E-06    80   0.208E-02
Total vdW correction in eV:      3.8312599
  20 F= -.54540047E+02 E0= -.54540047E+02  d E =-.301603E-03  mag=     1.0000
 BRION: g(F)=  0.636E-03 g(S)=  0.000E+00 retain N=  3 mean eig= 1.42
 eig:   3.943  0.255  0.056
 bond charge predicted
       N       E                     dE             d eps       ncg     rms          rms(c)
Total vdW correction in eV:      3.8316970
DAV:   1    -0.545408730566E+02   -0.82464E-03   -0.67391E-02    96   0.157E+00    0.769E-02
Total vdW correction in eV:      3.8316821
DAV:   2    -0.545409693301E+02   -0.96274E-04   -0.10096E-03    96   0.179E-01    0.494E-02
Total vdW correction in eV:      3.8316770
DAV:   3    -0.545409717739E+02   -0.24438E-05   -0.55877E-05    96   0.538E-02
Total vdW correction in eV:      3.8316641
  21 F= -.54540972E+02 E0= -.54540972E+02  d E =-.924975E-03  mag=     1.0000
 BRION: g(F)=  0.757E-03 g(S)=  0.000E+00 retain N=  3 mean eig= 1.85
 eig:   3.514  0.526  1.513
 bond charge predicted
       N       E                     dE             d eps       ncg     rms          rms(c)
Total vdW correction in eV:      3.8313335
DAV:   1    -0.545412503501E+02   -0.28102E-03   -0.17101E-02    96   0.794E-01    0.354E-02
Total vdW correction in eV:      3.8312554
DAV:   2    -0.545412859008E+02   -0.35551E-04   -0.33370E-04    92   0.105E-01    0.243E-02
Total vdW correction in eV:      3.8312115
DAV:   3    -0.545412684955E+02    0.17405E-04   -0.21100E-05    88   0.318E-02    0.121E-02
Total vdW correction in eV:      3.8311767
DAV:   4    -0.545412658543E+02    0.26413E-05   -0.12461E-05    80   0.246E-02
Total vdW correction in eV:      3.8311840
  22 F= -.54541266E+02 E0= -.54541266E+02  d E =-.294080E-03  mag=     1.0000
 BRION: g(F)=  0.758E-03 g(S)=  0.000E+00 retain N=  2 mean eig= 1.34
 eig:   0.274  2.402
 bond charge predicted
       N       E                     dE             d eps       ncg     rms          rms(c)
Total vdW correction in eV:      3.8312633
DAV:   1    -0.545411197174E+02    0.14878E-03   -0.12193E-02    92   0.649E-01    0.257E-02
Total vdW correction in eV:      3.8312889
DAV:   2    -0.545411439140E+02   -0.24197E-04   -0.25637E-04    96   0.882E-02    0.209E-02
Total vdW correction in eV:      3.8313104
DAV:   3    -0.545411386597E+02    0.52543E-05   -0.12369E-05    76   0.254E-02
Total vdW correction in eV:      3.8313276
  23 F= -.54541139E+02 E0= -.54541139E+02  d E =0.127195E-03  mag=     1.0000
 BRION: g(F)=  0.817E-03 g(S)=  0.000E+00 retain N=  3 mean eig= 1.88
 eig:   4.835  0.419  0.378
 bond charge predicted
       N       E                     dE             d eps       ncg     rms          rms(c)
Total vdW correction in eV:      3.8315574
DAV:   1    -0.545414083100E+02   -0.26440E-03   -0.99818E-03    96   0.596E-01    0.276E-02
Total vdW correction in eV:      3.8315658
DAV:   2    -0.545414318528E+02   -0.23543E-04   -0.23876E-04    92   0.875E-02    0.199E-02
Total vdW correction in eV:      3.8315662
DAV:   3    -0.545414270678E+02    0.47850E-05   -0.10311E-05    80   0.242E-02
Total vdW correction in eV:      3.8315627
  24 F= -.54541427E+02 E0= -.54541427E+02  d E =-.288408E-03  mag=     1.0000
 BRION: g(F)=  0.351E-03 g(S)=  0.000E+00 retain N=  3 mean eig= 1.58
 eig:   0.154  0.107  4.470
 bond charge predicted
       N       E                     dE             d eps       ncg     rms          rms(c)
Total vdW correction in eV:      3.8315477
DAV:   1    -0.545415641974E+02   -0.13234E-03   -0.26972E-03    88   0.318E-01    0.145E-02
Total vdW correction in eV:      3.8315287
DAV:   2    -0.545415703742E+02   -0.61768E-05   -0.53494E-05    88   0.428E-02
Total vdW correction in eV:      3.8315189
  25 F= -.54541570E+02 E0= -.54541570E+02  d E =-.143306E-03  mag=     1.0000
 BRION: g(F)=  0.258E-03 g(S)=  0.000E+00 retain N=  3 mean eig= 2.51
 eig:   7.010  0.257  0.257
 bond charge predicted
       N       E                     dE             d eps       ncg     rms          rms(c)
Total vdW correction in eV:      3.8316128
DAV:   1    -0.545418376385E+02   -0.27344E-03   -0.83224E-03    96   0.553E-01    0.310E-02
Total vdW correction in eV:      3.8315905
DAV:   2    -0.545418480004E+02   -0.10362E-04   -0.11676E-04    96   0.603E-02    0.196E-02
Total vdW correction in eV:      3.8315750
DAV:   3    -0.545418449708E+02    0.30296E-05   -0.76686E-06    80   0.200E-02
Total vdW correction in eV:      3.8315665
  26 F= -.54541845E+02 E0= -.54541845E+02  d E =-.274597E-03  mag=     1.0000
 BRION: g(F)=  0.260E-03 g(S)=  0.000E+00 retain N=  3 mean eig= 0.80
 eig:   1.785  0.325  0.297
 bond charge predicted
       N       E                     dE             d eps       ncg     rms          rms(c)
Total vdW correction in eV:      3.8318318
DAV:   1    -0.545420433724E+02   -0.19537E-03   -0.64232E-03    96   0.488E-01    0.235E-02
Total vdW correction in eV:      3.8318442
DAV:   2    -0.545420560335E+02   -0.12661E-04   -0.10844E-04    92   0.585E-02    0.151E-02
Total vdW correction in eV:      3.8318514
DAV:   3    -0.545420555263E+02    0.50725E-06   -0.57578E-06    80   0.176E-02
Total vdW correction in eV:      3.8318540
  27 F= -.54542056E+02 E0= -.54542056E+02  d E =-.210555E-03  mag=     1.0000
 BRION: g(F)=  0.301E-03 g(S)=  0.000E+00 retain N=  3 mean eig= 2.60
 eig:   6.771  0.338  0.690
 bond charge predicted
       N       E                     dE             d eps       ncg     rms          rms(c)
Total vdW correction in eV:      3.8319958
DAV:   1    -0.545423902812E+02   -0.33425E-03   -0.22253E-02    92   0.896E-01    0.419E-02
Total vdW correction in eV:      3.8319631
DAV:   2    -0.545424214570E+02   -0.31176E-04   -0.33840E-04    92   0.102E-01    0.276E-02
Total vdW correction in eV:      3.8319385
DAV:   3    -0.545424142270E+02    0.72300E-05   -0.18808E-05    96   0.301E-02
Total vdW correction in eV:      3.8319211
  28 F= -.54542414E+02 E0= -.54542414E+02  d E =-.358701E-03  mag=     1.0000
 BRION: g(F)=  0.370E-03 g(S)=  0.000E+00 retain N=  3 mean eig= 1.80
 eig:   4.979  0.214  0.214
 bond charge predicted
       N       E                     dE             d eps       ncg     rms          rms(c)
Total vdW correction in eV:      3.8317976
DAV:   1    -0.545424415701E+02   -0.20113E-04   -0.28114E-03    92   0.322E-01    0.141E-02
Total vdW correction in eV:      3.8317771
DAV:   2    -0.545424540313E+02   -0.12461E-04   -0.84495E-05    92   0.532E-02    0.111E-02
Total vdW correction in eV:      3.8317713
DAV:   3    -0.545424457720E+02    0.82593E-05   -0.33126E-06    80   0.132E-02
Total vdW correction in eV:      3.8317619
  29 F= -.54542446E+02 E0= -.54542446E+02  d E =-.315449E-04  mag=     1.0000
 BRION: g(F)=  0.305E-03 g(S)=  0.000E+00 retain N=  3 mean eig= 2.08
 eig:   5.370  0.367  0.502
 bond charge predicted
       N       E                     dE             d eps       ncg     rms          rms(c)
Total vdW correction in eV:      3.8318333
DAV:   1    -0.545424337064E+02    0.20325E-04   -0.15202E-03    88   0.238E-01    0.100E-02
Total vdW correction in eV:      3.8318490
DAV:   2    -0.545424393368E+02   -0.56304E-05   -0.44952E-05    92   0.386E-02
Total vdW correction in eV:      3.8318545
  30 F= -.54542439E+02 E0= -.54542439E+02  d E =0.643513E-05  mag=     1.0000
 BRION: g(F)=  0.234E-03 g(S)=  0.000E+00 retain N=  3 mean eig= 1.98
 eig:   5.505  0.223  0.223
 bond charge predicted
       N       E                     dE             d eps       ncg     rms          rms(c)
Total vdW correction in eV:      3.8319877
DAV:   1    -0.545425921492E+02   -0.15844E-03   -0.39356E-03    92   0.378E-01    0.176E-02
Total vdW correction in eV:      3.8319896
DAV:   2    -0.545426000894E+02   -0.79401E-05   -0.63240E-05    96   0.443E-02
Total vdW correction in eV:      3.8319888
  31 F= -.54542600E+02 E0= -.54542600E+02  d E =-.160753E-03  mag=     1.0000
 BRION: g(F)=  0.174E-03 g(S)=  0.000E+00 retain N=  3 mean eig= 0.80
 eig:   2.142  0.239  0.014
 bond charge predicted
       N       E                     dE             d eps       ncg     rms          rms(c)
Total vdW correction in eV:      3.8319970
DAV:   1    -0.545427698797E+02   -0.17773E-03   -0.61187E-03    96   0.473E-01    0.265E-02
Total vdW correction in eV:      3.8319686
DAV:   2    -0.545427805503E+02   -0.10671E-04   -0.88523E-05    92   0.532E-02    0.170E-02
Total vdW correction in eV:      3.8319452
DAV:   3    -0.545427770321E+02    0.35182E-05   -0.66912E-06    76   0.195E-02
Total vdW correction in eV:      3.8319344
  32 F= -.54542777E+02 E0= -.54542777E+02  d E =-.176943E-03  mag=     1.0000
 BRION: g(F)=  0.222E-03 g(S)=  0.000E+00 retain N=  3 mean eig= 2.62
 eig:   7.634  0.211  0.004
 bond charge predicted
       N       E                     dE             d eps       ncg     rms          rms(c)
Total vdW correction in eV:      3.8322219
DAV:   1    -0.545431321260E+02   -0.35158E-03   -0.26616E-02    88   0.992E-01    0.493E-02
Total vdW correction in eV:      3.8322006
DAV:   2    -0.545431722323E+02   -0.40106E-04   -0.36400E-04    92   0.105E-01    0.311E-02
Total vdW correction in eV:      3.8321904
DAV:   3    -0.545431668772E+02    0.53551E-05   -0.19389E-05    88   0.314E-02
Total vdW correction in eV:      3.8321791
  33 F= -.54543167E+02 E0= -.54543167E+02  d E =-.389845E-03  mag=     1.0000
 BRION: g(F)=  0.248E-03 g(S)=  0.000E+00 retain N=  3 mean eig= 1.72
 eig:   0.594  2.657  1.895
 bond charge predicted
       N       E                     dE             d eps       ncg     rms          rms(c)
Total vdW correction in eV:      3.8323485
DAV:   1    -0.545432053280E+02   -0.33096E-04   -0.28033E-03    96   0.321E-01    0.139E-02
Total vdW correction in eV:      3.8323624
DAV:   2    -0.545432126386E+02   -0.73106E-05   -0.76655E-05    92   0.500E-02
Total vdW correction in eV:      3.8323668
  34 F= -.54543213E+02 E0= -.54543213E+02  d E =-.457614E-04  mag=     1.0000
 BRION: g(F)=  0.269E-03 g(S)=  0.000E+00 retain N=  3 mean eig= 2.15
 eig:   5.728  0.355  0.355
 bond charge predicted
       N       E                     dE             d eps       ncg     rms          rms(c)
Total vdW correction in eV:      3.8321596
DAV:   1    -0.545430025703E+02    0.20276E-03   -0.83535E-03    96   0.559E-01    0.247E-02
Total vdW correction in eV:      3.8321602
DAV:   2    -0.545430229477E+02   -0.20377E-04   -0.14968E-04    92   0.687E-02    0.161E-02
Total vdW correction in eV:      3.8321609
DAV:   3    -0.545430201554E+02    0.27923E-05   -0.59313E-06    80   0.178E-02
Total vdW correction in eV:      3.8321632
  35 F= -.54543020E+02 E0= -.54543020E+02  d E =0.192483E-03  mag=     1.0000
 BRION: g(F)=  0.249E-03 g(S)=  0.000E+00 retain N=  3 mean eig= 1.62
 eig:   0.418  0.418  4.031
 bond charge predicted
       N       E                     dE             d eps       ncg     rms          rms(c)
Total vdW correction in eV:      3.8323097
DAV:   1    -0.545432934324E+02   -0.27048E-03   -0.14699E-02    96   0.733E-01    0.366E-02
Total vdW correction in eV:      3.8322858
DAV:   2    -0.545433184272E+02   -0.24995E-04   -0.20800E-04    96   0.802E-02    0.231E-02
Total vdW correction in eV:      3.8322718
DAV:   3    -0.545433139121E+02    0.45151E-05   -0.11638E-05    76   0.260E-02
Total vdW correction in eV:      3.8322603
  36 F= -.54543314E+02 E0= -.54543314E+02  d E =-.293757E-03  mag=     1.0000
 BRION: g(F)=  0.143E-03 g(S)=  0.000E+00 retain N=  3 mean eig= 1.41
 eig:   3.896  0.271  0.057
 bond charge predicted
       N       E                     dE             d eps       ncg     rms          rms(c)
Total vdW correction in eV:      3.8324461
DAV:   1    -0.545433957770E+02   -0.77350E-04   -0.25223E-03    92   0.309E-01    0.142E-02
Total vdW correction in eV:      3.8324562
DAV:   2    -0.545433966099E+02   -0.83296E-06   -0.45173E-05    88   0.380E-02
Total vdW correction in eV:      3.8324614
  37 F= -.54543397E+02 E0= -.54543397E+02  d E =-.826978E-04  mag=     1.0000
 BRION: g(F)=  0.157E-03 g(S)=  0.000E+00 retain N=  3 mean eig= 2.30
 eig:   6.238  0.326  0.326
 bond charge predicted
       N       E                     dE             d eps       ncg     rms          rms(c)
Total vdW correction in eV:      3.8327246
DAV:   1    -0.545437164946E+02   -0.32072E-03   -0.34668E-02    80   0.113E+00    0.580E-02
Total vdW correction in eV:      3.8326912
DAV:   2    -0.545437705599E+02   -0.54065E-04   -0.47884E-04    92   0.121E-01    0.366E-02
Total vdW correction in eV:      3.8326686
DAV:   3    -0.545437638134E+02    0.67465E-05   -0.29701E-05    96   0.392E-02
Total vdW correction in eV:      3.8326493
  38 F= -.54543764E+02 E0= -.54543764E+02  d E =-.367203E-03  mag=     1.0000
 BRION: g(F)=  0.162E-03 g(S)=  0.000E+00 retain N=  3 mean eig= 1.65
 eig:   4.498  0.208  0.258
 bond charge predicted
       N       E                     dE             d eps       ncg     rms          rms(c)
Total vdW correction in eV:      3.8325521
DAV:   1    -0.545437939953E+02   -0.23435E-04   -0.17898E-03    96   0.261E-01    0.121E-02
Total vdW correction in eV:      3.8325306
DAV:   2    -0.545437995475E+02   -0.55522E-05   -0.53317E-05    96   0.430E-02
Total vdW correction in eV:      3.8325235
  39 F= -.54543800E+02 E0= -.54543800E+02  d E =-.357341E-04  mag=     1.0000
 BRION: g(F)=  0.198E-03 g(S)=  0.000E+00 retain N=  2 mean eig= 0.42
 eig:   0.104  0.741
 bond charge predicted
       N       E                     dE             d eps       ncg     rms          rms(c)
Total vdW correction in eV:      3.8325678
DAV:   1    -0.545437799450E+02    0.14050E-04   -0.26693E-03    92   0.315E-01    0.123E-02
Total vdW correction in eV:      3.8325715
DAV:   2    -0.545437880804E+02   -0.81354E-05   -0.68792E-05    88   0.466E-02
Total vdW correction in eV:      3.8325752
  40 F= -.54543788E+02 E0= -.54543788E+02  d E =0.114671E-04  mag=     1.0000
 BRION: g(F)=  0.259E-03 g(S)=  0.000E+00 retain N=  3 mean eig= 0.75
 eig:   2.002  0.123  0.123
 bond charge predicted
       N       E                     dE             d eps       ncg     rms          rms(c)
Total vdW correction in eV:      3.8327243
DAV:   1    -0.545438940556E+02   -0.11411E-03   -0.47699E-03    80   0.416E-01    0.176E-02
Total vdW correction in eV:      3.8327284
DAV:   2    -0.545439058954E+02   -0.11840E-04   -0.92285E-05    92   0.535E-02    0.117E-02
Total vdW correction in eV:      3.8327278
DAV:   3    -0.545439036620E+02    0.22334E-05   -0.32339E-06    80   0.135E-02
Total vdW correction in eV:      3.8327240
  41 F= -.54543904E+02 E0= -.54543904E+02  d E =-.115582E-03  mag=     1.0000
 BRION: g(F)=  0.105E-03 g(S)=  0.000E+00 retain N=  3 mean eig= 2.32
 eig:   6.540  0.251  0.162
 bond charge predicted
       N       E                     dE             d eps       ncg     rms          rms(c)
Total vdW correction in eV:      3.8326769
DAV:   1    -0.545439156304E+02   -0.97350E-05   -0.30055E-04    96   0.106E-01    0.450E-03
Total vdW correction in eV:      3.8326660
DAV:   2    -0.545439165572E+02   -0.92681E-06   -0.68427E-06    76   0.161E-02
Total vdW correction in eV:      3.8326609
  42 F= -.54543917E+02 E0= -.54543917E+02  d E =-.128952E-04  mag=     1.0000
 BRION: g(F)=  0.881E-04 g(S)=  0.000E+00 retain N=  2 mean eig= 0.36
 eig:   0.329  0.381
 bond charge predicted
       N       E                     dE             d eps       ncg     rms          rms(c)
Total vdW correction in eV:      3.8327678
DAV:   1    -0.545439984449E+02   -0.82815E-04   -0.24914E-03    92   0.304E-01    0.154E-02
Total vdW correction in eV:      3.8327622
DAV:   2    -0.545440049048E+02   -0.64599E-05   -0.35966E-05    84   0.332E-02
Total vdW correction in eV:      3.8327579
  43 F= -.54544005E+02 E0= -.54544005E+02  d E =-.883476E-04  mag=     1.0000
 BRION: g(F)=  0.767E-04 g(S)=  0.000E+00 retain N=  3 mean eig= 0.60
 eig:   0.790  0.547  0.454
 bond charge predicted
       N       E                     dE             d eps       ncg     rms          rms(c)
Total vdW correction in eV:      3.8328101
DAV:   1    -0.545441266634E+02   -0.12822E-03   -0.74514E-03    88   0.528E-01    0.293E-02
Total vdW correction in eV:      3.8327833
DAV:   2    -0.545441448184E+02   -0.18155E-04   -0.10745E-04    92   0.587E-02    0.185E-02
Total vdW correction in eV:      3.8327659
DAV:   3    -0.545441390612E+02    0.57572E-05   -0.76517E-06    76   0.212E-02
Total vdW correction in eV:      3.8327542
  44 F= -.54544139E+02 E0= -.54544139E+02  d E =-.134156E-03  mag=     1.0000
 BRION: g(F)=  0.135E-03 g(S)=  0.000E+00 retain N=  4 mean eig= 1.95
 eig:   3.674  3.674  0.407  0.034
 bond charge predicted
       N       E                     dE             d eps       ncg     rms          rms(c)
Total vdW correction in eV:      3.8337960
DAV:   1    -0.545443816112E+02   -0.23679E-03   -0.36203E-01    80   0.366E+00    0.179E-01
Total vdW correction in eV:      3.8336824
DAV:   2    -0.545448607933E+02   -0.47918E-03   -0.49319E-03    96   0.386E-01    0.111E-01
Total vdW correction in eV:      3.8336332
DAV:   3    -0.545448633816E+02   -0.25883E-05   -0.28730E-04    96   0.124E-01    0.494E-02
Total vdW correction in eV:      3.8335852
DAV:   4    -0.545449015199E+02   -0.38138E-04   -0.14628E-04    96   0.870E-02    0.102E-02
Total vdW correction in eV:      3.8335776
DAV:   5    -0.545448949331E+02    0.65868E-05   -0.21660E-05    96   0.347E-02
Total vdW correction in eV:      3.8335741
  45 F= -.54544895E+02 E0= -.54544895E+02  d E =-.755872E-03  mag=     1.0000
 BRION: g(F)=  0.378E-04 g(S)=  0.000E+00 retain N=  3 mean eig= 5.38
 eig:   7.618  7.618  0.904
 bond charge predicted
       N       E                     dE             d eps       ncg     rms          rms(c)
Total vdW correction in eV:      3.8336023
DAV:   1    -0.545449059599E+02   -0.44400E-05   -0.25658E-03    96   0.309E-01    0.132E-02
Total vdW correction in eV:      3.8335959
DAV:   2    -0.545449130870E+02   -0.71271E-05   -0.49552E-05    96   0.397E-02
Total vdW correction in eV:      3.8335901
  46 F= -.54544913E+02 E0= -.54544913E+02  d E =-.181539E-04  mag=     1.0000
 BRION: g(F)=  0.110E-03 g(S)=  0.000E+00 retain N=  3 mean eig= 1.62
 eig:   2.251  2.251  0.358
 bond charge predicted
       N       E                     dE             d eps       ncg     rms          rms(c)
Total vdW correction in eV:      3.8340132
DAV:   1    -0.545449877680E+02   -0.81808E-04   -0.44579E-02    96   0.129E+00    0.673E-02
Total vdW correction in eV:      3.8339878
DAV:   2    -0.545450682712E+02   -0.80503E-04   -0.62566E-04    92   0.138E-01    0.416E-02
Total vdW correction in eV:      3.8339793
DAV:   3    -0.545450600917E+02    0.81794E-05   -0.38440E-05    96   0.453E-02
Total vdW correction in eV:      3.8339673
  47 F= -.54545060E+02 E0= -.54545060E+02  d E =-.147005E-03  mag=     1.0000
 BRION: g(F)=  0.104E-03 g(S)=  0.000E+00 retain N=  4 mean eig= 3.71
 eig:   6.807  6.807  0.607  0.607
 bond charge predicted
       N       E                     dE             d eps       ncg     rms          rms(c)
Total vdW correction in eV:      3.8343724
DAV:   1    -0.545450454364E+02    0.22835E-04   -0.10206E-01    88   0.195E+00    0.940E-02
Total vdW correction in eV:      3.8342978
DAV:   2    -0.545451838332E+02   -0.13840E-03   -0.13441E-03    92   0.201E-01    0.585E-02
Total vdW correction in eV:      3.8342550
DAV:   3    -0.545451704497E+02    0.13384E-04   -0.78435E-05    96   0.632E-02    0.238E-02
Total vdW correction in eV:      3.8342230
DAV:   4    -0.545451828739E+02   -0.12424E-04   -0.35526E-05    96   0.427E-02    0.517E-03
Total vdW correction in eV:      3.8342211
DAV:   5    -0.545451746194E+02    0.82544E-05   -0.48604E-06    80   0.170E-02
Total vdW correction in eV:      3.8342203
  48 F= -.54545175E+02 E0= -.54545175E+02  d E =-.114528E-03  mag=     1.0000
 BRION: g(F)=  0.882E-05 g(S)=  0.000E+00 retain N=  2 mean eig= 0.60
 eig:   0.115  1.093
 reached required accuracy - stopping structural energy minimisation
--------------------------------------------------------
>>>  Job finished at Fri May  1 19:24:23 EDT 2020
