>>>  VASP 5.4.4 with BEEF-vdw and vtst
--------------------------------------------------------
>>>  Job information
     SLURM_JOBID=2127070
     SLURM_JOB_NODELIST=cpn-u24-34
     SLURM_NNODES=1
     SLURMTMPDIR=/scratch/2127070
     working directory = /projects/academic/ericwalk/cahorvat/DecaneReaction/H/vtst
--------------------------------------------------------
>>>  Module information
The Intel compilers are in your path. This is adequate for compiling and
running most codes. Source
/util/academic/intel/17.0/compilers_and_libraries_2017/linux/bin/compilervars.sh
for more features. 
 The MKL Libraries are in your library path. This is adequate for compiling and
running most codes. Source $MKL/bin/mklvars.sh" for more features. 
 Intel-MPI is in your path. This is adequate for compiling and running most
codes. Source the
/util/academic/intel/17.0/compilers_and_libraries_2017/linux/mpi/intel64/bin/mpivars.sh
file for more features. 

Currently Loaded Modules:
  1) intel/17.0   2) mkl/2017.0.1   3) intel-mpi/2017.0.1

 

--------------------------------------------------------
>>>  Running Configuration
NPROCS=16
--------------------------------------------------------
>>>  Job started at Sun Mar 29 16:14:25 EDT 2020
--------------------------------------------------------
 running on   16 total cores
 distrk:  each k-point on   16 cores,    1 groups
 distr:  one band on    4 cores,    4 groups
 using from now: INCAR     
 vasp.5.4.4.18Apr17-6-g9f103f2a35 (build Dec 31 2018 11:41:54) complex          
  
 POSCAR found type information on POSCAR  H 
 POSCAR found :  1 types and       1 ions
 scaLAPACK will be used

 ----------------------------------------------------------------------------- 
|                                                                             |
|  ADVICE TO THIS USER RUNNING 'VASP/VAMP'   (HEAR YOUR MASTER'S VOICE ...):  |
|                                                                             |
|      You have a (more or less) 'small supercell' and for smaller cells      |
|      it is recommended  to use the reciprocal-space projection scheme!      |
|      The real space optimization is not  efficient for small cells and it   |
|      is also less accurate ...                                              |
|      Therefore set LREAL=.FALSE. in the  INCAR file                         |
|                                                                             |
 ----------------------------------------------------------------------------- 

 LDA part: xc-table for Pade appr. of Perdew
 POSCAR found type information on POSCAR  H 
 POSCAR found :  1 types and       1 ions
 POSCAR, INCAR and KPOINTS ok, starting setup
 FFT: planning ...
 WAVECAR not read
 WARNING: random wavefunctions but no delay for mixing, default for NELMDL
 entering main loop
       N       E                     dE             d eps       ncg     rms          rms(c)
DAV:   1     0.320740568477E+01    0.32074E+01   -0.20681E+01     8   0.151E+01
DAV:   2     0.872840067840E-01   -0.31201E+01   -0.31201E+01    12   0.139E+01
DAV:   3    -0.278498261214E-01   -0.11513E+00   -0.11513E+00    12   0.509E+00
DAV:   4    -0.280816085624E-01   -0.23178E-03   -0.23178E-03     8   0.275E-01
DAV:   5    -0.280830493331E-01   -0.14408E-05   -0.14406E-05    16   0.254E-02    0.536E-02
DAV:   6    -0.281315220326E-01   -0.48473E-04   -0.20699E-05    12   0.576E-02    0.291E-02
DAV:   7    -0.283763012007E-01   -0.24478E-03   -0.34749E-05    12   0.782E-02    0.147E-03
DAV:   8    -0.283793521946E-01   -0.30510E-05   -0.88019E-08    16   0.365E-03    0.488E-04
DAV:   9    -0.283805911973E-01   -0.12390E-05   -0.30289E-08     8   0.162E-03    0.652E-05
DAV:  10    -0.283807028678E-01   -0.11167E-06   -0.26210E-09    12   0.207E-04    0.268E-05
DAV:  11    -0.283807706298E-01   -0.67762E-07   -0.29774E-09    12   0.151E-04    0.130E-05
DAV:  12    -0.283808017221E-01   -0.31092E-07   -0.13935E-09    12   0.115E-04    0.102E-05
DAV:  13    -0.283808061858E-01   -0.44637E-08   -0.12751E-10    12   0.410E-05
   1 F= -.28380806E-01 E0= -.14276067E-01  d E =-.283808E-01
quench:  g(F)=  0.000E+00 g(S)=  0.000E+00 dE (1.order)= 0.000E+00
 reached required accuracy - stopping structural energy minimisation
--------------------------------------------------------
>>>  Job finished at Sun Mar 29 16:14:43 EDT 2020
