>>>  VASP 5.4.4 with BEEF-vdw and vtst
--------------------------------------------------------
>>>  Job information
     SLURM_JOBID=3057428
     SLURM_JOB_NODELIST=cpn-u25-30
     SLURM_NNODES=1
     SLURMTMPDIR=/scratch/3057428
     working directory = /projects/academic/ericwalk/kevingie/decane_nox_gas_phase/C2H5/vtst
--------------------------------------------------------
>>>  Module information
The Intel compilers are in your path. This is adequate for compiling and
running most codes. Source
/util/academic/intel/17.0/compilers_and_libraries_2017/linux/bin/compilervars.sh
for more features. 
 The MKL Libraries are in your library path. This is adequate for compiling and
running most codes. Source $MKL/bin/mklvars.sh" for more features. 
 Intel-MPI is in your path. This is adequate for compiling and running most
codes. Source the
/util/academic/intel/17.0/compilers_and_libraries_2017/linux/mpi/intel64/bin/mpivars.sh
file for more features. 

Currently Loaded Modules:
  1) python/py36-anaconda-5.3.1   3) mkl/2017.0.1
  2) intel/17.0                   4) intel-mpi/2017.0.1

 

--------------------------------------------------------
>>>  Running Configuration
NPROCS=16
--------------------------------------------------------
>>>  Job started at Mon May 11 11:56:45 EDT 2020
--------------------------------------------------------
 running on   16 total cores
 distrk:  each k-point on   16 cores,    1 groups
 distr:  one band on    4 cores,    4 groups
 using from now: INCAR     
 vasp.5.4.4.18Apr17-6-g9f103f2a35 (build Dec 31 2018 11:41:54) complex          
  
 POSCAR found type information on POSCAR  C  H 
 POSCAR found :  2 types and       7 ions
 scaLAPACK will be used

 ----------------------------------------------------------------------------- 
|                                                                             |
|  ADVICE TO THIS USER RUNNING 'VASP/VAMP'   (HEAR YOUR MASTER'S VOICE ...):  |
|                                                                             |
|      You have a (more or less) 'small supercell' and for smaller cells      |
|      it is recommended  to use the reciprocal-space projection scheme!      |
|      The real space optimization is not  efficient for small cells and it   |
|      is also less accurate ...                                              |
|      Therefore set LREAL=.FALSE. in the  INCAR file                         |
|                                                                             |
 ----------------------------------------------------------------------------- 

 LDA part: xc-table for Pade appr. of Perdew
 POSCAR found type information on POSCAR  C  H 
 POSCAR found :  2 types and       7 ions
 POSCAR, INCAR and KPOINTS ok, starting setup
 FFT: planning ...
 WAVECAR not read
 entering main loop
       N       E                     dE             d eps       ncg     rms          rms(c)
DAV:   1     0.653989485263E+02    0.65399E+02   -0.31121E+03    80   0.348E+02
DAV:   2    -0.174922792100E+02   -0.82891E+02   -0.76960E+02   112   0.911E+01
DAV:   3    -0.296458957218E+02   -0.12154E+02   -0.12122E+02   104   0.425E+01
DAV:   4    -0.300561847819E+02   -0.41029E+00   -0.41014E+00    88   0.827E+00
DAV:   5    -0.300655358736E+02   -0.93511E-02   -0.93505E-02   112   0.116E+00    0.158E+01
DAV:   6    -0.153588866590E+02    0.14707E+02   -0.48388E+01    80   0.300E+01    0.690E+00
DAV:   7    -0.275321581710E+02   -0.12173E+02   -0.11098E+01    88   0.138E+01    0.391E+00
DAV:   8    -0.292326665315E+02   -0.17005E+01   -0.51029E-01   104   0.409E+00    0.237E+00
DAV:   9    -0.329445653205E+02   -0.37119E+01   -0.14499E+00    96   0.484E+00    0.928E-01
DAV:  10    -0.335635497860E+02   -0.61898E+00   -0.89475E-02    88   0.143E+00    0.684E-01
DAV:  11    -0.342201712296E+02   -0.65662E+00   -0.13793E-01    80   0.149E+00    0.374E-01
DAV:  12    -0.345920447856E+02   -0.37187E+00   -0.88517E-02    64   0.113E+00    0.139E-01
DAV:  13    -0.347889809903E+02   -0.19694E+00   -0.14810E-02    72   0.462E-01    0.773E-02
DAV:  14    -0.348533098525E+02   -0.64329E-01   -0.60856E-03    80   0.316E-01    0.413E-02
DAV:  15    -0.348656108526E+02   -0.12301E-01   -0.11904E-03    88   0.142E-01    0.192E-02
DAV:  16    -0.348696244746E+02   -0.40136E-02   -0.36730E-04    96   0.818E-02    0.974E-03
DAV:  17    -0.348709572702E+02   -0.13328E-02   -0.14479E-04    88   0.450E-02    0.597E-03
DAV:  18    -0.348715465016E+02   -0.58923E-03   -0.61351E-05    88   0.278E-02    0.406E-03
DAV:  19    -0.348719968857E+02   -0.45038E-03   -0.31276E-05    72   0.199E-02    0.280E-03
DAV:  20    -0.348722516996E+02   -0.25481E-03   -0.20910E-05    88   0.158E-02    0.174E-03
DAV:  21    -0.348723259370E+02   -0.74237E-04   -0.35052E-06    88   0.705E-03    0.134E-03
DAV:  22    -0.348723677333E+02   -0.41796E-04   -0.21006E-06    80   0.533E-03    0.671E-04
DAV:  23    -0.348723887444E+02   -0.21011E-04   -0.10170E-06    80   0.386E-03    0.547E-04
DAV:  24    -0.348724003768E+02   -0.11632E-04   -0.35960E-07    72   0.240E-03    0.296E-04
DAV:  25    -0.348724055563E+02   -0.51795E-05   -0.26219E-07    80   0.186E-03    0.221E-04
DAV:  26    -0.348724076945E+02   -0.21383E-05   -0.43726E-08    88   0.922E-04    0.128E-04
DAV:  27    -0.348724094083E+02   -0.17137E-05   -0.49047E-08    88   0.784E-04    0.118E-04
DAV:  28    -0.348724099613E+02   -0.55309E-06   -0.93872E-09    96   0.391E-04    0.770E-05
DAV:  29    -0.348724105900E+02   -0.62865E-06   -0.93555E-09    80   0.350E-04    0.649E-05
DAV:  30    -0.348724108090E+02   -0.21904E-06   -0.29845E-09    88   0.201E-04    0.569E-05
DAV:  31    -0.348724109682E+02   -0.15915E-06   -0.81109E-10    80   0.120E-04    0.535E-05
DAV:  32    -0.348724110833E+02   -0.11516E-06   -0.55548E-10    72   0.986E-05    0.528E-05
DAV:  33    -0.348724111314E+02   -0.48026E-07   -0.18788E-10    72   0.594E-05    0.527E-05
DAV:  34    -0.348724111475E+02   -0.16076E-07   -0.36744E-11    80   0.344E-05    0.525E-05
DAV:  35    -0.348724111513E+02   -0.38519E-08    0.38716E-11    72   0.186E-05
   1 F= -.34872411E+02 E0= -.34872411E+02  d E =-.348724E+02  mag=     1.0000
quench:  g(F)=  0.000E+00 g(S)=  0.000E+00 dE (1.order)= 0.000E+00
 bond charge predicted
       N       E                     dE             d eps       ncg     rms          rms(c)
DAV:   1    -0.348723226480E+02    0.88499E-04   -0.24807E-03    64   0.298E-01    0.916E-03
DAV:   2    -0.348723227886E+02   -0.14064E-06   -0.26543E-05    88   0.316E-02    0.702E-03
DAV:   3    -0.348723211366E+02    0.16520E-05   -0.57477E-06    88   0.151E-02    0.128E-03
DAV:   4    -0.348723219080E+02   -0.77143E-06   -0.11826E-06    96   0.622E-03    0.664E-04
DAV:   5    -0.348723224073E+02   -0.49926E-06   -0.85392E-08    88   0.182E-03    0.392E-04
DAV:   6    -0.348723226769E+02   -0.26965E-06   -0.13351E-08    88   0.729E-04    0.135E-04
DAV:   7    -0.348723227789E+02   -0.10200E-06   -0.21810E-09    96   0.330E-04    0.741E-05
DAV:   8    -0.348723228365E+02   -0.57533E-07   -0.10299E-09    96   0.191E-04    0.602E-05
DAV:   9    -0.348723228638E+02   -0.27307E-07   -0.20721E-10    88   0.929E-05    0.557E-05
DAV:  10    -0.348723228947E+02   -0.30893E-07   -0.54443E-10    80   0.868E-05    0.537E-05
DAV:  11    -0.348723229014E+02   -0.67724E-08   -0.10147E-10    96   0.468E-05
   2 F= -.34872323E+02 E0= -.34872323E+02  d E =0.882499E-04  mag=     1.0000
quench:  g(F)=  0.000E+00 g(S)=  0.000E+00 dE (1.order)= 0.000E+00
 bond charge predicted
       N       E                     dE             d eps       ncg     rms          rms(c)
DAV:   1    -0.348725884100E+02   -0.26552E-03   -0.49457E-03    64   0.426E-01    0.136E-02
DAV:   2    -0.348725861643E+02    0.22457E-05   -0.38256E-05    88   0.399E-02    0.946E-03
DAV:   3    -0.348725819357E+02    0.42286E-05   -0.11608E-05    88   0.214E-02    0.213E-03
DAV:   4    -0.348725839165E+02   -0.19807E-05   -0.24267E-06    80   0.893E-03    0.128E-03
DAV:   5    -0.348725850333E+02   -0.11169E-05   -0.23928E-07    88   0.285E-03    0.581E-04
DAV:   6    -0.348725856022E+02   -0.56888E-06   -0.59852E-08    80   0.147E-03    0.260E-04
DAV:   7    -0.348725859266E+02   -0.32442E-06   -0.60593E-09    88   0.566E-04    0.130E-04
DAV:   8    -0.348725861508E+02   -0.22422E-06   -0.32187E-09    88   0.335E-04    0.707E-05
DAV:   9    -0.348725862360E+02   -0.85119E-07   -0.57294E-10    88   0.162E-04    0.600E-05
DAV:  10    -0.348725863326E+02   -0.96613E-07   -0.92491E-10    80   0.123E-04    0.554E-05
DAV:  11    -0.348725863688E+02   -0.36193E-07   -0.34010E-10    88   0.750E-05    0.541E-05
DAV:  12    -0.348725863875E+02   -0.18731E-07   -0.26807E-10    80   0.636E-05    0.528E-05
DAV:  13    -0.348725863926E+02   -0.51421E-08   -0.33040E-11    88   0.337E-05
   3 F= -.34872586E+02 E0= -.34872586E+02  d E =-.263491E-03  mag=     1.0000
quench:  g(F)=  0.000E+00 g(S)=  0.000E+00 dE (1.order)= 0.000E+00
 bond charge predicted
       N       E                     dE             d eps       ncg     rms          rms(c)
DAV:   1    -0.348721746443E+02    0.41174E-03   -0.49249E-03    64   0.414E-01    0.141E-02
DAV:   2    -0.348721710546E+02    0.35897E-05   -0.43040E-05    88   0.409E-02    0.926E-03
DAV:   3    -0.348721625904E+02    0.84642E-05   -0.11141E-05    96   0.202E-02    0.283E-03
DAV:   4    -0.348721660118E+02   -0.34214E-05   -0.26985E-06    88   0.929E-03    0.152E-03
DAV:   5    -0.348721690188E+02   -0.30071E-05   -0.26821E-07    88   0.306E-03    0.703E-04
DAV:   6    -0.348721712417E+02   -0.22229E-05   -0.11911E-07    88   0.196E-03    0.266E-04
DAV:   7    -0.348721721764E+02   -0.93473E-06   -0.96864E-09    96   0.698E-04    0.156E-04
DAV:   8    -0.348721730449E+02   -0.86852E-06   -0.70280E-09    96   0.407E-04    0.783E-05
DAV:   9    -0.348721733640E+02   -0.31902E-06   -0.14085E-09    96   0.204E-04    0.648E-05
DAV:  10    -0.348721736167E+02   -0.25272E-06   -0.11488E-09    88   0.144E-04    0.558E-05
DAV:  11    -0.348721737268E+02   -0.11013E-06   -0.51534E-10    96   0.946E-05    0.542E-05
DAV:  12    -0.348721738041E+02   -0.77273E-07   -0.84558E-10    80   0.100E-04    0.529E-05
DAV:  13    -0.348721738098E+02   -0.57261E-08   -0.63247E-11    96   0.392E-05
   4 F= -.34872174E+02 E0= -.34872174E+02  d E =0.412583E-03  mag=     1.0000
quench:  g(F)=  0.000E+00 g(S)=  0.000E+00 dE (1.order)= 0.000E+00
 bond charge predicted
       N       E                     dE             d eps       ncg     rms          rms(c)
DAV:   1    -0.348724322948E+02   -0.25849E-03   -0.50314E-03    64   0.438E-01    0.162E-02
DAV:   2    -0.348724263177E+02    0.59771E-05   -0.88201E-05    80   0.548E-02    0.110E-02
DAV:   3    -0.348724315254E+02   -0.52077E-05   -0.51573E-06    88   0.147E-02    0.620E-03
DAV:   4    -0.348724284298E+02    0.30956E-05   -0.41617E-06    80   0.131E-02    0.138E-03
DAV:   5    -0.348724337436E+02   -0.53138E-05   -0.11270E-06    80   0.601E-03    0.567E-04
DAV:   6    -0.348724361830E+02   -0.24394E-05   -0.80386E-08    88   0.160E-03    0.343E-04
DAV:   7    -0.348724376479E+02   -0.14649E-05   -0.13907E-08    88   0.722E-04    0.149E-04
DAV:   8    -0.348724387050E+02   -0.10570E-05   -0.71315E-09    88   0.411E-04    0.826E-05
DAV:   9    -0.348724392379E+02   -0.53289E-06   -0.34393E-09    88   0.274E-04    0.612E-05
DAV:  10    -0.348724395278E+02   -0.28991E-06   -0.16621E-09    88   0.167E-04    0.575E-05
DAV:  11    -0.348724397380E+02   -0.21023E-06   -0.32124E-09    80   0.187E-04    0.540E-05
DAV:  12    -0.348724397445E+02   -0.65401E-08   -0.27838E-10    88   0.623E-05
   5 F= -.34872440E+02 E0= -.34872440E+02  d E =-.265935E-03  mag=     1.0000
quench:  g(F)=  0.000E+00 g(S)=  0.000E+00 dE (1.order)= 0.000E+00
 bond charge predicted
       N       E                     dE             d eps       ncg     rms          rms(c)
DAV:   1    -0.348721597312E+02    0.28001E-03   -0.48780E-03    64   0.417E-01    0.184E-02
DAV:   2    -0.348721557533E+02    0.39779E-05   -0.62570E-05    80   0.490E-02    0.103E-02
DAV:   3    -0.348721649935E+02   -0.92402E-05   -0.51748E-06    80   0.148E-02    0.554E-03
DAV:   4    -0.348721662987E+02   -0.13052E-05   -0.32466E-06    80   0.112E-02    0.145E-03
DAV:   5    -0.348721689263E+02   -0.26276E-05   -0.61464E-07    72   0.473E-03    0.651E-04
DAV:   6    -0.348721694793E+02   -0.55298E-06   -0.11109E-07    72   0.180E-03    0.333E-04
DAV:   7    -0.348721696724E+02   -0.19319E-06   -0.12598E-08    80   0.758E-04    0.154E-04
DAV:   8    -0.348721698129E+02   -0.14047E-06   -0.23705E-09    80   0.320E-04    0.847E-05
DAV:   9    -0.348721698999E+02   -0.87016E-07   -0.94175E-10    80   0.207E-04    0.619E-05
DAV:  10    -0.348721699390E+02   -0.39029E-07   -0.31615E-10    96   0.956E-05    0.568E-05
DAV:  11    -0.348721699864E+02   -0.47456E-07   -0.95371E-10    80   0.117E-04    0.545E-05
DAV:  12    -0.348721699977E+02   -0.11316E-07   -0.21114E-10    96   0.597E-05    0.541E-05
DAV:  13    -0.348721700035E+02   -0.57919E-08   -0.71667E-11    72   0.453E-05
   6 F= -.34872170E+02 E0= -.34872170E+02  d E =0.269741E-03  mag=     1.0000
quench:  g(F)=  0.000E+00 g(S)=  0.000E+00 dE (1.order)= 0.000E+00
 bond charge predicted
       N       E                     dE             d eps       ncg     rms          rms(c)
DAV:   1    -0.348725884018E+02   -0.41840E-03   -0.48650E-03    64   0.402E-01    0.185E-02
DAV:   2    -0.348725731821E+02    0.15220E-04   -0.59428E-05    80   0.480E-02    0.997E-03
DAV:   3    -0.348725803893E+02   -0.72072E-05   -0.57905E-06    88   0.155E-02    0.523E-03
DAV:   4    -0.348725769530E+02    0.34363E-05   -0.28292E-06    88   0.104E-02    0.152E-03
DAV:   5    -0.348725838825E+02   -0.69295E-05   -0.49460E-07    80   0.445E-03    0.707E-04
DAV:   6    -0.348725890892E+02   -0.52067E-05   -0.15520E-07    80   0.198E-03    0.335E-04
DAV:   7    -0.348725907952E+02   -0.17059E-05   -0.18486E-08    88   0.889E-04    0.159E-04
DAV:   8    -0.348725927388E+02   -0.19437E-05   -0.10604E-08    80   0.432E-04    0.932E-05
DAV:   9    -0.348725942526E+02   -0.15138E-05   -0.69789E-09    88   0.318E-04    0.660E-05
DAV:  10    -0.348725948575E+02   -0.60491E-06   -0.21068E-09    88   0.173E-04    0.586E-05
DAV:  11    -0.348725955218E+02   -0.66430E-06   -0.47292E-09    88   0.241E-04    0.547E-05
DAV:  12    -0.348725956561E+02   -0.13426E-06   -0.10742E-09    88   0.122E-04    0.547E-05
DAV:  13    -0.348725956716E+02   -0.15484E-07   -0.11878E-10    88   0.580E-05    0.528E-05
DAV:  14    -0.348725956744E+02   -0.27888E-08    0.11013E-11    80   0.352E-05
   7 F= -.34872596E+02 E0= -.34872596E+02  d E =-.425671E-03  mag=     1.0000
quench:  g(F)=  0.000E+00 g(S)=  0.000E+00 dE (1.order)= 0.000E+00
 bond charge predicted
       N       E                     dE             d eps       ncg     rms          rms(c)
DAV:   1    -0.348725530149E+02    0.42657E-04   -0.27707E-03    64   0.311E-01    0.154E-02
DAV:   2    -0.348725342797E+02    0.18735E-04   -0.46439E-05    96   0.407E-02    0.863E-03
DAV:   3    -0.348725478404E+02   -0.13561E-04   -0.43557E-06    96   0.138E-02    0.450E-03
DAV:   4    -0.348725419604E+02    0.58801E-05   -0.19677E-06    88   0.839E-03    0.139E-03
DAV:   5    -0.348725487320E+02   -0.67716E-05   -0.42455E-07    88   0.402E-03    0.679E-04
DAV:   6    -0.348725536727E+02   -0.49407E-05   -0.11637E-07    96   0.180E-03    0.322E-04
DAV:   7    -0.348725554099E+02   -0.17372E-05   -0.15325E-08    96   0.825E-04    0.156E-04
DAV:   8    -0.348725576011E+02   -0.21912E-05   -0.15356E-08    96   0.498E-04    0.100E-04
DAV:   9    -0.348725588882E+02   -0.12871E-05   -0.77546E-09    96   0.350E-04    0.709E-05
DAV:  10    -0.348725594075E+02   -0.51937E-06   -0.29896E-09    96   0.220E-04    0.599E-05
DAV:  11    -0.348725597966E+02   -0.38902E-06   -0.58992E-09    80   0.267E-04    0.604E-05
DAV:  12    -0.348725597799E+02    0.16679E-07   -0.85445E-10    96   0.109E-04    0.555E-05
DAV:  13    -0.348725597890E+02   -0.90898E-08   -0.20077E-10    96   0.733E-05
   8 F= -.34872560E+02 E0= -.34872560E+02  d E =0.358854E-04  mag=     1.0000
quench:  g(F)=  0.000E+00 g(S)=  0.000E+00 dE (1.order)= 0.000E+00
 bond charge predicted
       N       E                     dE             d eps       ncg     rms          rms(c)
DAV:   1    -0.348722762354E+02    0.28354E-03   -0.79221E-04    88   0.174E-01    0.138E-02
DAV:   2    -0.348722730991E+02    0.31363E-05   -0.13409E-05    72   0.210E-02    0.777E-03
DAV:   3    -0.348722734047E+02   -0.30568E-06   -0.59675E-06    80   0.120E-02    0.227E-03
DAV:   4    -0.348722732375E+02    0.16725E-06   -0.12566E-06    96   0.574E-03    0.114E-03
DAV:   5    -0.348722735037E+02   -0.26624E-06   -0.83931E-08    72   0.185E-03    0.350E-04
DAV:   6    -0.348722735715E+02   -0.67723E-07   -0.20069E-08    88   0.770E-04    0.148E-04
DAV:   7    -0.348722735852E+02   -0.13699E-07   -0.35569E-09    88   0.378E-04    0.937E-05
DAV:   8    -0.348722735944E+02   -0.92857E-08   -0.49398E-10    88   0.153E-04
   9 F= -.34872274E+02 E0= -.34872274E+02  d E =0.286195E-03  mag=     1.0000
quench:  g(F)=  0.000E+00 g(S)=  0.000E+00 dE (1.order)= 0.000E+00
 bond charge predicted
       N       E                     dE             d eps       ncg     rms          rms(c)
DAV:   1    -0.348723481392E+02   -0.74554E-04   -0.71334E-04    80   0.164E-01    0.806E-03
DAV:   2    -0.348723472868E+02    0.85240E-06   -0.38543E-06    64   0.113E-02    0.478E-03
DAV:   3    -0.348723476535E+02   -0.36671E-06   -0.77340E-07    80   0.479E-03    0.836E-04
DAV:   4    -0.348723476535E+02   -0.55365E-10   -0.91128E-08    80   0.179E-03
  10 F= -.34872348E+02 E0= -.34872348E+02  d E =-.740591E-04  mag=     1.0000
quench:  g(F)=  0.000E+00 g(S)=  0.000E+00 dE (1.order)= 0.000E+00
 bond charge predicted
       N       E                     dE             d eps       ncg     rms          rms(c)
DAV:   1    -0.348722269031E+02    0.12075E-03   -0.73623E-04    88   0.169E-01    0.980E-03
DAV:   2    -0.348722262970E+02    0.60604E-06   -0.98276E-06    80   0.181E-02    0.643E-03
DAV:   3    -0.348722267542E+02   -0.45716E-06   -0.24946E-06    80   0.848E-03    0.137E-03
DAV:   4    -0.348722268710E+02   -0.11680E-06   -0.33764E-07    80   0.350E-03    0.599E-04
DAV:   5    -0.348722269136E+02   -0.42636E-07   -0.83129E-08    80   0.156E-03    0.240E-04
DAV:   6    -0.348722270149E+02   -0.10126E-06   -0.71863E-09    80   0.651E-04    0.120E-04
DAV:   7    -0.348722270334E+02   -0.18483E-07   -0.17017E-09    80   0.242E-04    0.832E-05
DAV:   8    -0.348722270525E+02   -0.19128E-07   -0.59426E-10    96   0.165E-04    0.611E-05
DAV:   9    -0.348722270623E+02   -0.97539E-08   -0.26210E-10    96   0.982E-05
  11 F= -.34872227E+02 E0= -.34872227E+02  d E =0.120591E-03  mag=     1.0000
quench:  g(F)=  0.000E+00 g(S)=  0.000E+00 dE (1.order)= 0.000E+00
 bond charge predicted
       N       E                     dE             d eps       ncg     rms          rms(c)
DAV:   1    -0.348722869477E+02   -0.59895E-04   -0.71691E-04    72   0.165E-01    0.785E-03
DAV:   2    -0.348722865530E+02    0.39472E-06   -0.40789E-06    80   0.121E-02    0.486E-03
DAV:   3    -0.348722865297E+02    0.23308E-07   -0.12301E-06    80   0.627E-03    0.894E-04
DAV:   4    -0.348722867116E+02   -0.18184E-06   -0.17385E-07    88   0.248E-03    0.571E-04
DAV:   5    -0.348722867076E+02    0.39778E-08   -0.55070E-08    80   0.128E-03
  12 F= -.34872287E+02 E0= -.34872287E+02  d E =-.596453E-04  mag=     1.0000
quench:  g(F)=  0.000E+00 g(S)=  0.000E+00 dE (1.order)= 0.000E+00
 bond charge predicted
       N       E                     dE             d eps       ncg     rms          rms(c)
DAV:   1    -0.348724641788E+02   -0.17747E-03   -0.73503E-04    96   0.167E-01    0.990E-03
DAV:   2    -0.348724623619E+02    0.18169E-05   -0.67804E-06    80   0.152E-02    0.584E-03
DAV:   3    -0.348724623962E+02   -0.34300E-07   -0.26073E-06    80   0.808E-03    0.151E-03
DAV:   4    -0.348724623265E+02    0.69660E-07   -0.37562E-07    88   0.336E-03    0.698E-04
DAV:   5    -0.348724625303E+02   -0.20374E-06   -0.48517E-08    80   0.128E-03    0.259E-04
DAV:   6    -0.348724626275E+02   -0.97182E-07   -0.63984E-09    88   0.549E-04    0.118E-04
DAV:   7    -0.348724626797E+02   -0.52241E-07   -0.16115E-09    88   0.260E-04    0.848E-05
DAV:   8    -0.348724627066E+02   -0.26887E-07   -0.44609E-10    96   0.145E-04    0.594E-05
DAV:   9    -0.348724627193E+02   -0.12712E-07   -0.21483E-10    96   0.866E-05    0.543E-05
DAV:  10    -0.348724627349E+02   -0.15634E-07   -0.12149E-10    80   0.584E-05    0.539E-05
DAV:  11    -0.348724627412E+02   -0.62457E-08    0.14300E-12    96   0.288E-05
  13 F= -.34872463E+02 E0= -.34872463E+02  d E =-.176034E-03  mag=     1.0000
quench:  g(F)=  0.000E+00 g(S)=  0.000E+00 dE (1.order)= 0.000E+00
 bond charge predicted
       N       E                     dE             d eps       ncg     rms          rms(c)
DAV:   1    -0.348724752694E+02   -0.12534E-04   -0.70128E-04    96   0.163E-01    0.733E-03
DAV:   2    -0.348724747029E+02    0.56648E-06   -0.68138E-06    72   0.148E-02    0.473E-03
DAV:   3    -0.348724749615E+02   -0.25859E-06   -0.86503E-07    80   0.551E-03    0.104E-03
DAV:   4    -0.348724753916E+02   -0.43008E-06   -0.16193E-07    80   0.238E-03    0.454E-04
DAV:   5    -0.348724754500E+02   -0.58441E-07   -0.14455E-08    80   0.746E-04    0.249E-04
DAV:   6    -0.348724754558E+02   -0.57472E-08   -0.74058E-09    80   0.495E-04
  14 F= -.34872475E+02 E0= -.34872475E+02  d E =-.127146E-04  mag=     1.0000
quench:  g(F)=  0.000E+00 g(S)=  0.000E+00 dE (1.order)= 0.000E+00
 bond charge predicted
       N       E                     dE             d eps       ncg     rms          rms(c)
DAV:   1    -0.348724736368E+02    0.18133E-05   -0.70124E-04    72   0.132E-01    0.735E-03
DAV:   2    -0.348724732924E+02    0.34441E-06   -0.39406E-06    80   0.112E-02    0.449E-03
DAV:   3    -0.348724734043E+02   -0.11191E-06   -0.54902E-07    88   0.446E-03    0.124E-03
DAV:   4    -0.348724738454E+02   -0.44114E-06   -0.11744E-07    80   0.217E-03    0.359E-04
DAV:   5    -0.348724739282E+02   -0.82815E-07   -0.85404E-09    64   0.614E-04    0.206E-04
DAV:   6    -0.348724739513E+02   -0.23090E-07   -0.67527E-09    72   0.479E-04    0.929E-05
DAV:   7    -0.348724739794E+02   -0.28056E-07   -0.10800E-09    80   0.220E-04    0.662E-05
DAV:   8    -0.348724740106E+02   -0.31272E-07   -0.47072E-10    96   0.103E-04    0.571E-05
DAV:   9    -0.348724740330E+02   -0.22374E-07   -0.17917E-10    96   0.635E-05    0.549E-05
DAV:  10    -0.348724740638E+02   -0.30805E-07   -0.35420E-10    88   0.675E-05    0.535E-05
DAV:  11    -0.348724740816E+02   -0.17815E-07   -0.11866E-10    96   0.441E-05    0.528E-05
DAV:  12    -0.348724740913E+02   -0.96203E-08    0.50449E-12    80   0.271E-05
  15 F= -.34872474E+02 E0= -.34872474E+02  d E =0.136451E-05  mag=     1.0000
quench:  g(F)=  0.000E+00 g(S)=  0.000E+00 dE (1.order)= 0.000E+00
 bond charge predicted
       N       E                     dE             d eps       ncg     rms          rms(c)
DAV:   1    -0.348725885087E+02   -0.11443E-03   -0.71344E-04    88   0.130E-01    0.874E-03
DAV:   2    -0.348725870103E+02    0.14984E-05   -0.49508E-06    88   0.111E-02    0.508E-03
DAV:   3    -0.348725860274E+02    0.98297E-06   -0.13635E-06    80   0.596E-03    0.153E-03
DAV:   4    -0.348725866015E+02   -0.57411E-06   -0.15294E-07    88   0.247E-03    0.646E-04
DAV:   5    -0.348725872367E+02   -0.63517E-06   -0.78592E-08    88   0.137E-03    0.250E-04
DAV:   6    -0.348725875216E+02   -0.28493E-06   -0.65111E-09    88   0.510E-04    0.115E-04
DAV:   7    -0.348725877136E+02   -0.19205E-06   -0.20685E-09    88   0.242E-04    0.806E-05
DAV:   8    -0.348725878325E+02   -0.11884E-06   -0.78138E-10    80   0.143E-04    0.591E-05
DAV:   9    -0.348725878610E+02   -0.28511E-07   -0.19127E-10    96   0.755E-05    0.549E-05
DAV:  10    -0.348725878903E+02   -0.29363E-07   -0.29991E-10    80   0.720E-05    0.539E-05
DAV:  11    -0.348725878993E+02   -0.89826E-08   -0.38911E-11    88   0.348E-05
  16 F= -.34872588E+02 E0= -.34872588E+02  d E =-.113808E-03  mag=     1.0000
quench:  g(F)=  0.000E+00 g(S)=  0.000E+00 dE (1.order)= 0.000E+00
 bond charge predicted
       N       E                     dE             d eps       ncg     rms          rms(c)
DAV:   1    -0.348725907629E+02   -0.28726E-05   -0.76595E-04    80   0.172E-01    0.122E-02
DAV:   2    -0.348725878317E+02    0.29312E-05   -0.12223E-05    88   0.209E-02    0.722E-03
DAV:   3    -0.348725860919E+02    0.17398E-05   -0.79257E-06    88   0.148E-02    0.272E-03
DAV:   4    -0.348725871701E+02   -0.10782E-05   -0.11363E-06    88   0.640E-03    0.150E-03
DAV:   5    -0.348725878693E+02   -0.69925E-06   -0.74738E-07    88   0.427E-03    0.755E-04
DAV:   6    -0.348725881723E+02   -0.30298E-06   -0.90028E-08    80   0.181E-03    0.221E-04
DAV:   7    -0.348725883422E+02   -0.16992E-06   -0.13980E-08    88   0.608E-04    0.105E-04
DAV:   8    -0.348725885746E+02   -0.23238E-06   -0.16684E-09    88   0.251E-04    0.706E-05
DAV:   9    -0.348725886655E+02   -0.90939E-07   -0.61586E-10    96   0.141E-04    0.595E-05
DAV:  10    -0.348725887011E+02   -0.35599E-07   -0.39240E-10    88   0.954E-05    0.546E-05
DAV:  11    -0.348725887203E+02   -0.19176E-07   -0.40168E-10    96   0.814E-05    0.549E-05
DAV:  12    -0.348725887284E+02   -0.80528E-08   -0.12061E-10    88   0.463E-05
  17 F= -.34872589E+02 E0= -.34872589E+02  d E =-.829039E-06  mag=     1.0000
quench:  g(F)=  0.000E+00 g(S)=  0.000E+00 dE (1.order)= 0.000E+00
 bond charge predicted
       N       E                     dE             d eps       ncg     rms          rms(c)
DAV:   1    -0.348725027610E+02    0.85959E-04   -0.72211E-04    80   0.152E-01    0.830E-03
DAV:   2    -0.348725024738E+02    0.28725E-06   -0.38971E-06    88   0.113E-02    0.507E-03
DAV:   3    -0.348725022923E+02    0.18150E-06   -0.14293E-06    88   0.660E-03    0.109E-03
DAV:   4    -0.348725026108E+02   -0.31854E-06   -0.19775E-07    96   0.276E-03    0.620E-04
DAV:   5    -0.348725026649E+02   -0.54053E-07   -0.59507E-08    96   0.130E-03    0.249E-04
DAV:   6    -0.348725027668E+02   -0.10193E-06   -0.10750E-08    88   0.656E-04    0.114E-04
DAV:   7    -0.348725028092E+02   -0.42355E-07   -0.90731E-10    88   0.214E-04    0.793E-05
DAV:   8    -0.348725028478E+02   -0.38597E-07   -0.10966E-09    80   0.167E-04    0.616E-05
DAV:   9    -0.348725028617E+02   -0.13936E-07   -0.18439E-10    96   0.839E-05    0.565E-05
DAV:  10    -0.348725028854E+02   -0.23718E-07   -0.70992E-10    88   0.979E-05    0.553E-05
DAV:  11    -0.348725028934E+02   -0.80243E-08   -0.13996E-10    88   0.508E-05
  18 F= -.34872503E+02 E0= -.34872503E+02  d E =0.858349E-04  mag=     1.0000
quench:  g(F)=  0.000E+00 g(S)=  0.000E+00 dE (1.order)= 0.000E+00
 bond charge predicted
       N       E                     dE             d eps       ncg     rms          rms(c)
DAV:   1    -0.348722495301E+02    0.25336E-03   -0.75061E-04    96   0.156E-01    0.111E-02
DAV:   2    -0.348722478970E+02    0.16331E-05   -0.80927E-06    72   0.158E-02    0.662E-03
DAV:   3    -0.348722475192E+02    0.37783E-06   -0.46793E-06    88   0.104E-02    0.189E-03
DAV:   4    -0.348722482683E+02   -0.74909E-06   -0.54343E-07    88   0.417E-03    0.907E-04
DAV:   5    -0.348722482459E+02    0.22351E-07   -0.20197E-07    88   0.216E-03    0.427E-04
DAV:   6    -0.348722484365E+02   -0.19060E-06   -0.23760E-08    80   0.901E-04    0.135E-04
DAV:   7    -0.348722484629E+02   -0.26390E-07   -0.37832E-09    88   0.354E-04    0.959E-05
DAV:   8    -0.348722484792E+02   -0.16219E-07   -0.82062E-10    88   0.193E-04    0.625E-05
DAV:   9    -0.348722484870E+02   -0.78624E-08   -0.22765E-10    88   0.987E-05
  19 F= -.34872248E+02 E0= -.34872248E+02  d E =0.254406E-03  mag=     1.0000
quench:  g(F)=  0.000E+00 g(S)=  0.000E+00 dE (1.order)= 0.000E+00
 bond charge predicted
       N       E                     dE             d eps       ncg     rms          rms(c)
DAV:   1    -0.348721620766E+02    0.86403E-04   -0.74952E-04    88   0.159E-01    0.111E-02
DAV:   2    -0.348721611136E+02    0.96298E-06   -0.12616E-05    80   0.196E-02    0.731E-03
DAV:   3    -0.348721605493E+02    0.56432E-06   -0.21060E-06    88   0.858E-03    0.175E-03
DAV:   4    -0.348721613848E+02   -0.83556E-06   -0.49540E-07    80   0.399E-03    0.671E-04
DAV:   5    -0.348721617025E+02   -0.31763E-06   -0.50841E-08    80   0.151E-03    0.312E-04
DAV:   6    -0.348721618333E+02   -0.13086E-06   -0.17180E-08    88   0.800E-04    0.144E-04
DAV:   7    -0.348721618776E+02   -0.44327E-07   -0.18421E-09    88   0.353E-04    0.848E-05
DAV:   8    -0.348721619030E+02   -0.25322E-07   -0.89168E-10    88   0.182E-04    0.637E-05
DAV:   9    -0.348721619130E+02   -0.10063E-07   -0.14598E-10    88   0.949E-05    0.562E-05
DAV:  10    -0.348721619223E+02   -0.92323E-08   -0.26446E-10    96   0.830E-05
  20 F= -.34872162E+02 E0= -.34872162E+02  d E =0.865648E-04  mag=     1.0000
quench:  g(F)=  0.000E+00 g(S)=  0.000E+00 dE (1.order)= 0.000E+00
 bond charge predicted
       N       E                     dE             d eps       ncg     rms          rms(c)
DAV:   1    -0.348725235788E+02   -0.36167E-03   -0.80193E-04    80   0.161E-01    0.140E-02
DAV:   2    -0.348725197291E+02    0.38497E-05   -0.12657E-05    88   0.197E-02    0.789E-03
DAV:   3    -0.348725178015E+02    0.19275E-05   -0.67049E-06    88   0.125E-02    0.236E-03
DAV:   4    -0.348725187500E+02   -0.94850E-06   -0.77413E-07    80   0.511E-03    0.109E-03
DAV:   5    -0.348725189271E+02   -0.17707E-06   -0.23720E-07    88   0.248E-03    0.510E-04
DAV:   6    -0.348725190913E+02   -0.16416E-06   -0.32527E-08    88   0.107E-03    0.160E-04
DAV:   7    -0.348725191010E+02   -0.97099E-08   -0.62429E-09    80   0.454E-04
  21 F= -.34872519E+02 E0= -.34872519E+02  d E =-.357179E-03  mag=     1.0000
quench:  g(F)=  0.000E+00 g(S)=  0.000E+00 dE (1.order)= 0.000E+00
 bond charge predicted
       N       E                     dE             d eps       ncg     rms          rms(c)
DAV:   1    -0.348723999068E+02    0.11918E-03   -0.72010E-04    88   0.151E-01    0.866E-03
DAV:   2    -0.348723992363E+02    0.67054E-06   -0.43342E-06    80   0.114E-02    0.528E-03
DAV:   3    -0.348723992564E+02   -0.20159E-07   -0.19604E-06    88   0.709E-03    0.120E-03
DAV:   4    -0.348723997816E+02   -0.52520E-06   -0.19990E-07    72   0.261E-03    0.635E-04
DAV:   5    -0.348723996974E+02    0.84264E-07   -0.88202E-08    96   0.142E-03    0.261E-04
DAV:   6    -0.348723998133E+02   -0.11589E-06   -0.73767E-09    64   0.594E-04    0.113E-04
DAV:   7    -0.348723998330E+02   -0.19755E-07   -0.10516E-09    88   0.201E-04    0.807E-05
DAV:   8    -0.348723998534E+02   -0.20439E-07   -0.65626E-10    96   0.151E-04    0.577E-05
DAV:   9    -0.348723998667E+02   -0.13297E-07   -0.17560E-10    80   0.780E-05    0.554E-05
DAV:  10    -0.348723998878E+02   -0.21031E-07   -0.29442E-10    88   0.650E-05    0.535E-05
DAV:  11    -0.348723998977E+02   -0.98789E-08   -0.69429E-11    96   0.387E-05
  22 F= -.34872400E+02 E0= -.34872400E+02  d E =0.119203E-03  mag=     1.0000
quench:  g(F)=  0.000E+00 g(S)=  0.000E+00 dE (1.order)= 0.000E+00
--------------------------------------------------------
>>>  Job finished at Mon May 11 12:01:11 EDT 2020
