>>>  VASP 5.4.4 with BEEF-vdw and vtst
--------------------------------------------------------
>>>  Job information
     SLURM_JOBID=2852449
     SLURM_JOB_NODELIST=cpn-u22-27
     SLURM_NNODES=1
     SLURMTMPDIR=/scratch/2852449
     working directory = /projects/academic/ericwalk/kevingie/decane_nox_gas_phase/C4H9
--------------------------------------------------------
>>>  Module information
The Intel compilers are in your path. This is adequate for compiling and
running most codes. Source
/util/academic/intel/17.0/compilers_and_libraries_2017/linux/bin/compilervars.sh
for more features. 
 The MKL Libraries are in your library path. This is adequate for compiling and
running most codes. Source $MKL/bin/mklvars.sh" for more features. 
 Intel-MPI is in your path. This is adequate for compiling and running most
codes. Source the
/util/academic/intel/17.0/compilers_and_libraries_2017/linux/mpi/intel64/bin/mpivars.sh
file for more features. 

Currently Loaded Modules:
  1) intel/17.0   2) mkl/2017.0.1   3) intel-mpi/2017.0.1

 

--------------------------------------------------------
>>>  Running Configuration
NPROCS=16
--------------------------------------------------------
>>>  Job started at Fri May  1 18:50:10 EDT 2020
--------------------------------------------------------
 running on   16 total cores
 distrk:  each k-point on   16 cores,    1 groups
 distr:  one band on    4 cores,    4 groups
 using from now: INCAR     
 vasp.5.4.4.18Apr17-6-g9f103f2a35 (build Dec 31 2018 11:41:54) complex          
  
 POSCAR found type information on POSCAR  C  H 
 POSCAR found :  2 types and      13 ions
 scaLAPACK will be used

     **************************************************************************
     Initializing libbeef V0.1.3 with the BEEF-vdW functional.
     Citation: Wellendorff et al., PRB 85, 235149 (2012).
     **************************************************************************


 ----------------------------------------------------------------------------- 
|                                                                             |
|  ADVICE TO THIS USER RUNNING 'VASP/VAMP'   (HEAR YOUR MASTER'S VOICE ...):  |
|                                                                             |
|      You have switched on vdW-DFT.                                          |
|      This routine was written and supplied by Jiri Klimes.                  |
|      We recommed that you carefully read and cite the following             |
|      publication                                                            |
|      J. Klimes, D.R. Bowler, A. Michelides                                  |
|        J. Phys.: Cond Matt. 22 022201 (2010)                                |
|      J. Klimes, D.R. Bowler, A. Michelides                                  |
|        Phys. Rev. B. 83, 195131 (2011)                                      |
|      and references therein.                                                |
|                                                                             |
 ----------------------------------------------------------------------------- 


 ----------------------------------------------------------------------------- 
|                                                                             |
|  ADVICE TO THIS USER RUNNING 'VASP/VAMP'   (HEAR YOUR MASTER'S VOICE ...):  |
|                                                                             |
|      You enforced a specific xc-type in the INCAR file,                     |
|      a different type was found on the POTCAR file                          |
|          I HOPE YOU KNOW, WHAT YOU ARE  DOING                               |
|                                                                             |
 ----------------------------------------------------------------------------- 

 LDA part: xc-table for Pade appr. of Perdew
 POSCAR found type information on POSCAR  C  H 
 POSCAR found :  2 types and      13 ions
 POSCAR, INCAR and KPOINTS ok, starting setup
 FFT: planning ...
 WAVECAR not read
 entering main loop
       N       E                     dE             d eps       ncg     rms          rms(c)
Total vdW correction in eV:      4.4881014
DAV:   1     0.110440919022E+03    0.11044E+03   -0.65612E+03   144   0.432E+02
DAV:   2    -0.291240610712E+02   -0.13956E+03   -0.13539E+03   164   0.107E+02
DAV:   3    -0.605875642383E+02   -0.31464E+02   -0.31260E+02   152   0.505E+01
DAV:   4    -0.623374729591E+02   -0.17499E+01   -0.17435E+01   160   0.149E+01
DAV:   5    -0.623756970749E+02   -0.38224E-01   -0.38198E-01   176   0.216E+00    0.224E+01
Total vdW correction in eV:      4.5858839
DAV:   6    -0.140958398788E+01    0.60966E+02   -0.17722E+02   140   0.583E+01    0.104E+01
Total vdW correction in eV:      4.7293664
DAV:   7    -0.493885234231E+02   -0.47979E+02   -0.47105E+01   152   0.258E+01    0.607E+00
Total vdW correction in eV:      4.8318016
DAV:   8    -0.523490182274E+02   -0.29605E+01   -0.34965E+00   176   0.821E+00    0.385E+00
Total vdW correction in eV:      4.9554854
DAV:   9    -0.668099468785E+02   -0.14461E+02   -0.11468E+01   124   0.105E+01    0.196E+00
Total vdW correction in eV:      4.9621247
DAV:  10    -0.683115511340E+02   -0.15016E+01   -0.66731E-01   160   0.361E+00    0.129E+00
Total vdW correction in eV:      4.9687001
DAV:  11    -0.707787742842E+02   -0.24672E+01   -0.17038E+00   116   0.467E+00    0.737E-01
Total vdW correction in eV:      4.9552042
DAV:  12    -0.712238028828E+02   -0.44503E+00   -0.18624E-01   120   0.203E+00    0.336E-01
Total vdW correction in eV:      4.9452712
DAV:  13    -0.714654718169E+02   -0.24167E+00   -0.33750E-02   124   0.825E-01    0.179E-01
Total vdW correction in eV:      4.9340679
DAV:  14    -0.716125670364E+02   -0.14710E+00   -0.17606E-02   136   0.642E-01    0.766E-02
Total vdW correction in eV:      4.9296995
DAV:  15    -0.716279392397E+02   -0.15372E-01   -0.35681E-03   144   0.317E-01    0.497E-02
Total vdW correction in eV:      4.9261835
DAV:  16    -0.716337997207E+02   -0.58605E-02   -0.18661E-03   132   0.202E-01    0.240E-02
Total vdW correction in eV:      4.9242267
DAV:  17    -0.716354346248E+02   -0.16349E-02   -0.68888E-04   136   0.126E-01    0.160E-02
Total vdW correction in eV:      4.9238274
DAV:  18    -0.716360078457E+02   -0.57322E-03   -0.13745E-04   144   0.640E-02    0.939E-03
Total vdW correction in eV:      4.9233966
DAV:  19    -0.716368151726E+02   -0.80733E-03   -0.22230E-04   136   0.605E-02    0.859E-03
Total vdW correction in eV:      4.9232581
DAV:  20    -0.716371551413E+02   -0.33997E-03   -0.68671E-05   136   0.336E-02    0.467E-03
Total vdW correction in eV:      4.9233499
DAV:  21    -0.716373227573E+02   -0.16762E-03   -0.23665E-05   136   0.208E-02    0.326E-03
Total vdW correction in eV:      4.9235293
DAV:  22    -0.716375230917E+02   -0.20033E-03   -0.22355E-05   112   0.220E-02    0.240E-03
Total vdW correction in eV:      4.9236278
DAV:  23    -0.716375798403E+02   -0.56749E-04   -0.76539E-06   120   0.136E-02    0.141E-03
Total vdW correction in eV:      4.9236951
DAV:  24    -0.716375713402E+02    0.85002E-05   -0.40166E-06   128   0.945E-03
Total vdW correction in eV:      4.9236703
   1 F= -.71637571E+02 E0= -.71637571E+02  d E =-.716376E+02  mag=     0.9997
 BRION: g(F)=  0.534E+00 g(S)=  0.000E+00
 bond charge predicted
       N       E                     dE             d eps       ncg     rms          rms(c)
Total vdW correction in eV:      4.9288346
DAV:   1    -0.683989943493E+02    0.32386E+01   -0.74843E+01   112   0.507E+01    0.191E+00
Total vdW correction in eV:      4.9300110
DAV:   2    -0.716949106647E+02   -0.32959E+01   -0.62290E+00   124   0.117E+01    0.112E+00
Total vdW correction in eV:      4.9316967
DAV:   3    -0.718033816744E+02   -0.10847E+00   -0.30326E-01   128   0.227E+00    0.652E-01
Total vdW correction in eV:      4.9334942
DAV:   4    -0.717989946626E+02    0.43870E-02   -0.58497E-02   144   0.114E+00    0.309E-01
Total vdW correction in eV:      4.9347815
DAV:   5    -0.718049359281E+02   -0.59413E-02   -0.16651E-02   124   0.685E-01    0.155E-01
Total vdW correction in eV:      4.9350920
DAV:   6    -0.718075437441E+02   -0.26078E-02   -0.20257E-03   136   0.273E-01    0.773E-02
Total vdW correction in eV:      4.9354107
DAV:   7    -0.718098429389E+02   -0.22992E-02   -0.13768E-03   140   0.189E-01    0.294E-02
Total vdW correction in eV:      4.9355235
DAV:   8    -0.718102572477E+02   -0.41431E-03   -0.21037E-04   144   0.101E-01    0.155E-02
Total vdW correction in eV:      4.9355820
DAV:   9    -0.718109307837E+02   -0.67354E-03   -0.70157E-05   136   0.449E-02    0.853E-03
Total vdW correction in eV:      4.9356244
DAV:  10    -0.718114438777E+02   -0.51309E-03   -0.31402E-05   144   0.353E-02    0.568E-03
Total vdW correction in eV:      4.9356497
DAV:  11    -0.718116993754E+02   -0.25550E-03   -0.97811E-06   128   0.182E-02    0.319E-03
Total vdW correction in eV:      4.9356704
DAV:  12    -0.718117648495E+02   -0.65474E-04   -0.74774E-06   128   0.130E-02    0.179E-03
Total vdW correction in eV:      4.9356812
DAV:  13    -0.718117573180E+02    0.75315E-05   -0.36413E-06   128   0.845E-03
Total vdW correction in eV:      4.9356834
   2 F= -.71811757E+02 E0= -.71811757E+02  d E =-.174186E+00  mag=     1.0000
 BRION: g(F)=  0.348E+00 g(S)=  0.000E+00 retain N=  1 mean eig= 0.46
 eig:   0.464
 bond charge predicted
       N       E                     dE             d eps       ncg     rms          rms(c)
Total vdW correction in eV:      4.9207812
DAV:   1    -0.718824060123E+02   -0.70641E-01   -0.11602E+01   124   0.162E+01    0.763E-01
Total vdW correction in eV:      4.9181613
DAV:   2    -0.718903276003E+02   -0.79216E-02   -0.19652E-01   136   0.202E+00    0.524E-01
Total vdW correction in eV:      4.9167041
DAV:   3    -0.718858939404E+02    0.44337E-02   -0.25546E-02   144   0.803E-01    0.197E-01
Total vdW correction in eV:      4.9163949
DAV:   4    -0.718864430116E+02   -0.54907E-03   -0.67221E-03   128   0.405E-01    0.882E-02
Total vdW correction in eV:      4.9164968
DAV:   5    -0.718867387074E+02   -0.29570E-03   -0.81488E-04   132   0.169E-01    0.432E-02
Total vdW correction in eV:      4.9164619
DAV:   6    -0.718870574919E+02   -0.31878E-03   -0.39399E-04   124   0.104E-01    0.163E-02
Total vdW correction in eV:      4.9164569
DAV:   7    -0.718871164871E+02   -0.58995E-04   -0.44500E-05   144   0.492E-02    0.960E-03
Total vdW correction in eV:      4.9164350
DAV:   8    -0.718872204043E+02   -0.10392E-03   -0.24592E-05   128   0.315E-02    0.445E-03
Total vdW correction in eV:      4.9164097
DAV:   9    -0.718872635131E+02   -0.43109E-04   -0.12775E-05   128   0.231E-02    0.300E-03
Total vdW correction in eV:      4.9163917
DAV:  10    -0.718872945639E+02   -0.31051E-04   -0.36627E-06   120   0.104E-02    0.171E-03
Total vdW correction in eV:      4.9163663
DAV:  11    -0.718873440640E+02   -0.49500E-04   -0.49855E-06   116   0.910E-03    0.152E-03
Total vdW correction in eV:      4.9163401
DAV:  12    -0.718873895761E+02   -0.45512E-04   -0.41209E-06   112   0.878E-03    0.111E-03
Total vdW correction in eV:      4.9163321
DAV:  13    -0.718874044720E+02   -0.14896E-04   -0.12653E-06   128   0.534E-03    0.494E-04
Total vdW correction in eV:      4.9163348
DAV:  14    -0.718874095238E+02   -0.50518E-05   -0.34444E-07   116   0.278E-03
Total vdW correction in eV:      4.9163393
   3 F= -.71887410E+02 E0= -.71887410E+02  d E =-.756522E-01  mag=     1.0000
 BRION: g(F)=  0.129E+00 g(S)=  0.000E+00 retain N=  2 mean eig= 1.02
 eig:   0.231  1.806
 bond charge predicted
       N       E                     dE             d eps       ncg     rms          rms(c)
Total vdW correction in eV:      4.9235374
DAV:   1    -0.719052147843E+02   -0.17810E-01   -0.27860E+00   112   0.836E+00    0.395E-01
Total vdW correction in eV:      4.9248275
DAV:   2    -0.719091628503E+02   -0.39481E-02   -0.51404E-02   132   0.104E+00    0.290E-01
Total vdW correction in eV:      4.9258043
DAV:   3    -0.719084765945E+02    0.68626E-03   -0.39115E-03   144   0.359E-01    0.132E-01
Total vdW correction in eV:      4.9266329
DAV:   4    -0.719089190069E+02   -0.44241E-03   -0.25736E-03   136   0.263E-01    0.524E-02
Total vdW correction in eV:      4.9265111
DAV:   5    -0.719088848748E+02    0.34132E-04   -0.43369E-04   124   0.128E-01    0.257E-02
Total vdW correction in eV:      4.9266259
DAV:   6    -0.719088897945E+02   -0.49197E-05   -0.26816E-04   136   0.757E-02    0.131E-02
Total vdW correction in eV:      4.9266613
DAV:   7    -0.719088928714E+02   -0.30769E-05   -0.38929E-05   128   0.391E-02
Total vdW correction in eV:      4.9266842
   4 F= -.71908893E+02 E0= -.71908893E+02  d E =-.214833E-01  mag=     1.0000
 BRION: g(F)=  0.785E-01 g(S)=  0.000E+00 retain N=  3 mean eig= 2.70
 eig:   6.967  0.314  0.831
 bond charge predicted
       N       E                     dE             d eps       ncg     rms          rms(c)
Total vdW correction in eV:      4.9236811
DAV:   1    -0.719242477109E+02   -0.15358E-01   -0.16461E+00   112   0.630E+00    0.296E-01
Total vdW correction in eV:      4.9230132
DAV:   2    -0.719273099207E+02   -0.30622E-02   -0.28528E-02   132   0.776E-01    0.191E-01
Total vdW correction in eV:      4.9227483
DAV:   3    -0.719281700163E+02   -0.86010E-03   -0.17475E-03   124   0.228E-01    0.112E-01
Total vdW correction in eV:      4.9223772
DAV:   4    -0.719281492856E+02    0.20731E-04   -0.92380E-04   120   0.166E-01    0.258E-02
Total vdW correction in eV:      4.9224176
DAV:   5    -0.719282216202E+02   -0.72335E-04   -0.21940E-04   132   0.808E-02    0.129E-02
Total vdW correction in eV:      4.9224333
DAV:   6    -0.719282268767E+02   -0.52566E-05   -0.33294E-05   128   0.313E-02
Total vdW correction in eV:      4.9224212
   5 F= -.71928227E+02 E0= -.71928227E+02  d E =-.193340E-01  mag=     1.0000
 BRION: g(F)=  0.214E-01 g(S)=  0.000E+00 retain N=  4 mean eig= 3.62
 eig:   6.951  6.951  0.196  0.379
 bond charge predicted
       N       E                     dE             d eps       ncg     rms          rms(c)
Total vdW correction in eV:      4.9232705
DAV:   1    -0.719338006764E+02   -0.55791E-02   -0.29933E-01   128   0.264E+00    0.139E-01
Total vdW correction in eV:      4.9233415
DAV:   2    -0.719346051435E+02   -0.80447E-03   -0.62566E-03   152   0.365E-01    0.933E-02
Total vdW correction in eV:      4.9234040
DAV:   3    -0.719345871795E+02    0.17964E-04   -0.31047E-04   136   0.102E-01    0.542E-02
Total vdW correction in eV:      4.9235029
DAV:   4    -0.719346274567E+02   -0.40277E-04   -0.26204E-04   144   0.881E-02    0.133E-02
Total vdW correction in eV:      4.9234859
DAV:   5    -0.719346053416E+02    0.22115E-04   -0.63022E-05   124   0.435E-02    0.709E-03
Total vdW correction in eV:      4.9234823
DAV:   6    -0.719345917043E+02    0.13637E-04   -0.93095E-06   120   0.172E-02    0.330E-03
Total vdW correction in eV:      4.9234843
DAV:   7    -0.719345825583E+02    0.91460E-05   -0.40464E-06   116   0.125E-02
Total vdW correction in eV:      4.9234829
   6 F= -.71934583E+02 E0= -.71934583E+02  d E =-.635568E-02  mag=     1.0000
 BRION: g(F)=  0.819E-02 g(S)=  0.000E+00 retain N=  2 mean eig= 0.16
 eig:   0.107  0.221
 bond charge predicted
       N       E                     dE             d eps       ncg     rms          rms(c)
Total vdW correction in eV:      4.9246570
DAV:   1    -0.719400214502E+02   -0.54297E-02   -0.21842E-01   120   0.235E+00    0.127E-01
Total vdW correction in eV:      4.9246712
DAV:   2    -0.719405423984E+02   -0.52095E-03   -0.38412E-03   132   0.288E-01    0.793E-02
Total vdW correction in eV:      4.9246985
DAV:   3    -0.719405666991E+02   -0.24301E-04   -0.32932E-04   144   0.995E-02    0.431E-02
Total vdW correction in eV:      4.9247191
DAV:   4    -0.719406322490E+02   -0.65550E-04   -0.10836E-04   120   0.608E-02    0.117E-02
Total vdW correction in eV:      4.9247095
DAV:   5    -0.719406123341E+02    0.19915E-04   -0.24939E-05   116   0.310E-02    0.561E-03
Total vdW correction in eV:      4.9247055
DAV:   6    -0.719405954728E+02    0.16861E-04   -0.75746E-06   124   0.164E-02    0.236E-03
Total vdW correction in eV:      4.9247054
DAV:   7    -0.719405910115E+02    0.44614E-05   -0.17795E-06   116   0.851E-03
Total vdW correction in eV:      4.9247052
   7 F= -.71940591E+02 E0= -.71940591E+02  d E =-.600845E-02  mag=     1.0000
 BRION: g(F)=  0.791E-02 g(S)=  0.000E+00 retain N=  3 mean eig= 1.72
 eig:   4.518  0.273  0.370
 bond charge predicted
       N       E                     dE             d eps       ncg     rms          rms(c)
Total vdW correction in eV:      4.9252305
DAV:   1    -0.719457397533E+02   -0.51443E-02   -0.20308E-01   120   0.226E+00    0.120E-01
Total vdW correction in eV:      4.9251171
DAV:   2    -0.719460943897E+02   -0.35464E-03   -0.33023E-03   116   0.258E-01    0.767E-02
Total vdW correction in eV:      4.9250585
DAV:   3    -0.719460677378E+02    0.26652E-04   -0.18977E-04   136   0.790E-02    0.389E-02
Total vdW correction in eV:      4.9250025
DAV:   4    -0.719460836311E+02   -0.15893E-04   -0.80939E-05   128   0.533E-02    0.908E-03
Total vdW correction in eV:      4.9249991
DAV:   5    -0.719460720572E+02    0.11574E-04   -0.15921E-05   124   0.239E-02    0.431E-03
Total vdW correction in eV:      4.9249965
DAV:   6    -0.719460673366E+02    0.47206E-05   -0.36172E-06   120   0.104E-02
Total vdW correction in eV:      4.9249941
   8 F= -.71946067E+02 E0= -.71946067E+02  d E =-.547633E-02  mag=     1.0000
 BRION: g(F)=  0.627E-02 g(S)=  0.000E+00 retain N=  3 mean eig= 1.07
 eig:   2.808  0.369  0.034
 bond charge predicted
       N       E                     dE             d eps       ncg     rms          rms(c)
Total vdW correction in eV:      4.9253164
DAV:   1    -0.719500300950E+02   -0.39580E-02   -0.22203E-01   120   0.232E+00    0.116E-01
Total vdW correction in eV:      4.9251129
DAV:   2    -0.719503216072E+02   -0.29151E-03   -0.31933E-03   112   0.266E-01    0.795E-02
Total vdW correction in eV:      4.9249611
DAV:   3    -0.719502657884E+02    0.55819E-04   -0.18865E-04   124   0.834E-02    0.350E-02
Total vdW correction in eV:      4.9248316
DAV:   4    -0.719502839911E+02   -0.18203E-04   -0.13219E-04   116   0.634E-02    0.115E-02
Total vdW correction in eV:      4.9248351
DAV:   5    -0.719502652612E+02    0.18730E-04   -0.21841E-05   128   0.274E-02    0.702E-03
Total vdW correction in eV:      4.9248307
DAV:   6    -0.719502647847E+02    0.47649E-06   -0.93320E-06   112   0.151E-02
Total vdW correction in eV:      4.9248270
   9 F= -.71950265E+02 E0= -.71950265E+02  d E =-.419745E-02  mag=     1.0000
 BRION: g(F)=  0.821E-02 g(S)=  0.000E+00 retain N=  3 mean eig= 1.08
 eig:   2.682  0.111  0.436
 bond charge predicted
       N       E                     dE             d eps       ncg     rms          rms(c)
Total vdW correction in eV:      4.9269425
DAV:   1    -0.719547650309E+02   -0.44998E-02   -0.19181E-01   120   0.218E+00    0.122E-01
Total vdW correction in eV:      4.9270941
DAV:   2    -0.719550885090E+02   -0.32348E-03   -0.30791E-03   120   0.246E-01    0.796E-02
Total vdW correction in eV:      4.9272160
DAV:   3    -0.719550686387E+02    0.19870E-04   -0.19748E-04   136   0.796E-02    0.358E-02
Total vdW correction in eV:      4.9272783
DAV:   4    -0.719551020557E+02   -0.33417E-04   -0.86532E-05   128   0.534E-02    0.870E-03
Total vdW correction in eV:      4.9272568
DAV:   5    -0.719550810797E+02    0.20976E-04   -0.15377E-05   120   0.234E-02    0.460E-03
Total vdW correction in eV:      4.9272479
DAV:   6    -0.719550712558E+02    0.98239E-05   -0.25289E-06   120   0.949E-03
Total vdW correction in eV:      4.9272449
  10 F= -.71955071E+02 E0= -.71955071E+02  d E =-.480647E-02  mag=     1.0000
 BRION: g(F)=  0.674E-02 g(S)=  0.000E+00 retain N=  3 mean eig= 1.11
 eig:   2.745  0.342  0.249
 bond charge predicted
       N       E                     dE             d eps       ncg     rms          rms(c)
Total vdW correction in eV:      4.9268236
DAV:   1    -0.719555444697E+02   -0.46339E-03   -0.47305E-02   128   0.105E+00    0.515E-02
Total vdW correction in eV:      4.9267308
DAV:   2    -0.719556441751E+02   -0.99705E-04   -0.10831E-03   124   0.149E-01    0.394E-02
Total vdW correction in eV:      4.9266807
DAV:   3    -0.719556119013E+02    0.32274E-04   -0.61137E-05   144   0.419E-02    0.208E-02
Total vdW correction in eV:      4.9266202
DAV:   4    -0.719556036157E+02    0.82856E-05   -0.48190E-05   144   0.360E-02
Total vdW correction in eV:      4.9266312
  11 F= -.71955604E+02 E0= -.71955604E+02  d E =-.532360E-03  mag=     1.0000
 BRION: g(F)=  0.515E-02 g(S)=  0.000E+00 retain N=  2 mean eig= 0.70
 eig:   0.278  1.130
 bond charge predicted
       N       E                     dE             d eps       ncg     rms          rms(c)
Total vdW correction in eV:      4.9271470
DAV:   1    -0.719588244840E+02   -0.32126E-02   -0.10844E-01   124   0.163E+00    0.905E-02
Total vdW correction in eV:      4.9270478
DAV:   2    -0.719589773390E+02   -0.15286E-03   -0.18024E-03   124   0.195E-01    0.597E-02
Total vdW correction in eV:      4.9269838
DAV:   3    -0.719589665820E+02    0.10757E-04   -0.92776E-05   136   0.560E-02    0.290E-02
Total vdW correction in eV:      4.9269195
DAV:   4    -0.719589669336E+02   -0.35159E-06   -0.57612E-05   112   0.423E-02
Total vdW correction in eV:      4.9269152
  12 F= -.71958967E+02 E0= -.71958967E+02  d E =-.336332E-02  mag=     1.0000
 BRION: g(F)=  0.447E-02 g(S)=  0.000E+00 retain N=  3 mean eig= 2.09
 eig:   5.656  0.171  0.432
 bond charge predicted
       N       E                     dE             d eps       ncg     rms          rms(c)
Total vdW correction in eV:      4.9277498
DAV:   1    -0.719612107344E+02   -0.22442E-02   -0.64762E-02   120   0.124E+00    0.647E-02
Total vdW correction in eV:      4.9277494
DAV:   2    -0.719613096512E+02   -0.98917E-04   -0.10412E-03   120   0.147E-01    0.442E-02
Total vdW correction in eV:      4.9277424
DAV:   3    -0.719613008365E+02    0.88147E-05   -0.63742E-05   132   0.467E-02
Total vdW correction in eV:      4.9277240
  13 F= -.71961301E+02 E0= -.71961301E+02  d E =-.233390E-02  mag=     1.0000
 BRION: g(F)=  0.384E-02 g(S)=  0.000E+00 retain N=  3 mean eig= 1.86
 eig:   5.058  0.281  0.252
 bond charge predicted
       N       E                     dE             d eps       ncg     rms          rms(c)
Total vdW correction in eV:      4.9291215
DAV:   1    -0.719651123174E+02   -0.38027E-02   -0.14191E-01   112   0.186E+00    0.114E-01
Total vdW correction in eV:      4.9291255
DAV:   2    -0.719652852225E+02   -0.17291E-03   -0.22800E-03   128   0.213E-01    0.728E-02
Total vdW correction in eV:      4.9291324
DAV:   3    -0.719652830345E+02    0.21879E-05   -0.15418E-04   124   0.642E-02    0.273E-02
Total vdW correction in eV:      4.9291170
DAV:   4    -0.719652957840E+02   -0.12749E-04   -0.42798E-05   120   0.356E-02    0.715E-03
Total vdW correction in eV:      4.9291036
DAV:   5    -0.719652878674E+02    0.79166E-05   -0.57287E-06   104   0.142E-02
Total vdW correction in eV:      4.9290936
  14 F= -.71965288E+02 E0= -.71965288E+02  d E =-.398703E-02  mag=     1.0000
 BRION: g(F)=  0.434E-02 g(S)=  0.000E+00 retain N=  3 mean eig= 1.07
 eig:   2.497  0.352  0.352
 bond charge predicted
       N       E                     dE             d eps       ncg     rms          rms(c)
Total vdW correction in eV:      4.9290811
DAV:   1    -0.719681190587E+02   -0.28233E-02   -0.10997E-01   120   0.164E+00    0.908E-02
Total vdW correction in eV:      4.9288846
DAV:   2    -0.719682351684E+02   -0.11611E-03   -0.15830E-03   116   0.180E-01    0.600E-02
Total vdW correction in eV:      4.9287180
DAV:   3    -0.719682099521E+02    0.25216E-04   -0.94012E-05   128   0.543E-02    0.226E-02
Total vdW correction in eV:      4.9286229
DAV:   4    -0.719682063060E+02    0.36461E-05   -0.40057E-05   116   0.355E-02
Total vdW correction in eV:      4.9286247
  15 F= -.71968206E+02 E0= -.71968206E+02  d E =-.291844E-02  mag=     1.0000
 BRION: g(F)=  0.438E-02 g(S)=  0.000E+00 retain N=  3 mean eig= 1.53
 eig:   3.978  0.438  0.160
 bond charge predicted
       N       E                     dE             d eps       ncg     rms          rms(c)
Total vdW correction in eV:      4.9291357
DAV:   1    -0.719684083499E+02   -0.19840E-03   -0.34273E-02   128   0.884E-01    0.429E-02
Total vdW correction in eV:      4.9292098
DAV:   2    -0.719684646126E+02   -0.56263E-04   -0.72552E-04   140   0.122E-01    0.324E-02
Total vdW correction in eV:      4.9292490
DAV:   3    -0.719684602691E+02    0.43436E-05   -0.40908E-05   136   0.350E-02
Total vdW correction in eV:      4.9292920
  16 F= -.71968460E+02 E0= -.71968460E+02  d E =-.253963E-03  mag=     1.0000
 BRION: g(F)=  0.366E-02 g(S)=  0.000E+00 retain N=  2 mean eig= 0.62
 eig:   0.215  1.020
 bond charge predicted
       N       E                     dE             d eps       ncg     rms          rms(c)
Total vdW correction in eV:      4.9300303
DAV:   1    -0.719706695147E+02   -0.22049E-02   -0.56790E-02   128   0.117E+00    0.681E-02
Total vdW correction in eV:      4.9300124
DAV:   2    -0.719707676928E+02   -0.98178E-04   -0.11064E-03   120   0.148E-01    0.462E-02
Total vdW correction in eV:      4.9299902
DAV:   3    -0.719707534540E+02    0.14239E-04   -0.80754E-05   136   0.467E-02    0.170E-02
Total vdW correction in eV:      4.9299696
DAV:   4    -0.719707597052E+02   -0.62513E-05   -0.23061E-05   140   0.258E-02
Total vdW correction in eV:      4.9299634
  17 F= -.71970760E+02 E0= -.71970760E+02  d E =-.229944E-02  mag=     1.0000
 BRION: g(F)=  0.294E-02 g(S)=  0.000E+00 retain N=  2 mean eig= 0.39
 eig:   0.305  0.469
 bond charge predicted
       N       E                     dE             d eps       ncg     rms          rms(c)
Total vdW correction in eV:      4.9302071
DAV:   1    -0.719724298182E+02   -0.16764E-02   -0.37098E-02   116   0.952E-01    0.566E-02
Total vdW correction in eV:      4.9301418
DAV:   2    -0.719724746494E+02   -0.44831E-04   -0.62729E-04   116   0.114E-01    0.369E-02
Total vdW correction in eV:      4.9300932
DAV:   3    -0.719724687517E+02    0.58977E-05   -0.35513E-05   116   0.333E-02
Total vdW correction in eV:      4.9300546
  18 F= -.71972469E+02 E0= -.71972469E+02  d E =-.170905E-02  mag=     1.0000
 BRION: g(F)=  0.265E-02 g(S)=  0.000E+00 retain N=  2 mean eig= 0.55
 eig:   0.236  0.854
 bond charge predicted
       N       E                     dE             d eps       ncg     rms          rms(c)
Total vdW correction in eV:      4.9307580
DAV:   1    -0.719748929348E+02   -0.24183E-02   -0.91850E-02   120   0.149E+00    0.827E-02
Total vdW correction in eV:      4.9306952
DAV:   2    -0.719750024447E+02   -0.10951E-03   -0.12635E-03   120   0.163E-01    0.537E-02
Total vdW correction in eV:      4.9306428
DAV:   3    -0.719749904919E+02    0.11953E-04   -0.71343E-05   124   0.500E-02    0.203E-02
Total vdW correction in eV:      4.9306015
DAV:   4    -0.719749962165E+02   -0.57246E-05   -0.37136E-05   116   0.336E-02
Total vdW correction in eV:      4.9305967
  19 F= -.71974996E+02 E0= -.71974996E+02  d E =-.252746E-02  mag=     1.0000
 BRION: g(F)=  0.261E-02 g(S)=  0.000E+00 retain N=  3 mean eig= 1.59
 eig:   4.164  0.104  0.495
 bond charge predicted
       N       E                     dE             d eps       ncg     rms          rms(c)
Total vdW correction in eV:      4.9330966
DAV:   1    -0.719802166710E+02   -0.52262E-02   -0.50619E-01   112   0.350E+00    0.212E-01
Total vdW correction in eV:      4.9330713
DAV:   2    -0.719808240786E+02   -0.60741E-03   -0.74467E-03   128   0.386E-01    0.134E-01
Total vdW correction in eV:      4.9330681
DAV:   3    -0.719808201012E+02    0.39774E-05   -0.43120E-04   120   0.117E-01    0.569E-02
Total vdW correction in eV:      4.9330374
DAV:   4    -0.719808761377E+02   -0.56037E-04   -0.19304E-04   120   0.791E-02    0.128E-02
Total vdW correction in eV:      4.9330130
DAV:   5    -0.719808678959E+02    0.82418E-05   -0.29223E-05   124   0.323E-02
Total vdW correction in eV:      4.9329964
  20 F= -.71980868E+02 E0= -.71980868E+02  d E =-.587168E-02  mag=     1.0000
 BRION: g(F)=  0.376E-02 g(S)=  0.000E+00 retain N=  3 mean eig= 1.12
 eig:   2.814  0.148  0.388
 bond charge predicted
       N       E                     dE             d eps       ncg     rms          rms(c)
Total vdW correction in eV:      4.9318526
DAV:   1    -0.719797709710E+02    0.11052E-02   -0.63610E-02   120   0.122E+00    0.616E-02
Total vdW correction in eV:      4.9317258
DAV:   2    -0.719798884195E+02   -0.11745E-03   -0.11970E-03   124   0.152E-01    0.436E-02
Total vdW correction in eV:      4.9316540
DAV:   3    -0.719798546191E+02    0.33800E-04   -0.65735E-05   140   0.455E-02    0.227E-02
Total vdW correction in eV:      4.9315829
DAV:   4    -0.719798491126E+02    0.55065E-05   -0.50362E-05   132   0.382E-02
Total vdW correction in eV:      4.9315990
  21 F= -.71979849E+02 E0= -.71979849E+02  d E =0.101878E-02  mag=     1.0000
 BRION: g(F)=  0.357E-02 g(S)=  0.000E+00 retain N=  3 mean eig= 2.26
 eig:   5.967  0.402  0.402
 bond charge predicted
       N       E                     dE             d eps       ncg     rms          rms(c)
Total vdW correction in eV:      4.9319469
DAV:   1    -0.719813847800E+02   -0.15302E-02   -0.72474E-02   112   0.132E+00    0.700E-02
Total vdW correction in eV:      4.9318902
DAV:   2    -0.719814954553E+02   -0.11068E-03   -0.13887E-03   136   0.173E-01    0.486E-02
Total vdW correction in eV:      4.9318555
DAV:   3    -0.719814857064E+02    0.97490E-05   -0.69648E-05   144   0.477E-02
Total vdW correction in eV:      4.9318105
  22 F= -.71981486E+02 E0= -.71981486E+02  d E =-.163659E-02  mag=     1.0000
 BRION: g(F)=  0.253E-02 g(S)=  0.000E+00 retain N=  2 mean eig= 0.28
 eig:   0.311  0.245
 bond charge predicted
       N       E                     dE             d eps       ncg     rms          rms(c)
Total vdW correction in eV:      4.9324953
DAV:   1    -0.719826763136E+02   -0.11809E-02   -0.39924E-02   112   0.981E-01    0.501E-02
Total vdW correction in eV:      4.9325156
DAV:   2    -0.719827504477E+02   -0.74134E-04   -0.74747E-04   120   0.124E-01    0.356E-02
Total vdW correction in eV:      4.9325293
DAV:   3    -0.719827425081E+02    0.79396E-05   -0.50213E-05   140   0.393E-02
Total vdW correction in eV:      4.9325268
  23 F= -.71982743E+02 E0= -.71982743E+02  d E =-.125680E-02  mag=     1.0000
 BRION: g(F)=  0.197E-02 g(S)=  0.000E+00 retain N=  3 mean eig= 1.65
 eig:   4.324  0.258  0.382
 bond charge predicted
       N       E                     dE             d eps       ncg     rms          rms(c)
Total vdW correction in eV:      4.9328307
DAV:   1    -0.719836051420E+02   -0.85469E-03   -0.15777E-02   120   0.624E-01    0.369E-02
Total vdW correction in eV:      4.9328226
DAV:   2    -0.719836295088E+02   -0.24367E-04   -0.32859E-04   124   0.821E-02    0.250E-02
Total vdW correction in eV:      4.9328182
DAV:   3    -0.719836270186E+02    0.24902E-05   -0.22836E-05   128   0.264E-02
Total vdW correction in eV:      4.9328104
  24 F= -.71983627E+02 E0= -.71983627E+02  d E =-.884510E-03  mag=     1.0000
 BRION: g(F)=  0.166E-02 g(S)=  0.000E+00 retain N=  3 mean eig= 1.17
 eig:   0.330  0.330  2.835
 bond charge predicted
       N       E                     dE             d eps       ncg     rms          rms(c)
Total vdW correction in eV:      4.9330959
DAV:   1    -0.719854266371E+02   -0.17971E-02   -0.68424E-02   112   0.129E+00    0.761E-02
Total vdW correction in eV:      4.9329996
DAV:   2    -0.719855037841E+02   -0.77147E-04   -0.91108E-04   112   0.136E-01    0.483E-02
Total vdW correction in eV:      4.9329197
DAV:   3    -0.719854945317E+02    0.92524E-05   -0.53613E-05   120   0.419E-02
Total vdW correction in eV:      4.9328707
  25 F= -.71985495E+02 E0= -.71985495E+02  d E =-.186751E-02  mag=     1.0000
 BRION: g(F)=  0.166E-02 g(S)=  0.000E+00 retain N=  3 mean eig= 1.28
 eig:   3.340  0.310  0.189
 bond charge predicted
       N       E                     dE             d eps       ncg     rms          rms(c)
Total vdW correction in eV:      4.9335534
DAV:   1    -0.719861853032E+02   -0.68152E-03   -0.24774E-02   112   0.771E-01    0.402E-02
Total vdW correction in eV:      4.9336079
DAV:   2    -0.719862274691E+02   -0.42166E-04   -0.43134E-04   120   0.931E-02    0.274E-02
Total vdW correction in eV:      4.9336437
DAV:   3    -0.719862239517E+02    0.35174E-05   -0.22818E-05   136   0.281E-02
Total vdW correction in eV:      4.9336711
  26 F= -.71986224E+02 E0= -.71986224E+02  d E =-.729420E-03  mag=     1.0000
 BRION: g(F)=  0.185E-02 g(S)=  0.000E+00 retain N=  3 mean eig= 2.44
 eig:   6.889  0.289  0.129
 bond charge predicted
       N       E                     dE             d eps       ncg     rms          rms(c)
Total vdW correction in eV:      4.9346455
DAV:   1    -0.719887251134E+02   -0.24976E-02   -0.16160E-01   120   0.199E+00    0.118E-01
Total vdW correction in eV:      4.9345819
DAV:   2    -0.719889352912E+02   -0.21018E-03   -0.25018E-03   124   0.223E-01    0.758E-02
Total vdW correction in eV:      4.9345261
DAV:   3    -0.719889281274E+02    0.71638E-05   -0.15441E-04   124   0.675E-02    0.280E-02
Total vdW correction in eV:      4.9344845
DAV:   4    -0.719889421026E+02   -0.13975E-04   -0.55364E-05   128   0.427E-02    0.704E-03
Total vdW correction in eV:      4.9344780
DAV:   5    -0.719889290569E+02    0.13046E-04   -0.92869E-06   104   0.191E-02    0.399E-03
Total vdW correction in eV:      4.9344729
DAV:   6    -0.719889227446E+02    0.63123E-05   -0.24775E-06   116   0.940E-03
Total vdW correction in eV:      4.9344702
  27 F= -.71988923E+02 E0= -.71988923E+02  d E =-.269879E-02  mag=     1.0000
 BRION: g(F)=  0.188E-02 g(S)=  0.000E+00 retain N=  3 mean eig= 2.45
 eig:   6.987  0.018  0.356
 bond charge predicted
       N       E                     dE             d eps       ncg     rms          rms(c)
Total vdW correction in eV:      4.9344225
DAV:   1    -0.719897725963E+02   -0.84354E-03   -0.33051E-02   120   0.897E-01    0.479E-02
Total vdW correction in eV:      4.9343541
DAV:   2    -0.719898194450E+02   -0.46849E-04   -0.67431E-04   124   0.116E-01    0.334E-02
Total vdW correction in eV:      4.9343057
DAV:   3    -0.719898080474E+02    0.11398E-04   -0.36788E-05   128   0.331E-02    0.151E-02
Total vdW correction in eV:      4.9342673
DAV:   4    -0.719898030222E+02    0.50253E-05   -0.16053E-05   104   0.222E-02
Total vdW correction in eV:      4.9342674
  28 F= -.71989803E+02 E0= -.71989803E+02  d E =-.880278E-03  mag=     1.0000
 BRION: g(F)=  0.172E-02 g(S)=  0.000E+00 retain N=  3 mean eig= 1.34
 eig:   0.320  0.320  3.378
 bond charge predicted
       N       E                     dE             d eps       ncg     rms          rms(c)
Total vdW correction in eV:      4.9339693
DAV:   1    -0.719892815872E+02    0.52646E-03   -0.17158E-02   128   0.648E-01    0.327E-02
Total vdW correction in eV:      4.9339545
DAV:   2    -0.719893202157E+02   -0.38628E-04   -0.40741E-04   120   0.902E-02    0.241E-02
Total vdW correction in eV:      4.9339449
DAV:   3    -0.719893141880E+02    0.60277E-05   -0.23912E-05   144   0.256E-02
Total vdW correction in eV:      4.9339402
  29 F= -.71989314E+02 E0= -.71989314E+02  d E =0.488834E-03  mag=     1.0000
 BRION: g(F)=  0.147E-02 g(S)=  0.000E+00 retain N=  3 mean eig= 1.01
 eig:   2.407  0.319  0.319
 bond charge predicted
       N       E                     dE             d eps       ncg     rms          rms(c)
Total vdW correction in eV:      4.9347058
DAV:   1    -0.719908482828E+02   -0.15281E-02   -0.64870E-02   120   0.126E+00    0.747E-02
Total vdW correction in eV:      4.9347054
DAV:   2    -0.719909382340E+02   -0.89951E-04   -0.98568E-04   112   0.142E-01    0.474E-02
Total vdW correction in eV:      4.9347055
DAV:   3    -0.719909400895E+02   -0.18555E-05   -0.54620E-05   132   0.426E-02
Total vdW correction in eV:      4.9346950
  30 F= -.71990940E+02 E0= -.71990940E+02  d E =-.162590E-02  mag=     1.0000
 BRION: g(F)=  0.114E-02 g(S)=  0.000E+00 retain N=  3 mean eig= 1.93
 eig:   5.344  0.015  0.444
 bond charge predicted
       N       E                     dE             d eps       ncg     rms          rms(c)
Total vdW correction in eV:      4.9346322
DAV:   1    -0.719915215795E+02   -0.58335E-03   -0.14834E-02   128   0.611E-01    0.349E-02
Total vdW correction in eV:      4.9345694
DAV:   2    -0.719915515246E+02   -0.29945E-04   -0.29363E-04   128   0.785E-02    0.237E-02
Total vdW correction in eV:      4.9345226
DAV:   3    -0.719915412063E+02    0.10318E-04   -0.18922E-05   112   0.248E-02    0.110E-02
Total vdW correction in eV:      4.9344876
DAV:   4    -0.719915399299E+02    0.12764E-05   -0.87631E-06   104   0.179E-02
Total vdW correction in eV:      4.9344896
  31 F= -.71991540E+02 E0= -.71991540E+02  d E =-.599840E-03  mag=     1.0000
 BRION: g(F)=  0.137E-02 g(S)=  0.000E+00 retain N=  2 mean eig= 1.50
 eig:   0.378  2.631
 bond charge predicted
       N       E                     dE             d eps       ncg     rms          rms(c)
Total vdW correction in eV:      4.9349990
DAV:   1    -0.719929252402E+02   -0.13840E-02   -0.69538E-02   112   0.130E+00    0.752E-02
Total vdW correction in eV:      4.9349597
DAV:   2    -0.719930130591E+02   -0.87819E-04   -0.97088E-04   120   0.143E-01    0.481E-02
Total vdW correction in eV:      4.9349380
DAV:   3    -0.719930099841E+02    0.30750E-05   -0.55188E-05   124   0.435E-02
Total vdW correction in eV:      4.9349143
  32 F= -.71993010E+02 E0= -.71993010E+02  d E =-.147005E-02  mag=     1.0000
 BRION: g(F)=  0.111E-02 g(S)=  0.000E+00 retain N=  2 mean eig= 0.37
 eig:   0.197  0.545
 bond charge predicted
       N       E                     dE             d eps       ncg     rms          rms(c)
Total vdW correction in eV:      4.9350337
DAV:   1    -0.719927415672E+02    0.27149E-03   -0.94983E-03   116   0.479E-01    0.242E-02
Total vdW correction in eV:      4.9350695
DAV:   2    -0.719927708888E+02   -0.29322E-04   -0.23280E-04   116   0.729E-02    0.189E-02
Total vdW correction in eV:      4.9350882
DAV:   3    -0.719927599759E+02    0.10913E-04   -0.95168E-06   100   0.192E-02    0.107E-02
Total vdW correction in eV:      4.9351152
DAV:   4    -0.719927627400E+02   -0.27641E-05   -0.13765E-05   124   0.210E-02
Total vdW correction in eV:      4.9351105
  33 F= -.71992763E+02 E0= -.71992763E+02  d E =0.247244E-03  mag=     1.0000
 BRION: g(F)=  0.117E-02 g(S)=  0.000E+00 retain N=  2 mean eig= 0.31
 eig:   0.389  0.227
 bond charge predicted
       N       E                     dE             d eps       ncg     rms          rms(c)
Total vdW correction in eV:      4.9354483
DAV:   1    -0.719939555138E+02   -0.11955E-02   -0.49252E-02   120   0.110E+00    0.637E-02
Total vdW correction in eV:      4.9354006
DAV:   2    -0.719940209021E+02   -0.65388E-04   -0.67169E-04   116   0.117E-01    0.405E-02
Total vdW correction in eV:      4.9353649
DAV:   3    -0.719940143615E+02    0.65405E-05   -0.37872E-05   124   0.354E-02
Total vdW correction in eV:      4.9353378
  34 F= -.71994014E+02 E0= -.71994014E+02  d E =-.125162E-02  mag=     1.0000
 BRION: g(F)=  0.918E-03 g(S)=  0.000E+00 retain N=  2 mean eig= 2.34
 eig:   0.254  4.420
 bond charge predicted
       N       E                     dE             d eps       ncg     rms          rms(c)
Total vdW correction in eV:      4.9355280
DAV:   1    -0.719944395760E+02   -0.41867E-03   -0.11220E-02   128   0.527E-01    0.292E-02
Total vdW correction in eV:      4.9355221
DAV:   2    -0.719944549349E+02   -0.15359E-04   -0.20510E-04   116   0.665E-02    0.199E-02
Total vdW correction in eV:      4.9355211
DAV:   3    -0.719944500034E+02    0.49316E-05   -0.10003E-05   112   0.186E-02
Total vdW correction in eV:      4.9355170
  35 F= -.71994450E+02 E0= -.71994450E+02  d E =-.435642E-03  mag=     1.0000
 BRION: g(F)=  0.105E-02 g(S)=  0.000E+00 retain N=  2 mean eig= 0.97
 eig:   0.085  1.859
 bond charge predicted
       N       E                     dE             d eps       ncg     rms          rms(c)
Total vdW correction in eV:      4.9359786
DAV:   1    -0.719958912579E+02   -0.14363E-02   -0.80295E-02   120   0.140E+00    0.843E-02
Total vdW correction in eV:      4.9359204
DAV:   2    -0.719959933322E+02   -0.10207E-03   -0.11375E-03   124   0.150E-01    0.535E-02
Total vdW correction in eV:      4.9358714
DAV:   3    -0.719959894844E+02    0.38478E-05   -0.67654E-05   124   0.455E-02
Total vdW correction in eV:      4.9358381
  36 F= -.71995989E+02 E0= -.71995989E+02  d E =-.153948E-02  mag=     1.0000
 BRION: g(F)=  0.916E-03 g(S)=  0.000E+00 retain N=  2 mean eig= 0.52
 eig:   0.215  0.822
 bond charge predicted
       N       E                     dE             d eps       ncg     rms          rms(c)
Total vdW correction in eV:      4.9355880
DAV:   1    -0.719954250913E+02    0.56824E-03   -0.15124E-02   120   0.610E-01    0.350E-02
Total vdW correction in eV:      4.9355851
DAV:   2    -0.719954514696E+02   -0.26378E-04   -0.33747E-04   124   0.859E-02    0.245E-02
Total vdW correction in eV:      4.9355896
DAV:   3    -0.719954428704E+02    0.85992E-05   -0.17513E-05   120   0.247E-02
Total vdW correction in eV:      4.9355985
  37 F= -.71995443E+02 E0= -.71995443E+02  d E =0.546614E-03  mag=     1.0000
 BRION: g(F)=  0.107E-02 g(S)=  0.000E+00 retain N=  2 mean eig= 0.33
 eig:   0.547  0.105
 bond charge predicted
       N       E                     dE             d eps       ncg     rms          rms(c)
Total vdW correction in eV:      4.9361223
DAV:   1    -0.719965758003E+02   -0.11243E-02   -0.53528E-02   128   0.114E+00    0.677E-02
Total vdW correction in eV:      4.9361110
DAV:   2    -0.719966494253E+02   -0.73625E-04   -0.79688E-04   120   0.128E-01    0.431E-02
Total vdW correction in eV:      4.9361034
DAV:   3    -0.719966506206E+02   -0.11953E-05   -0.44556E-05   136   0.400E-02
Total vdW correction in eV:      4.9360901
  38 F= -.71996651E+02 E0= -.71996651E+02  d E =-.120775E-02  mag=     1.0000
 BRION: g(F)=  0.756E-03 g(S)=  0.000E+00 retain N=  2 mean eig= 1.13
 eig:   0.329  1.924
 bond charge predicted
       N       E                     dE             d eps       ncg     rms          rms(c)
Total vdW correction in eV:      4.9360365
DAV:   1    -0.719970269053E+02   -0.37748E-03   -0.84516E-03   128   0.463E-01    0.268E-02
Total vdW correction in eV:      4.9359895
DAV:   2    -0.719970355260E+02   -0.86207E-05   -0.15625E-04   124   0.580E-02    0.181E-02
Total vdW correction in eV:      4.9359533
DAV:   3    -0.719970293851E+02    0.61409E-05   -0.99014E-06   112   0.193E-02
Total vdW correction in eV:      4.9359255
  39 F= -.71997029E+02 E0= -.71997029E+02  d E =-.378765E-03  mag=     1.0000
 BRION: g(F)=  0.851E-03 g(S)=  0.000E+00 retain N=  2 mean eig= 1.31
 eig:   0.390  2.227
 bond charge predicted
       N       E                     dE             d eps       ncg     rms          rms(c)
Total vdW correction in eV:      4.9364461
DAV:   1    -0.719982506419E+02   -0.12151E-02   -0.80307E-02   112   0.140E+00    0.821E-02
Total vdW correction in eV:      4.9364151
DAV:   2    -0.719983483356E+02   -0.97694E-04   -0.10919E-03   116   0.149E-01    0.521E-02
Total vdW correction in eV:      4.9364015
DAV:   3    -0.719983501554E+02   -0.18199E-05   -0.64896E-05   120   0.480E-02
Total vdW correction in eV:      4.9363843
  40 F= -.71998350E+02 E0= -.71998350E+02  d E =-.132077E-02  mag=     1.0000
 BRION: g(F)=  0.747E-03 g(S)=  0.000E+00 retain N=  2 mean eig= 0.70
 eig:   0.190  1.214
 bond charge predicted
       N       E                     dE             d eps       ncg     rms          rms(c)
Total vdW correction in eV:      4.9362597
DAV:   1    -0.719978239503E+02    0.52439E-03   -0.18958E-02   112   0.680E-01    0.369E-02
Total vdW correction in eV:      4.9362684
DAV:   2    -0.719978606054E+02   -0.36655E-04   -0.37038E-04   116   0.920E-02    0.259E-02
Total vdW correction in eV:      4.9362749
DAV:   3    -0.719978496212E+02    0.10984E-04   -0.18994E-05   116   0.272E-02    0.137E-02
Total vdW correction in eV:      4.9362850
DAV:   4    -0.719978488547E+02    0.76656E-06   -0.18641E-05   132   0.254E-02
Total vdW correction in eV:      4.9362852
  41 F= -.71997849E+02 E0= -.71997849E+02  d E =0.501301E-03  mag=     1.0000
 BRION: g(F)=  0.102E-02 g(S)=  0.000E+00 retain N=  2 mean eig= 0.38
 eig:   0.379  0.379
 bond charge predicted
       N       E                     dE             d eps       ncg     rms          rms(c)
Total vdW correction in eV:      4.9366395
DAV:   1    -0.719988527293E+02   -0.10031E-02   -0.54997E-02   120   0.116E+00    0.668E-02
Total vdW correction in eV:      4.9366053
DAV:   2    -0.719989290935E+02   -0.76364E-04   -0.76636E-04   116   0.126E-01    0.428E-02
Total vdW correction in eV:      4.9365826
DAV:   3    -0.719989229239E+02    0.61696E-05   -0.43658E-05   124   0.381E-02
Total vdW correction in eV:      4.9365624
  42 F= -.71998923E+02 E0= -.71998923E+02  d E =-.107407E-02  mag=     1.0000
 BRION: g(F)=  0.650E-03 g(S)=  0.000E+00 retain N=  2 mean eig= 3.50
 eig:   0.240  6.753
 bond charge predicted
       N       E                     dE             d eps       ncg     rms          rms(c)
Total vdW correction in eV:      4.9366328
DAV:   1    -0.719990657144E+02   -0.13662E-03   -0.34208E-03   128   0.291E-01    0.157E-02
Total vdW correction in eV:      4.9366330
DAV:   2    -0.719990688583E+02   -0.31439E-05   -0.80508E-05   116   0.426E-02
Total vdW correction in eV:      4.9366345
  43 F= -.71999069E+02 E0= -.71999069E+02  d E =-.145934E-03  mag=     1.0000
 BRION: g(F)=  0.616E-03 g(S)=  0.000E+00 retain N=  2 mean eig= 1.04
 eig:   0.176  1.898
 bond charge predicted
       N       E                     dE             d eps       ncg     rms          rms(c)
Total vdW correction in eV:      4.9368093
DAV:   1    -0.719998477124E+02   -0.78200E-03   -0.34507E-02   112   0.920E-01    0.589E-02
Total vdW correction in eV:      4.9367635
DAV:   2    -0.719998909051E+02   -0.43193E-04   -0.48091E-04   112   0.980E-02    0.371E-02
Total vdW correction in eV:      4.9367251
DAV:   3    -0.719998884347E+02    0.24704E-05   -0.29884E-05   120   0.306E-02
Total vdW correction in eV:      4.9367012
  44 F= -.71999888E+02 E0= -.71999888E+02  d E =-.819576E-03  mag=     1.0000
 BRION: g(F)=  0.592E-03 g(S)=  0.000E+00 retain N=  3 mean eig= 2.54
 eig:   7.265  0.174  0.174
 bond charge predicted
       N       E                     dE             d eps       ncg     rms          rms(c)
Total vdW correction in eV:      4.9372096
DAV:   1    -0.720007593660E+02   -0.86846E-03   -0.57968E-02   120   0.119E+00    0.678E-02
Total vdW correction in eV:      4.9372014
DAV:   2    -0.720008371231E+02   -0.77757E-04   -0.79119E-04   112   0.127E-01    0.434E-02
Total vdW correction in eV:      4.9371996
DAV:   3    -0.720008326181E+02    0.45051E-05   -0.42925E-05   120   0.379E-02
Total vdW correction in eV:      4.9371906
  45 F= -.72000833E+02 E0= -.72000833E+02  d E =-.944183E-03  mag=     1.0000
 BRION: g(F)=  0.642E-03 g(S)=  0.000E+00 retain N=  3 mean eig= 1.10
 eig:   0.294  1.935  1.078
 bond charge predicted
       N       E                     dE             d eps       ncg     rms          rms(c)
Total vdW correction in eV:      4.9369168
DAV:   1    -0.720003146468E+02    0.52248E-03   -0.19483E-02   112   0.693E-01    0.382E-02
Total vdW correction in eV:      4.9369125
DAV:   2    -0.720003513622E+02   -0.36715E-04   -0.39961E-04   128   0.939E-02    0.267E-02
Total vdW correction in eV:      4.9369145
DAV:   3    -0.720003407112E+02    0.10651E-04   -0.17442E-05   120   0.249E-02    0.139E-02
Total vdW correction in eV:      4.9369202
DAV:   4    -0.720003360619E+02    0.46493E-05   -0.15087E-05   120   0.222E-02
Total vdW correction in eV:      4.9369219
  46 F= -.72000336E+02 E0= -.72000336E+02  d E =0.496556E-03  mag=     1.0000
 BRION: g(F)=  0.918E-03 g(S)=  0.000E+00 retain N=  3 mean eig= 1.47
 eig:   3.287  0.566  0.566
 bond charge predicted
       N       E                     dE             d eps       ncg     rms          rms(c)
Total vdW correction in eV:      4.9374122
DAV:   1    -0.720016750150E+02   -0.13343E-02   -0.13845E-01   120   0.184E+00    0.109E-01
Total vdW correction in eV:      4.9373441
DAV:   2    -0.720018415703E+02   -0.16656E-03   -0.18969E-03   124   0.196E-01    0.690E-02
Total vdW correction in eV:      4.9373045
DAV:   3    -0.720018401322E+02    0.14381E-05   -0.10389E-04   136   0.585E-02    0.284E-02
Total vdW correction in eV:      4.9372717
DAV:   4    -0.720018481872E+02   -0.80550E-05   -0.51183E-05   128   0.408E-02
Total vdW correction in eV:      4.9372675
  47 F= -.72001848E+02 E0= -.72001848E+02  d E =-.151213E-02  mag=     1.0000
 BRION: g(F)=  0.566E-03 g(S)=  0.000E+00 retain N=  3 mean eig= 2.22
 eig:   5.886  0.670  0.096
 bond charge predicted
       N       E                     dE             d eps       ncg     rms          rms(c)
Total vdW correction in eV:      4.9370483
DAV:   1    -0.720012716562E+02    0.56848E-03   -0.24754E-02   120   0.780E-01    0.439E-02
Total vdW correction in eV:      4.9370551
DAV:   2    -0.720013167971E+02   -0.45141E-04   -0.39861E-04   120   0.921E-02    0.290E-02
Total vdW correction in eV:      4.9370608
DAV:   3    -0.720013075779E+02    0.92192E-05   -0.22473E-05   128   0.271E-02
Total vdW correction in eV:      4.9370688
  48 F= -.72001308E+02 E0= -.72001308E+02  d E =0.540609E-03  mag=     1.0000
 BRION: g(F)=  0.604E-03 g(S)=  0.000E+00 retain N=  3 mean eig= 2.70
 eig:   7.333  0.296  0.482
 bond charge predicted
       N       E                     dE             d eps       ncg     rms          rms(c)
Total vdW correction in eV:      4.9374272
DAV:   1    -0.720019485764E+02   -0.63178E-03   -0.32574E-02   124   0.888E-01    0.518E-02
Total vdW correction in eV:      4.9374262
DAV:   2    -0.720019945412E+02   -0.45965E-04   -0.46742E-04   116   0.981E-02    0.331E-02
Total vdW correction in eV:      4.9374297
DAV:   3    -0.720019939704E+02    0.57086E-06   -0.27129E-05   124   0.308E-02
Total vdW correction in eV:      4.9374263
  49 F= -.72001994E+02 E0= -.72001994E+02  d E =-.686392E-03  mag=     1.0000
 BRION: g(F)=  0.436E-03 g(S)=  0.000E+00 retain N=  3 mean eig= 1.81
 eig:   4.530  0.234  0.673
 bond charge predicted
       N       E                     dE             d eps       ncg     rms          rms(c)
Total vdW correction in eV:      4.9374893
DAV:   1    -0.720027542444E+02   -0.75970E-03   -0.53980E-02   120   0.115E+00    0.679E-02
Total vdW correction in eV:      4.9374121
DAV:   2    -0.720028130255E+02   -0.58781E-04   -0.70534E-04   116   0.120E-01    0.429E-02
Total vdW correction in eV:      4.9373571
DAV:   3    -0.720028054962E+02    0.75293E-05   -0.39041E-05   124   0.351E-02
Total vdW correction in eV:      4.9373243
  50 F= -.72002805E+02 E0= -.72002805E+02  d E =-.811526E-03  mag=     1.0000
 BRION: g(F)=  0.478E-03 g(S)=  0.000E+00 retain N=  3 mean eig= 2.73
 eig:   7.673  0.251  0.251
 bond charge predicted
       N       E                     dE             d eps       ncg     rms          rms(c)
Total vdW correction in eV:      4.9376772
DAV:   1    -0.720032729408E+02   -0.45992E-03   -0.30969E-02   116   0.880E-01    0.508E-02
Total vdW correction in eV:      4.9376789
DAV:   2    -0.720033283564E+02   -0.55416E-04   -0.52068E-04   124   0.105E-01    0.338E-02
Total vdW correction in eV:      4.9376794
DAV:   3    -0.720033245568E+02    0.37996E-05   -0.29123E-05   124   0.306E-02
Total vdW correction in eV:      4.9376737
  51 F= -.72003325E+02 E0= -.72003325E+02  d E =-.519061E-03  mag=     1.0000
 BRION: g(F)=  0.874E-03 g(S)=  0.000E+00 retain N=  3 mean eig= 1.09
 eig:   1.356  1.356  0.563
 bond charge predicted
       N       E                     dE             d eps       ncg     rms          rms(c)
Total vdW correction in eV:      4.9380338
DAV:   1    -0.720041134246E+02   -0.78507E-03   -0.71797E-02   112   0.133E+00    0.777E-02
Total vdW correction in eV:      4.9380031
DAV:   2    -0.720042139494E+02   -0.10052E-03   -0.10225E-03   116   0.146E-01    0.499E-02
Total vdW correction in eV:      4.9379884
DAV:   3    -0.720042090863E+02    0.48631E-05   -0.58805E-05   124   0.447E-02
Total vdW correction in eV:      4.9379739
  52 F= -.72004209E+02 E0= -.72004209E+02  d E =-.884530E-03  mag=     1.0000
 BRION: g(F)=  0.503E-03 g(S)=  0.000E+00 retain N=  2 mean eig= 3.56
 eig:   0.274  6.838
 bond charge predicted
       N       E                     dE             d eps       ncg     rms          rms(c)
Total vdW correction in eV:      4.9378703
DAV:   1    -0.720035810646E+02    0.63288E-03   -0.34474E-02   124   0.922E-01    0.528E-02
Total vdW correction in eV:      4.9379031
DAV:   2    -0.720036369984E+02   -0.55934E-04   -0.60889E-04   128   0.114E-01    0.354E-02
Total vdW correction in eV:      4.9379389
DAV:   3    -0.720036325437E+02    0.44548E-05   -0.33919E-05   136   0.348E-02
Total vdW correction in eV:      4.9379706
  53 F= -.72003633E+02 E0= -.72003633E+02  d E =0.576543E-03  mag=     1.0000
 BRION: g(F)=  0.856E-03 g(S)=  0.000E+00 retain N=  2 mean eig= 0.49
 eig:   0.211  0.775
 bond charge predicted
       N       E                     dE             d eps       ncg     rms          rms(c)
Total vdW correction in eV:      4.9377967
DAV:   1    -0.720041745989E+02   -0.53760E-03   -0.31126E-02   136   0.870E-01    0.508E-02
Total vdW correction in eV:      4.9377113
DAV:   2    -0.720042065464E+02   -0.31947E-04   -0.46640E-04   124   0.991E-02    0.330E-02
Total vdW correction in eV:      4.9376440
DAV:   3    -0.720042004477E+02    0.60987E-05   -0.30047E-05   124   0.331E-02
Total vdW correction in eV:      4.9376018
  54 F= -.72004200E+02 E0= -.72004200E+02  d E =-.567904E-03  mag=     1.0000
 BRION: g(F)=  0.423E-03 g(S)=  0.000E+00 retain N=  3 mean eig= 1.66
 eig:   4.695  0.231  0.062
 bond charge predicted
       N       E                     dE             d eps       ncg     rms          rms(c)
Total vdW correction in eV:      4.9378850
DAV:   1    -0.720043349701E+02   -0.12842E-03   -0.35696E-03   136   0.293E-01    0.153E-02
Total vdW correction in eV:      4.9379217
DAV:   2    -0.720043389692E+02   -0.39991E-05   -0.61660E-05   124   0.378E-02
Total vdW correction in eV:      4.9379509
  55 F= -.72004339E+02 E0= -.72004339E+02  d E =-.138521E-03  mag=     1.0000
 BRION: g(F)=  0.272E-03 g(S)=  0.000E+00 retain N=  2 mean eig= 1.00
 eig:   0.204  1.789
 bond charge predicted
       N       E                     dE             d eps       ncg     rms          rms(c)
Total vdW correction in eV:      4.9380716
DAV:   1    -0.720046820969E+02   -0.34713E-03   -0.14346E-02   116   0.593E-01    0.377E-02
Total vdW correction in eV:      4.9380606
DAV:   2    -0.720046958387E+02   -0.13742E-04   -0.20402E-04   116   0.658E-02    0.239E-02
Total vdW correction in eV:      4.9380551
DAV:   3    -0.720046953637E+02    0.47499E-06   -0.15887E-05   104   0.244E-02
Total vdW correction in eV:      4.9380496
  56 F= -.72004695E+02 E0= -.72004695E+02  d E =-.356395E-03  mag=     1.0000
 BRION: g(F)=  0.313E-03 g(S)=  0.000E+00 retain N=  3 mean eig= 0.73
 eig:   1.788  0.208  0.208
 bond charge predicted
       N       E                     dE             d eps       ncg     rms          rms(c)
Total vdW correction in eV:      4.9380700
DAV:   1    -0.720048385432E+02   -0.14270E-03   -0.30620E-03   116   0.277E-01    0.156E-02
Total vdW correction in eV:      4.9380570
DAV:   2    -0.720048426602E+02   -0.41169E-05   -0.53163E-05   120   0.357E-02
Total vdW correction in eV:      4.9380478
  57 F= -.72004843E+02 E0= -.72004843E+02  d E =-.147296E-03  mag=     1.0000
 BRION: g(F)=  0.257E-03 g(S)=  0.000E+00 retain N=  1 mean eig= 0.32
 eig:   0.323
 bond charge predicted
       N       E                     dE             d eps       ncg     rms          rms(c)
Total vdW correction in eV:      4.9380593
DAV:   1    -0.720050181442E+02   -0.17960E-03   -0.60292E-03   116   0.389E-01    0.254E-02
Total vdW correction in eV:      4.9380360
DAV:   2    -0.720050292582E+02   -0.11114E-04   -0.10815E-04   124   0.491E-02    0.169E-02
Total vdW correction in eV:      4.9380126
DAV:   3    -0.720050282956E+02    0.96261E-06   -0.10579E-05   100   0.211E-02
Total vdW correction in eV:      4.9379992
  58 F= -.72005028E+02 E0= -.72005028E+02  d E =-.185635E-03  mag=     1.0000
 BRION: g(F)=  0.372E-03 g(S)=  0.000E+00 retain N=  2 mean eig= 0.35
 eig:   0.265  0.434
 bond charge predicted
       N       E                     dE             d eps       ncg     rms          rms(c)
Total vdW correction in eV:      4.9380846
DAV:   1    -0.720051164250E+02   -0.87167E-04   -0.19132E-03   112   0.214E-01    0.113E-02
Total vdW correction in eV:      4.9380946
DAV:   2    -0.720051183319E+02   -0.19068E-05   -0.38443E-05   116   0.306E-02
Total vdW correction in eV:      4.9381034
  59 F= -.72005118E+02 E0= -.72005118E+02  d E =-.900363E-04  mag=     1.0000
 BRION: g(F)=  0.226E-03 g(S)=  0.000E+00 retain N=  1 mean eig= 0.27
 eig:   0.272
 bond charge predicted
       N       E                     dE             d eps       ncg     rms          rms(c)
Total vdW correction in eV:      4.9381232
DAV:   1    -0.720053306238E+02   -0.21420E-03   -0.64140E-03   120   0.397E-01    0.259E-02
Total vdW correction in eV:      4.9381065
DAV:   2    -0.720053397110E+02   -0.90872E-05   -0.91711E-05   116   0.453E-02
Total vdW correction in eV:      4.9380943
  60 F= -.72005340E+02 E0= -.72005340E+02  d E =-.221379E-03  mag=     1.0000
 BRION: g(F)=  0.233E-03 g(S)=  0.000E+00 retain N=  2 mean eig= 0.31
 eig:   0.193  0.433
 bond charge predicted
       N       E                     dE             d eps       ncg     rms          rms(c)
Total vdW correction in eV:      4.9381903
DAV:   1    -0.720054323065E+02   -0.10168E-03   -0.19165E-03   120   0.220E-01    0.166E-02
Total vdW correction in eV:      4.9381940
DAV:   2    -0.720054339231E+02   -0.16166E-05   -0.42361E-05   116   0.334E-02
Total vdW correction in eV:      4.9381967
  61 F= -.72005434E+02 E0= -.72005434E+02  d E =-.942121E-04  mag=     1.0000
 BRION: g(F)=  0.223E-03 g(S)=  0.000E+00 retain N=  1 mean eig= 0.22
 eig:   0.221
 bond charge predicted
       N       E                     dE             d eps       ncg     rms          rms(c)
Total vdW correction in eV:      4.9382425
DAV:   1    -0.720055964109E+02   -0.16410E-03   -0.37070E-03   120   0.302E-01    0.217E-02
Total vdW correction in eV:      4.9382329
DAV:   2    -0.720056010391E+02   -0.46282E-05   -0.55815E-05   112   0.375E-02
Total vdW correction in eV:      4.9382259
  62 F= -.72005601E+02 E0= -.72005601E+02  d E =-.167116E-03  mag=     1.0000
 BRION: g(F)=  0.190E-03 g(S)=  0.000E+00 retain N=  1 mean eig= 0.52
 eig:   0.523
 bond charge predicted
       N       E                     dE             d eps       ncg     rms          rms(c)
Total vdW correction in eV:      4.9382742
DAV:   1    -0.720058642449E+02   -0.26783E-03   -0.10191E-02   112   0.500E-01    0.351E-02
Total vdW correction in eV:      4.9382509
DAV:   2    -0.720058723732E+02   -0.81283E-05   -0.14384E-04   116   0.585E-02    0.220E-02
Total vdW correction in eV:      4.9382343
DAV:   3    -0.720058784313E+02   -0.60581E-05   -0.24772E-05   120   0.326E-02
Total vdW correction in eV:      4.9382236
  63 F= -.72005878E+02 E0= -.72005878E+02  d E =-.277392E-03  mag=     1.0000
 BRION: g(F)=  0.215E-03 g(S)=  0.000E+00 retain N=  2 mean eig= 1.19
 eig:   0.358  2.016
 bond charge predicted
       N       E                     dE             d eps       ncg     rms          rms(c)
Total vdW correction in eV:      4.9384258
DAV:   1    -0.720061661506E+02   -0.29378E-03   -0.16865E-02   112   0.642E-01    0.367E-02
Total vdW correction in eV:      4.9384287
DAV:   2    -0.720061877430E+02   -0.21592E-04   -0.22427E-04   112   0.702E-02    0.235E-02
Total vdW correction in eV:      4.9384343
DAV:   3    -0.720061901970E+02   -0.24539E-05   -0.23629E-05   112   0.309E-02
Total vdW correction in eV:      4.9384336
  64 F= -.72006190E+02 E0= -.72006190E+02  d E =-.311766E-03  mag=     1.0000
 BRION: g(F)=  0.214E-03 g(S)=  0.000E+00 retain N=  2 mean eig= 0.55
 eig:   0.109  0.994
 bond charge predicted
       N       E                     dE             d eps       ncg     rms          rms(c)
Total vdW correction in eV:      4.9382249
DAV:   1    -0.720059007426E+02    0.28700E-03   -0.13460E-02   112   0.571E-01    0.327E-02
Total vdW correction in eV:      4.9382102
DAV:   2    -0.720059193870E+02   -0.18644E-04   -0.20940E-04   116   0.696E-02    0.213E-02
Total vdW correction in eV:      4.9382017
DAV:   3    -0.720059154144E+02    0.39727E-05   -0.24247E-05   128   0.318E-02
Total vdW correction in eV:      4.9381985
  65 F= -.72005915E+02 E0= -.72005915E+02  d E =0.274783E-03  mag=     1.0000
 BRION: g(F)=  0.238E-03 g(S)=  0.000E+00 retain N=  2 mean eig= 0.17
 eig:   0.267  0.081
 bond charge predicted
       N       E                     dE             d eps       ncg     rms          rms(c)
Total vdW correction in eV:      4.9383033
DAV:   1    -0.720062044430E+02   -0.28506E-03   -0.14736E-02   124   0.598E-01    0.352E-02
Total vdW correction in eV:      4.9382926
DAV:   2    -0.720062231811E+02   -0.18738E-04   -0.21006E-04   120   0.690E-02    0.224E-02
Total vdW correction in eV:      4.9382858
DAV:   3    -0.720062270312E+02   -0.38501E-05   -0.24870E-05   124   0.325E-02
Total vdW correction in eV:      4.9382787
  66 F= -.72006227E+02 E0= -.72006227E+02  d E =-.311617E-03  mag=     1.0000
 BRION: g(F)=  0.182E-03 g(S)=  0.000E+00 retain N=  2 mean eig= 0.54
 eig:   0.542  0.536
 bond charge predicted
       N       E                     dE             d eps       ncg     rms          rms(c)
Total vdW correction in eV:      4.9384649
DAV:   1    -0.720066050747E+02   -0.38189E-03   -0.36998E-02   128   0.950E-01    0.542E-02
Total vdW correction in eV:      4.9384520
DAV:   2    -0.720066529865E+02   -0.47912E-04   -0.48909E-04   116   0.103E-01    0.346E-02
Total vdW correction in eV:      4.9384501
DAV:   3    -0.720066548062E+02   -0.18197E-05   -0.43183E-05   124   0.417E-02
Total vdW correction in eV:      4.9384460
  67 F= -.72006655E+02 E0= -.72006655E+02  d E =-.427775E-03  mag=     1.0000
 BRION: g(F)=  0.290E-03 g(S)=  0.000E+00 retain N=  2 mean eig= 1.31
 eig:   1.305  1.305
 bond charge predicted
       N       E                     dE             d eps       ncg     rms          rms(c)
Total vdW correction in eV:      4.9386146
DAV:   1    -0.720073462356E+02   -0.69325E-03   -0.16055E-01   112   0.198E+00    0.118E-01
Total vdW correction in eV:      4.9385311
DAV:   2    -0.720075159679E+02   -0.16973E-03   -0.20179E-03   120   0.204E-01    0.742E-02
Total vdW correction in eV:      4.9384836
DAV:   3    -0.720075252636E+02   -0.92957E-05   -0.14025E-04   124   0.710E-02    0.267E-02
Total vdW correction in eV:      4.9384546
DAV:   4    -0.720075298871E+02   -0.46235E-05   -0.81303E-05   120   0.569E-02
Total vdW correction in eV:      4.9384543
  68 F= -.72007530E+02 E0= -.72007530E+02  d E =-.875081E-03  mag=     1.0000
 BRION: g(F)=  0.268E-03 g(S)=  0.000E+00 retain N=  3 mean eig= 3.60
 eig:   5.029  5.029  0.752
 bond charge predicted
       N       E                     dE             d eps       ncg     rms          rms(c)
Total vdW correction in eV:      4.9392397
DAV:   1    -0.720080067502E+02   -0.48149E-03   -0.85112E-01   112   0.456E+00    0.270E-01
Total vdW correction in eV:      4.9390834
DAV:   2    -0.720089044377E+02   -0.89769E-03   -0.10873E-02   124   0.469E-01    0.170E-01
Total vdW correction in eV:      4.9390535
DAV:   3    -0.720089145874E+02   -0.10150E-04   -0.63210E-04   120   0.145E-01    0.634E-02
Total vdW correction in eV:      4.9390240
DAV:   4    -0.720089653264E+02   -0.50739E-04   -0.27712E-04   116   0.977E-02    0.147E-02
Total vdW correction in eV:      4.9390176
DAV:   5    -0.720089578666E+02    0.74599E-05   -0.44400E-05   124   0.417E-02
Total vdW correction in eV:      4.9390115
  69 F= -.72008958E+02 E0= -.72008958E+02  d E =-.142798E-02  mag=     1.0000
 BRION: g(F)=  0.794E-04 g(S)=  0.000E+00 retain N=  3 mean eig= 3.94
 eig:   5.545  5.545  0.738
 bond charge predicted
       N       E                     dE             d eps       ncg     rms          rms(c)
Total vdW correction in eV:      4.9394926
DAV:   1    -0.720090958956E+02   -0.13057E-03   -0.27307E-01   120   0.258E+00    0.150E-01
Total vdW correction in eV:      4.9394209
DAV:   2    -0.720094071645E+02   -0.31127E-03   -0.35572E-03   128   0.269E-01    0.952E-02
Total vdW correction in eV:      4.9393929
DAV:   3    -0.720094094066E+02   -0.22421E-05   -0.19230E-04   120   0.799E-02    0.358E-02
Total vdW correction in eV:      4.9393676
DAV:   4    -0.720094243311E+02   -0.14924E-04   -0.84791E-05   116   0.527E-02    0.816E-03
Total vdW correction in eV:      4.9393635
DAV:   5    -0.720094165495E+02    0.77815E-05   -0.13750E-05   144   0.221E-02
Total vdW correction in eV:      4.9393599
  70 F= -.72009417E+02 E0= -.72009417E+02  d E =-.458683E-03  mag=     1.0000
 BRION: g(F)=  0.171E-03 g(S)=  0.000E+00 retain N=  4 mean eig= 3.32
 eig:   5.819  5.819  0.823  0.823
 bond charge predicted
       N       E                     dE             d eps       ncg     rms          rms(c)
Total vdW correction in eV:      4.9395338
DAV:   1    -0.720094614060E+02   -0.37075E-04   -0.15027E-01   120   0.192E+00    0.114E-01
Total vdW correction in eV:      4.9394564
DAV:   2    -0.720096335677E+02   -0.17216E-03   -0.19678E-03   124   0.200E-01    0.717E-02
Total vdW correction in eV:      4.9394249
DAV:   3    -0.720096328458E+02    0.72188E-06   -0.11110E-04   120   0.603E-02    0.273E-02
Total vdW correction in eV:      4.9394036
DAV:   4    -0.720096377752E+02   -0.49294E-05   -0.47865E-05   112   0.402E-02
Total vdW correction in eV:      4.9394025
  71 F= -.72009638E+02 E0= -.72009638E+02  d E =-.221226E-03  mag=     1.0000
 BRION: g(F)=  0.171E-04 g(S)=  0.000E+00 retain N=  3 mean eig= 3.40
 eig:   4.537  4.537  1.129
 reached required accuracy - stopping structural energy minimisation
--------------------------------------------------------
>>>  Job finished at Fri May  1 19:39:11 EDT 2020
