>>>  VASP 5.4.4 with BEEF-vdw and vtst
--------------------------------------------------------
>>>  Job information
     SLURM_JOBID=2126899
     SLURM_JOB_NODELIST=cpn-u22-30
     SLURM_NNODES=1
     SLURMTMPDIR=/scratch/2126899
     working directory = /projects/academic/ericwalk/cahorvat/DecaneReaction/CH3/vtst
--------------------------------------------------------
>>>  Module information
The Intel compilers are in your path. This is adequate for compiling and
running most codes. Source
/util/academic/intel/17.0/compilers_and_libraries_2017/linux/bin/compilervars.sh
for more features. 
 The MKL Libraries are in your library path. This is adequate for compiling and
running most codes. Source $MKL/bin/mklvars.sh" for more features. 
 Intel-MPI is in your path. This is adequate for compiling and running most
codes. Source the
/util/academic/intel/17.0/compilers_and_libraries_2017/linux/mpi/intel64/bin/mpivars.sh
file for more features. 

Currently Loaded Modules:
  1) intel/17.0   2) mkl/2017.0.1   3) intel-mpi/2017.0.1

 

--------------------------------------------------------
>>>  Running Configuration
NPROCS=16
--------------------------------------------------------
>>>  Job started at Sun Mar 29 16:14:25 EDT 2020
--------------------------------------------------------
srun: Job 2126899 step creation temporarily disabled, retrying
srun: Step created for job 2126899
 running on   16 total cores
 distrk:  each k-point on   16 cores,    1 groups
 distr:  one band on    4 cores,    4 groups
 using from now: INCAR     
 vasp.5.4.4.18Apr17-6-g9f103f2a35 (build Dec 31 2018 11:41:54) complex          
  
 POSCAR found type information on POSCAR  C  H 
 POSCAR found :  2 types and       4 ions
 scaLAPACK will be used

 ----------------------------------------------------------------------------- 
|                                                                             |
|  ADVICE TO THIS USER RUNNING 'VASP/VAMP'   (HEAR YOUR MASTER'S VOICE ...):  |
|                                                                             |
|      You have a (more or less) 'small supercell' and for smaller cells      |
|      it is recommended  to use the reciprocal-space projection scheme!      |
|      The real space optimization is not  efficient for small cells and it   |
|      is also less accurate ...                                              |
|      Therefore set LREAL=.FALSE. in the  INCAR file                         |
|                                                                             |
 ----------------------------------------------------------------------------- 

 LDA part: xc-table for Pade appr. of Perdew
 POSCAR found type information on POSCAR  C  H 
 POSCAR found :  2 types and       4 ions
 POSCAR, INCAR and KPOINTS ok, starting setup
 FFT: planning ...
 WAVECAR not read
 WARNING: random wavefunctions but no delay for mixing, default for NELMDL
 entering main loop
       N       E                     dE             d eps       ncg     rms          rms(c)
DAV:   1     0.534324966190E+02    0.53432E+02   -0.14102E+03    16   0.324E+02
DAV:   2    -0.714811428954E+01   -0.60581E+02   -0.60581E+02    32   0.701E+01
DAV:   3    -0.191490483338E+02   -0.12001E+02   -0.12001E+02    16   0.604E+01
DAV:   4    -0.198513809839E+02   -0.70233E+00   -0.70233E+00    32   0.176E+01
DAV:   5    -0.198517639631E+02   -0.38298E-03   -0.38298E-03    32   0.436E-01    0.730E+00
DAV:   6    -0.180118729031E+02    0.18399E+01   -0.43246E+00    16   0.110E+01    0.342E+00
DAV:   7    -0.176165439640E+02    0.39533E+00   -0.93737E-01    24   0.487E+00    0.146E+00
DAV:   8    -0.175428262343E+02    0.73718E-01   -0.11827E-01    32   0.230E+00    0.199E-01
DAV:   9    -0.175416410845E+02    0.11851E-02   -0.29725E-03    32   0.267E-01    0.129E-01
DAV:  10    -0.175409323679E+02    0.70872E-03   -0.56934E-03    16   0.383E-01    0.564E-02
DAV:  11    -0.175442863518E+02   -0.33540E-02   -0.71737E-04    24   0.120E-01    0.346E-02
DAV:  12    -0.175461349753E+02   -0.18486E-02   -0.41820E-04    24   0.106E-01    0.116E-02
DAV:  13    -0.175477045845E+02   -0.15696E-02   -0.27270E-04    32   0.628E-02    0.670E-03
DAV:  14    -0.175480985754E+02   -0.39399E-03   -0.56327E-05    32   0.318E-02    0.326E-03
DAV:  15    -0.175483157656E+02   -0.21719E-03   -0.39870E-05    16   0.224E-02    0.233E-03
DAV:  16    -0.175483678803E+02   -0.52115E-04   -0.85809E-06    24   0.113E-02    0.180E-03
DAV:  17    -0.175483893746E+02   -0.21494E-04   -0.13977E-06    16   0.484E-03    0.645E-04
DAV:  18    -0.175483980535E+02   -0.86789E-05   -0.45384E-07    16   0.311E-03    0.352E-04
DAV:  19    -0.175484025161E+02   -0.44626E-05   -0.18640E-07    16   0.158E-03    0.163E-04
DAV:  20    -0.175484039117E+02   -0.13956E-05   -0.76850E-08    16   0.907E-04    0.157E-04
DAV:  21    -0.175484045348E+02   -0.62311E-06   -0.34046E-08    16   0.667E-04    0.521E-05
DAV:  22    -0.175484047863E+02   -0.25151E-06   -0.93862E-09    32   0.383E-04    0.119E-04
DAV:  23    -0.175484049337E+02   -0.14744E-06   -0.75640E-09    16   0.397E-04    0.456E-05
DAV:  24    -0.175484049727E+02   -0.38997E-07   -0.37870E-10    16   0.103E-04    0.370E-05
DAV:  25    -0.175484050059E+02   -0.33157E-07   -0.36142E-10    16   0.859E-05    0.352E-05
DAV:  26    -0.175484050100E+02   -0.40679E-08   -0.33307E-12    16   0.220E-05
   1 F= -.17548405E+02 E0= -.17534300E+02  d E =-.175484E+02
quench:  g(F)=  0.000E+00 g(S)=  0.000E+00 dE (1.order)= 0.000E+00
 bond charge predicted
       N       E                     dE             d eps       ncg     rms          rms(c)
DAV:   1    -0.175483740784E+02    0.30927E-04   -0.24947E-03    16   0.442E-01    0.873E-03
DAV:   2    -0.175483754872E+02   -0.14088E-05   -0.30341E-05    16   0.451E-02    0.714E-03
DAV:   3    -0.175483749432E+02    0.54393E-06   -0.38575E-06    16   0.174E-02    0.985E-04
DAV:   4    -0.175483750284E+02   -0.85134E-07   -0.65520E-07    32   0.600E-03    0.486E-04
DAV:   5    -0.175483750460E+02   -0.17595E-07   -0.11298E-08    32   0.832E-04    0.181E-04
DAV:   6    -0.175483750569E+02   -0.10908E-07   -0.16251E-09    16   0.329E-04    0.561E-05
DAV:   7    -0.175483750718E+02   -0.14889E-07   -0.96354E-10    16   0.172E-04    0.395E-05
DAV:   8    -0.175483750837E+02   -0.11914E-07   -0.52632E-10    16   0.989E-05    0.386E-05
DAV:   9    -0.175483750896E+02   -0.59091E-08   -0.22998E-10    16   0.536E-05
   2 F= -.17548375E+02 E0= -.17534270E+02  d E =0.299204E-04
quench:  g(F)=  0.000E+00 g(S)=  0.000E+00 dE (1.order)= 0.000E+00
 bond charge predicted
       N       E                     dE             d eps       ncg     rms          rms(c)
DAV:   1    -0.175483928927E+02   -0.17809E-04   -0.48774E-03    16   0.608E-01    0.125E-02
DAV:   2    -0.175483940034E+02   -0.11107E-05   -0.44406E-05    16   0.536E-02    0.899E-03
DAV:   3    -0.175483932876E+02    0.71574E-06   -0.10318E-05    16   0.275E-02    0.183E-03
DAV:   4    -0.175483933009E+02   -0.13298E-07   -0.18273E-06    32   0.108E-02    0.717E-04
DAV:   5    -0.175483933362E+02   -0.35237E-07   -0.71049E-08    16   0.226E-03    0.317E-04
DAV:   6    -0.175483933687E+02   -0.32530E-07   -0.11623E-08    16   0.756E-04    0.745E-05
DAV:   7    -0.175483933963E+02   -0.27587E-07   -0.19693E-09    16   0.293E-04    0.664E-05
DAV:   8    -0.175483934344E+02   -0.38127E-07   -0.63964E-09    16   0.339E-04    0.513E-05
DAV:   9    -0.175483934490E+02   -0.14602E-07   -0.13715E-09    16   0.137E-04    0.385E-05
DAV:  10    -0.175483934596E+02   -0.10526E-07   -0.96620E-10    16   0.862E-05    0.362E-05
DAV:  11    -0.175483934733E+02   -0.13761E-07   -0.84961E-10    16   0.607E-05    0.352E-05
DAV:  12    -0.175483934782E+02   -0.48703E-08   -0.75442E-11    24   0.225E-05
   3 F= -.17548393E+02 E0= -.17534289E+02  d E =-.183886E-04
quench:  g(F)=  0.000E+00 g(S)=  0.000E+00 dE (1.order)= 0.000E+00
 bond charge predicted
       N       E                     dE             d eps       ncg     rms          rms(c)
DAV:   1    -0.175483888846E+02    0.45887E-05   -0.46623E-03    16   0.558E-01    0.115E-02
DAV:   2    -0.175483883467E+02    0.53797E-06   -0.27736E-05    16   0.394E-02    0.737E-03
DAV:   3    -0.175483881371E+02    0.20954E-06   -0.82005E-06    16   0.194E-02    0.188E-03
DAV:   4    -0.175483881197E+02    0.17390E-07   -0.12429E-06    16   0.766E-03    0.847E-04
DAV:   5    -0.175483881937E+02   -0.74007E-07   -0.10356E-07    24   0.224E-03    0.288E-04
DAV:   6    -0.175483882381E+02   -0.44337E-07   -0.97159E-09    16   0.713E-04    0.953E-05
DAV:   7    -0.175483882831E+02   -0.45036E-07   -0.27817E-09    16   0.196E-04    0.802E-05
DAV:   8    -0.175483883321E+02   -0.48995E-07   -0.14856E-08    16   0.424E-04    0.753E-05
DAV:   9    -0.175483883623E+02   -0.30248E-07   -0.37450E-09    16   0.183E-04    0.398E-05
DAV:  10    -0.175483883904E+02   -0.28013E-07   -0.31920E-09    16   0.133E-04    0.379E-05
DAV:  11    -0.175483884212E+02   -0.30837E-07   -0.11450E-09    16   0.808E-05    0.378E-05
DAV:  12    -0.175483884355E+02   -0.14284E-07   -0.21959E-10    16   0.484E-05    0.352E-05
DAV:  13    -0.175483884438E+02   -0.82739E-08   -0.92157E-11    16   0.377E-05
   4 F= -.17548388E+02 E0= -.17534284E+02  d E =0.503443E-05
quench:  g(F)=  0.000E+00 g(S)=  0.000E+00 dE (1.order)= 0.000E+00
 bond charge predicted
       N       E                     dE             d eps       ncg     rms          rms(c)
DAV:   1    -0.175485822743E+02   -0.19384E-03   -0.24677E-03    16   0.445E-01    0.910E-03
DAV:   2    -0.175485820323E+02    0.24203E-06   -0.20140E-05    16   0.372E-02    0.622E-03
DAV:   3    -0.175485818724E+02    0.15991E-06   -0.42780E-06    16   0.141E-02    0.140E-03
DAV:   4    -0.175485818505E+02    0.21872E-07   -0.53255E-07    32   0.491E-03    0.722E-04
DAV:   5    -0.175485818976E+02   -0.47100E-07   -0.36505E-08    16   0.130E-03    0.189E-04
DAV:   6    -0.175485819273E+02   -0.29691E-07   -0.21990E-09    24   0.315E-04    0.119E-04
DAV:   7    -0.175485819839E+02   -0.56625E-07   -0.34288E-09    16   0.328E-04    0.574E-05
DAV:   8    -0.175485820411E+02   -0.57169E-07   -0.50430E-09    16   0.297E-04    0.621E-05
DAV:   9    -0.175485820617E+02   -0.20599E-07   -0.19201E-09    16   0.164E-04    0.380E-05
DAV:  10    -0.175485820815E+02   -0.19827E-07   -0.16850E-09    16   0.116E-04    0.367E-05
DAV:  11    -0.175485820921E+02   -0.10591E-07   -0.57643E-10    32   0.560E-05    0.359E-05
DAV:  12    -0.175485821032E+02   -0.11046E-07   -0.26947E-10    16   0.441E-05    0.351E-05
DAV:  13    -0.175485821093E+02   -0.60989E-08   -0.82263E-11    16   0.295E-05
   5 F= -.17548582E+02 E0= -.17534477E+02  d E =-.193666E-03
quench:  g(F)=  0.000E+00 g(S)=  0.000E+00 dE (1.order)= 0.000E+00
 bond charge predicted
       N       E                     dE             d eps       ncg     rms          rms(c)
DAV:   1    -0.175482885631E+02    0.29354E-03   -0.80888E-04    16   0.241E-01    0.120E-02
DAV:   2    -0.175482867641E+02    0.17990E-05   -0.11307E-05    16   0.255E-02    0.713E-03
DAV:   3    -0.175482870659E+02   -0.30182E-06   -0.49844E-06    16   0.139E-02    0.175E-03
DAV:   4    -0.175482869447E+02    0.12124E-06   -0.90144E-07    16   0.581E-03    0.946E-04
DAV:   5    -0.175482870608E+02   -0.11611E-06   -0.43070E-08    16   0.161E-03    0.149E-04
DAV:   6    -0.175482870684E+02   -0.76046E-08   -0.45641E-09    16   0.506E-04
   6 F= -.17548287E+02 E0= -.17534182E+02  d E =0.295041E-03
quench:  g(F)=  0.000E+00 g(S)=  0.000E+00 dE (1.order)= 0.000E+00
 bond charge predicted
       N       E                     dE             d eps       ncg     rms          rms(c)
DAV:   1    -0.175482454112E+02    0.41650E-04   -0.73404E-04    16   0.234E-01    0.834E-03
DAV:   2    -0.175482451847E+02    0.22653E-06   -0.57297E-06    16   0.202E-02    0.530E-03
DAV:   3    -0.175482455227E+02   -0.33804E-06   -0.12408E-06    16   0.718E-03    0.711E-04
DAV:   4    -0.175482455277E+02   -0.49781E-08   -0.14344E-07    16   0.255E-03    0.388E-04
DAV:   5    -0.175482455261E+02    0.15668E-08   -0.26960E-08    16   0.103E-03
   7 F= -.17548246E+02 E0= -.17534141E+02  d E =0.415423E-04
quench:  g(F)=  0.000E+00 g(S)=  0.000E+00 dE (1.order)= 0.000E+00
 bond charge predicted
       N       E                     dE             d eps       ncg     rms          rms(c)
DAV:   1    -0.175481401255E+02    0.10540E-03   -0.77946E-04    16   0.244E-01    0.109E-02
DAV:   2    -0.175481395420E+02    0.58354E-06   -0.12618E-05    16   0.305E-02    0.732E-03
DAV:   3    -0.175481396771E+02   -0.13512E-06   -0.35809E-06    16   0.154E-02    0.126E-03
DAV:   4    -0.175481396419E+02    0.35164E-07   -0.64832E-07    16   0.583E-03    0.566E-04
DAV:   5    -0.175481396681E+02   -0.26128E-07   -0.69035E-08    16   0.197E-03    0.204E-04
DAV:   6    -0.175481396881E+02   -0.20085E-07   -0.45746E-09    16   0.444E-04    0.118E-04
DAV:   7    -0.175481397038E+02   -0.15687E-07   -0.23889E-09    16   0.381E-04    0.474E-05
DAV:   8    -0.175481397128E+02   -0.89795E-08   -0.67012E-10    24   0.152E-04
   8 F= -.17548140E+02 E0= -.17534035E+02  d E =0.105813E-03
quench:  g(F)=  0.000E+00 g(S)=  0.000E+00 dE (1.order)= 0.000E+00
 bond charge predicted
       N       E                     dE             d eps       ncg     rms          rms(c)
DAV:   1    -0.175483107246E+02   -0.17102E-03   -0.74520E-04    16   0.206E-01    0.915E-03
DAV:   2    -0.175483100329E+02    0.69176E-06   -0.66586E-06    16   0.216E-02    0.569E-03
DAV:   3    -0.175483098098E+02    0.22307E-06   -0.27105E-06    24   0.106E-02    0.135E-03
DAV:   4    -0.175483097634E+02    0.46370E-07   -0.36587E-07    32   0.385E-03    0.554E-04
DAV:   5    -0.175483097679E+02   -0.44224E-08   -0.15160E-08    16   0.747E-04
   9 F= -.17548310E+02 E0= -.17534205E+02  d E =-.170055E-03
quench:  g(F)=  0.000E+00 g(S)=  0.000E+00 dE (1.order)= 0.000E+00
 bond charge predicted
       N       E                     dE             d eps       ncg     rms          rms(c)
DAV:   1    -0.175483996913E+02   -0.89928E-04   -0.73920E-04    16   0.239E-01    0.866E-03
DAV:   2    -0.175483992221E+02    0.46915E-06   -0.60059E-06    16   0.214E-02    0.543E-03
DAV:   3    -0.175483993597E+02   -0.13762E-06   -0.15683E-06    16   0.809E-03    0.853E-04
DAV:   4    -0.175483993620E+02   -0.22681E-08   -0.19233E-07    16   0.300E-03    0.435E-04
DAV:   5    -0.175483993699E+02   -0.78518E-08   -0.27179E-08    16   0.103E-03
  10 F= -.17548399E+02 E0= -.17534295E+02  d E =-.896020E-04
quench:  g(F)=  0.000E+00 g(S)=  0.000E+00 dE (1.order)= 0.000E+00
 bond charge predicted
       N       E                     dE             d eps       ncg     rms          rms(c)
DAV:   1    -0.175484664068E+02   -0.67045E-04   -0.71258E-04    16   0.234E-01    0.763E-03
DAV:   2    -0.175484662353E+02    0.17149E-06   -0.72116E-06    16   0.234E-02    0.495E-03
DAV:   3    -0.175484664091E+02   -0.17379E-06   -0.15615E-06    16   0.941E-03    0.762E-04
DAV:   4    -0.175484664142E+02   -0.51392E-08   -0.17694E-07    16   0.303E-03    0.506E-04
DAV:   5    -0.175484664246E+02   -0.10344E-07   -0.32664E-08    16   0.119E-03    0.156E-04
DAV:   6    -0.175484664442E+02   -0.19586E-07   -0.33289E-09    16   0.442E-04    0.707E-05
DAV:   7    -0.175484664711E+02   -0.26956E-07   -0.16932E-09    16   0.256E-04    0.466E-05
DAV:   8    -0.175484664899E+02   -0.18737E-07   -0.52021E-10    24   0.125E-04    0.394E-05
DAV:   9    -0.175484665099E+02   -0.20091E-07   -0.90654E-10    16   0.114E-04    0.358E-05
DAV:  10    -0.175484665183E+02   -0.83451E-08   -0.23431E-10    24   0.587E-05
  11 F= -.17548467E+02 E0= -.17534362E+02  d E =-.671484E-04
quench:  g(F)=  0.000E+00 g(S)=  0.000E+00 dE (1.order)= 0.000E+00
 bond charge predicted
       N       E                     dE             d eps       ncg     rms          rms(c)
DAV:   1    -0.175485947441E+02   -0.12823E-03   -0.73733E-04    16   0.238E-01    0.865E-03
DAV:   2    -0.175485942287E+02    0.51546E-06   -0.63367E-06    24   0.203E-02    0.557E-03
DAV:   3    -0.175485940852E+02    0.14351E-06   -0.22568E-06    16   0.982E-03    0.113E-03
DAV:   4    -0.175485940672E+02    0.17951E-07   -0.27432E-07    32   0.355E-03    0.500E-04
DAV:   5    -0.175485940683E+02   -0.10587E-08   -0.23730E-08    32   0.915E-04
  12 F= -.17548594E+02 E0= -.17534489E+02  d E =-.127550E-03
quench:  g(F)=  0.000E+00 g(S)=  0.000E+00 dE (1.order)= 0.000E+00
 bond charge predicted
       N       E                     dE             d eps       ncg     rms          rms(c)
DAV:   1    -0.175485580020E+02    0.36065E-04   -0.73347E-04    16   0.204E-01    0.840E-03
DAV:   2    -0.175485578271E+02    0.17493E-06   -0.56256E-06    16   0.196E-02    0.527E-03
DAV:   3    -0.175485580915E+02   -0.26445E-06   -0.12365E-06    16   0.705E-03    0.695E-04
DAV:   4    -0.175485580884E+02    0.31572E-08   -0.14440E-07    32   0.251E-03    0.394E-04
DAV:   5    -0.175485580922E+02   -0.38328E-08   -0.18038E-08    16   0.808E-04
  13 F= -.17548558E+02 E0= -.17534453E+02  d E =0.359761E-04
quench:  g(F)=  0.000E+00 g(S)=  0.000E+00 dE (1.order)= 0.000E+00
--------------------------------------------------------
>>>  Job finished at Sun Mar 29 16:15:30 EDT 2020
