>>>  VASP 5.4.4 with BEEF-vdw and vtst
--------------------------------------------------------
>>>  Job information
     SLURM_JOBID=2852459
     SLURM_JOB_NODELIST=cpn-u23-26
     SLURM_NNODES=1
     SLURMTMPDIR=/scratch/2852459
     working directory = /projects/academic/ericwalk/kevingie/decane_nox_gas_phase/C2H4
--------------------------------------------------------
>>>  Module information
The Intel compilers are in your path. This is adequate for compiling and
running most codes. Source
/util/academic/intel/17.0/compilers_and_libraries_2017/linux/bin/compilervars.sh
for more features. 
 The MKL Libraries are in your library path. This is adequate for compiling and
running most codes. Source $MKL/bin/mklvars.sh" for more features. 
 Intel-MPI is in your path. This is adequate for compiling and running most
codes. Source the
/util/academic/intel/17.0/compilers_and_libraries_2017/linux/mpi/intel64/bin/mpivars.sh
file for more features. 

Currently Loaded Modules:
  1) intel/17.0   2) mkl/2017.0.1   3) intel-mpi/2017.0.1

 

--------------------------------------------------------
>>>  Running Configuration
NPROCS=16
--------------------------------------------------------
>>>  Job started at Fri May  1 18:50:12 EDT 2020
--------------------------------------------------------
 running on   16 total cores
 distrk:  each k-point on   16 cores,    1 groups
 distr:  one band on    4 cores,    4 groups
 using from now: INCAR     
 vasp.5.4.4.18Apr17-6-g9f103f2a35 (build Dec 31 2018 11:41:54) complex          
  
 POSCAR found type information on POSCAR  C  H 
 POSCAR found :  2 types and       6 ions
 scaLAPACK will be used

     **************************************************************************
     Initializing libbeef V0.1.3 with the BEEF-vdW functional.
     Citation: Wellendorff et al., PRB 85, 235149 (2012).
     **************************************************************************


 ----------------------------------------------------------------------------- 
|                                                                             |
|  ADVICE TO THIS USER RUNNING 'VASP/VAMP'   (HEAR YOUR MASTER'S VOICE ...):  |
|                                                                             |
|      You have switched on vdW-DFT.                                          |
|      This routine was written and supplied by Jiri Klimes.                  |
|      We recommed that you carefully read and cite the following             |
|      publication                                                            |
|      J. Klimes, D.R. Bowler, A. Michelides                                  |
|        J. Phys.: Cond Matt. 22 022201 (2010)                                |
|      J. Klimes, D.R. Bowler, A. Michelides                                  |
|        Phys. Rev. B. 83, 195131 (2011)                                      |
|      and references therein.                                                |
|                                                                             |
 ----------------------------------------------------------------------------- 


 ----------------------------------------------------------------------------- 
|                                                                             |
|  ADVICE TO THIS USER RUNNING 'VASP/VAMP'   (HEAR YOUR MASTER'S VOICE ...):  |
|                                                                             |
|      You have a (more or less) 'small supercell' and for smaller cells      |
|      it is recommended  to use the reciprocal-space projection scheme!      |
|      The real space optimization is not  efficient for small cells and it   |
|      is also less accurate ...                                              |
|      Therefore set LREAL=.FALSE. in the  INCAR file                         |
|                                                                             |
 ----------------------------------------------------------------------------- 


 ----------------------------------------------------------------------------- 
|                                                                             |
|  ADVICE TO THIS USER RUNNING 'VASP/VAMP'   (HEAR YOUR MASTER'S VOICE ...):  |
|                                                                             |
|      You enforced a specific xc-type in the INCAR file,                     |
|      a different type was found on the POTCAR file                          |
|          I HOPE YOU KNOW, WHAT YOU ARE  DOING                               |
|                                                                             |
 ----------------------------------------------------------------------------- 

 LDA part: xc-table for Pade appr. of Perdew
 POSCAR found type information on POSCAR  C  H 
 POSCAR found :  2 types and       6 ions
 POSCAR, INCAR and KPOINTS ok, starting setup
 FFT: planning ...
 WAVECAR not read
 entering main loop
       N       E                     dE             d eps       ncg     rms          rms(c)
Total vdW correction in eV:      2.3885243
DAV:   1     0.320003717128E+02    0.32000E+02   -0.28510E+03    88   0.309E+02
DAV:   2    -0.187454850596E+02   -0.50746E+02   -0.45637E+02   104   0.781E+01
DAV:   3    -0.270589147580E+02   -0.83134E+01   -0.82573E+01    96   0.333E+01
DAV:   4    -0.274322543874E+02   -0.37334E+00   -0.37325E+00    72   0.861E+00
DAV:   5    -0.274422101316E+02   -0.99557E-02   -0.99375E-02   104   0.130E+00    0.150E+01
Total vdW correction in eV:      2.4114263
DAV:   6    -0.844668005616E+00    0.26598E+02   -0.73328E+01    80   0.394E+01    0.652E+00
Total vdW correction in eV:      2.4549718
DAV:   7    -0.234210962849E+02   -0.22576E+02   -0.21451E+01    88   0.184E+01    0.352E+00
Total vdW correction in eV:      2.4939893
DAV:   8    -0.262097731205E+02   -0.27887E+01   -0.16063E+00    96   0.584E+00    0.216E+00
Total vdW correction in eV:      2.5349486
DAV:   9    -0.305207287151E+02   -0.43110E+01   -0.30907E+00    72   0.608E+00    0.109E+00
Total vdW correction in eV:      2.5383734
DAV:  10    -0.311133103478E+02   -0.59258E+00   -0.19018E-01    96   0.256E+00    0.661E-01
Total vdW correction in eV:      2.5362632
DAV:  11    -0.317325254744E+02   -0.61922E+00   -0.23648E-01    64   0.213E+00    0.383E-01
Total vdW correction in eV:      2.5308833
DAV:  12    -0.318758703141E+02   -0.14334E+00   -0.50367E-02    96   0.136E+00    0.157E-01
Total vdW correction in eV:      2.5261813
DAV:  13    -0.320188340370E+02   -0.14296E+00   -0.13319E-02    88   0.589E-01    0.703E-02
Total vdW correction in eV:      2.5244773
DAV:  14    -0.320427354716E+02   -0.23901E-01   -0.30535E-03    72   0.343E-01    0.386E-02
Total vdW correction in eV:      2.5224864
DAV:  15    -0.320479967346E+02   -0.52613E-02   -0.18525E-03    80   0.222E-01    0.179E-02
Total vdW correction in eV:      2.5215728
DAV:  16    -0.320488060243E+02   -0.80929E-03   -0.26363E-04    96   0.961E-02    0.108E-02
Total vdW correction in eV:      2.5208650
DAV:  17    -0.320492836479E+02   -0.47762E-03   -0.12460E-04    80   0.482E-02    0.710E-03
Total vdW correction in eV:      2.5204178
DAV:  18    -0.320496424871E+02   -0.35884E-03   -0.10383E-04    64   0.385E-02    0.419E-03
Total vdW correction in eV:      2.5204445
DAV:  19    -0.320497173311E+02   -0.74844E-04   -0.11448E-05    96   0.200E-02    0.238E-03
Total vdW correction in eV:      2.5204746
DAV:  20    -0.320498209108E+02   -0.10358E-03   -0.74527E-06    64   0.147E-02    0.170E-03
Total vdW correction in eV:      2.5204952
DAV:  21    -0.320498961015E+02   -0.75191E-04   -0.55162E-06    96   0.119E-02    0.131E-03
Total vdW correction in eV:      2.5205523
DAV:  22    -0.320499241278E+02   -0.28026E-04   -0.29189E-06    80   0.875E-03    0.100E-03
Total vdW correction in eV:      2.5205777
DAV:  23    -0.320499269904E+02   -0.28625E-05   -0.12891E-06    96   0.594E-03
Total vdW correction in eV:      2.5205668
   1 F= -.32049927E+02 E0= -.32049927E+02  d E =-.320499E+02  mag=    -0.0002
 BRION: g(F)=  0.465E+01 g(S)=  0.000E+00
 bond charge predicted
       N       E                     dE             d eps       ncg     rms          rms(c)
Total vdW correction in eV:      2.4902219
DAV:   1    -0.293673470812E+02    0.26826E+01   -0.44043E+02    96   0.112E+02    0.606E+00
Total vdW correction in eV:      2.4910544
DAV:   2    -0.298311668705E+02   -0.46382E+00   -0.14918E+01    64   0.207E+01    0.406E+00
Total vdW correction in eV:      2.4983705
DAV:   3    -0.295293296316E+02    0.30184E+00   -0.36552E+00    96   0.868E+00    0.130E+00
Total vdW correction in eV:      2.5015560
DAV:   4    -0.294776638793E+02    0.51666E-01   -0.21517E-01    96   0.225E+00    0.579E-01
Total vdW correction in eV:      2.5065690
DAV:   5    -0.294758337452E+02    0.18301E-02   -0.68765E-02    80   0.116E+00    0.213E-01
Total vdW correction in eV:      2.5076414
DAV:   6    -0.294752460647E+02    0.58768E-03   -0.51774E-03    96   0.332E-01    0.633E-02
Total vdW correction in eV:      2.5088778
DAV:   7    -0.294753109282E+02   -0.64863E-04   -0.59546E-04    80   0.149E-01    0.202E-02
Total vdW correction in eV:      2.5090466
DAV:   8    -0.294753101847E+02    0.74347E-06   -0.81185E-05    96   0.396E-02
Total vdW correction in eV:      2.5091357
   2 F= -.29475310E+02 E0= -.29475310E+02  d E =0.257462E+01  mag=    -0.0000
 BRION: g(F)=  0.156E+03 g(S)=  0.000E+00 retain N=  1 mean eig= 0.05
 eig:   0.054
 bond charge predicted
       N       E                     dE             d eps       ncg     rms          rms(c)
Total vdW correction in eV:      2.5507297
DAV:   1    -0.341751679640E+02   -0.46999E+01   -0.26932E+02    64   0.940E+01    0.527E+00
Total vdW correction in eV:      2.5475766
DAV:   2    -0.336660050625E+02    0.50916E+00   -0.38784E+00    80   0.112E+01    0.299E+00
Total vdW correction in eV:      2.5483800
DAV:   3    -0.334752446385E+02    0.19076E+00   -0.58344E-01    96   0.387E+00    0.825E-01
Total vdW correction in eV:      2.5475606
DAV:   4    -0.334747603352E+02    0.48430E-03   -0.59206E-02    88   0.118E+00    0.262E-01
Total vdW correction in eV:      2.5464439
DAV:   5    -0.334762863275E+02   -0.15260E-02   -0.56738E-03    80   0.386E-01    0.788E-02
Total vdW correction in eV:      2.5462508
DAV:   6    -0.334768219251E+02   -0.53560E-03   -0.12122E-03    96   0.238E-01    0.314E-02
Total vdW correction in eV:      2.5461567
DAV:   7    -0.334770425224E+02   -0.22060E-03   -0.67434E-04    72   0.190E-01    0.145E-02
Total vdW correction in eV:      2.5461130
DAV:   8    -0.334772259638E+02   -0.18344E-03   -0.16307E-04    88   0.851E-02    0.834E-03
Total vdW correction in eV:      2.5461625
DAV:   9    -0.334774616942E+02   -0.23573E-03   -0.86236E-05    72   0.382E-02    0.491E-03
Total vdW correction in eV:      2.5461652
DAV:  10    -0.334775135122E+02   -0.51818E-04   -0.22674E-05    96   0.248E-02    0.340E-03
Total vdW correction in eV:      2.5461570
DAV:  11    -0.334775332207E+02   -0.19709E-04   -0.15545E-05    64   0.172E-02    0.217E-03
Total vdW correction in eV:      2.5461556
DAV:  12    -0.334775373273E+02   -0.41066E-05   -0.53102E-06    80   0.110E-02
Total vdW correction in eV:      2.5461597
   3 F= -.33477537E+02 E0= -.33477537E+02  d E =-.400223E+01  mag=     0.0000
 BRION: g(F)=  0.462E+01 g(S)=  0.000E+00 retain N=  1 mean eig= 0.09
 eig:   0.089
 bond charge predicted
       N       E                     dE             d eps       ncg     rms          rms(c)
Total vdW correction in eV:      2.5274505
DAV:   1    -0.337846238500E+02   -0.30709E+00   -0.10830E+01    80   0.194E+01    0.142E+00
Total vdW correction in eV:      2.5252652
DAV:   2    -0.337642023993E+02    0.20421E-01   -0.21193E-01    64   0.217E+00    0.815E-01
Total vdW correction in eV:      2.5244280
DAV:   3    -0.337558297233E+02    0.83727E-02   -0.54494E-02    96   0.106E+00    0.172E-01
Total vdW correction in eV:      2.5247580
DAV:   4    -0.337555759354E+02    0.25379E-03   -0.47653E-03    80   0.306E-01    0.885E-02
Total vdW correction in eV:      2.5248591
DAV:   5    -0.337557747050E+02   -0.19877E-03   -0.57897E-04    64   0.136E-01    0.238E-02
Total vdW correction in eV:      2.5249510
DAV:   6    -0.337558453391E+02   -0.70634E-04   -0.65016E-05    96   0.462E-02    0.116E-02
Total vdW correction in eV:      2.5250144
DAV:   7    -0.337559003184E+02   -0.54979E-04   -0.20121E-05    64   0.249E-02    0.370E-03
Total vdW correction in eV:      2.5250412
DAV:   8    -0.337559333865E+02   -0.33068E-04   -0.61504E-06    80   0.164E-02    0.190E-03
Total vdW correction in eV:      2.5250484
DAV:   9    -0.337559478547E+02   -0.14468E-04   -0.25004E-06    96   0.119E-02    0.129E-03
Total vdW correction in eV:      2.5250628
DAV:  10    -0.337559759522E+02   -0.28097E-04   -0.19827E-06    64   0.825E-03    0.924E-04
Total vdW correction in eV:      2.5250742
DAV:  11    -0.337559918469E+02   -0.15895E-04   -0.83902E-07    96   0.389E-03    0.471E-04
Total vdW correction in eV:      2.5250830
DAV:  12    -0.337560003247E+02   -0.84777E-05   -0.52538E-07    64   0.304E-03
Total vdW correction in eV:      2.5250858
   4 F= -.33756000E+02 E0= -.33756000E+02  d E =-.278463E+00  mag=    -0.0000
 BRION: g(F)=  0.909E+00 g(S)=  0.000E+00 retain N=  2 mean eig= 0.77
 eig:   0.084  1.453
 bond charge predicted
       N       E                     dE             d eps       ncg     rms          rms(c)
Total vdW correction in eV:      2.5288952
DAV:   1    -0.338758734547E+02   -0.11988E+00   -0.18537E+00    64   0.819E+00    0.567E-01
Total vdW correction in eV:      2.5295031
DAV:   2    -0.338692759249E+02    0.65975E-02   -0.28008E-02    96   0.981E-01    0.313E-01
Total vdW correction in eV:      2.5300006
DAV:   3    -0.338682152643E+02    0.10607E-02   -0.17864E-02    64   0.558E-01    0.101E-01
Total vdW correction in eV:      2.5299750
DAV:   4    -0.338677636343E+02    0.45163E-03   -0.18679E-03    64   0.187E-01    0.498E-02
Total vdW correction in eV:      2.5301067
DAV:   5    -0.338677563312E+02    0.73031E-05   -0.16343E-04    80   0.747E-02    0.186E-02
Total vdW correction in eV:      2.5300942
DAV:   6    -0.338676757515E+02    0.80580E-04   -0.82743E-05    80   0.413E-02    0.494E-03
Total vdW correction in eV:      2.5300832
DAV:   7    -0.338676650434E+02    0.10708E-04   -0.50272E-06    96   0.137E-02    0.350E-03
Total vdW correction in eV:      2.5300663
DAV:   8    -0.338676374589E+02    0.27584E-04   -0.14095E-06    80   0.625E-03    0.142E-03
Total vdW correction in eV:      2.5300610
DAV:   9    -0.338676196071E+02    0.17852E-04   -0.11515E-06    80   0.588E-03    0.840E-04
Total vdW correction in eV:      2.5300597
DAV:  10    -0.338676117704E+02    0.78368E-05   -0.61782E-07    64   0.578E-03
Total vdW correction in eV:      2.5300567
   5 F= -.33867612E+02 E0= -.33867612E+02  d E =-.111611E+00  mag=     0.0000
 BRION: g(F)=  0.680E+00 g(S)=  0.000E+00 retain N=  2 mean eig= 0.40
 eig:   0.166  0.635
 bond charge predicted
       N       E                     dE             d eps       ncg     rms          rms(c)
Total vdW correction in eV:      2.5275390
DAV:   1    -0.339450944835E+02   -0.77475E-01   -0.13537E+01    64   0.209E+01    0.110E+00
Total vdW correction in eV:      2.5276544
DAV:   2    -0.339173602811E+02    0.27734E-01   -0.18509E-01    80   0.264E+00    0.654E-01
Total vdW correction in eV:      2.5284219
DAV:   3    -0.339121438972E+02    0.52164E-02   -0.11150E-01    96   0.155E+00    0.255E-01
Total vdW correction in eV:      2.5285354
DAV:   4    -0.339094543336E+02    0.26896E-02   -0.18901E-02    80   0.627E-01    0.120E-01
Total vdW correction in eV:      2.5290150
DAV:   5    -0.339095792155E+02   -0.12488E-03   -0.18769E-03    96   0.255E-01    0.339E-02
Total vdW correction in eV:      2.5290813
DAV:   6    -0.339094410188E+02    0.13820E-03   -0.33338E-04    64   0.994E-02    0.960E-03
Total vdW correction in eV:      2.5290916
DAV:   7    -0.339094376457E+02    0.33731E-05   -0.29770E-05    96   0.306E-02
Total vdW correction in eV:      2.5291000
   6 F= -.33909438E+02 E0= -.33909438E+02  d E =-.418259E-01  mag=     0.0000
 BRION: g(F)=  0.369E+00 g(S)=  0.000E+00 retain N=  3 mean eig= 1.83
 eig:   0.173  0.689  4.629
 bond charge predicted
       N       E                     dE             d eps       ncg     rms          rms(c)
Total vdW correction in eV:      2.5295243
DAV:   1    -0.339608893460E+02   -0.51448E-01   -0.21883E+00    64   0.880E+00    0.490E-01
Total vdW correction in eV:      2.5292377
DAV:   2    -0.339559611813E+02    0.49282E-02   -0.58190E-02    96   0.134E+00    0.278E-01
Total vdW correction in eV:      2.5291248
DAV:   3    -0.339554454887E+02    0.51569E-03   -0.12521E-02    96   0.540E-01    0.129E-01
Total vdW correction in eV:      2.5290967
DAV:   4    -0.339555514838E+02   -0.10600E-03   -0.45918E-03    96   0.285E-01    0.884E-02
Total vdW correction in eV:      2.5290146
DAV:   5    -0.339554385064E+02    0.11298E-03   -0.81064E-04    80   0.152E-01    0.119E-02
Total vdW correction in eV:      2.5290106
DAV:   6    -0.339554601161E+02   -0.21610E-04   -0.12420E-04    96   0.560E-02    0.743E-03
Total vdW correction in eV:      2.5289967
DAV:   7    -0.339554814749E+02   -0.21359E-04   -0.60857E-06    88   0.158E-02    0.409E-03
Total vdW correction in eV:      2.5289930
DAV:   8    -0.339554956028E+02   -0.14128E-04   -0.44996E-06    88   0.133E-02    0.136E-03
Total vdW correction in eV:      2.5289931
DAV:   9    -0.339555027517E+02   -0.71489E-05   -0.20762E-06    80   0.109E-02
Total vdW correction in eV:      2.5289934
   7 F= -.33955503E+02 E0= -.33955503E+02  d E =-.460651E-01  mag=     0.0000
 BRION: g(F)=  0.148E-01 g(S)=  0.000E+00 retain N=  3 mean eig= 2.38
 eig:   6.180  0.716  0.244
 bond charge predicted
       N       E                     dE             d eps       ncg     rms          rms(c)
Total vdW correction in eV:      2.5283657
DAV:   1    -0.339549868679E+02    0.50873E-03   -0.37857E-01    64   0.369E+00    0.170E-01
Total vdW correction in eV:      2.5282307
DAV:   2    -0.339549715078E+02    0.15360E-04   -0.77485E-03    96   0.495E-01    0.121E-01
Total vdW correction in eV:      2.5281474
DAV:   3    -0.339547415966E+02    0.22991E-03   -0.14104E-03   112   0.210E-01    0.292E-02
Total vdW correction in eV:      2.5281484
DAV:   4    -0.339547775182E+02   -0.35922E-04   -0.22240E-04    80   0.749E-02    0.173E-02
Total vdW correction in eV:      2.5281281
DAV:   5    -0.339547973155E+02   -0.19797E-04   -0.17206E-05    80   0.291E-02    0.397E-03
Total vdW correction in eV:      2.5281309
DAV:   6    -0.339548057875E+02   -0.84719E-05   -0.33772E-06    96   0.112E-02
Total vdW correction in eV:      2.5281324
   8 F= -.33954806E+02 E0= -.33954806E+02  d E =0.696964E-03  mag=    -0.0000
 BRION: g(F)=  0.239E-01 g(S)=  0.000E+00 retain N=  3 mean eig= 2.52
 eig:   6.962  0.305  0.305
 bond charge predicted
       N       E                     dE             d eps       ncg     rms          rms(c)
Total vdW correction in eV:      2.5281582
DAV:   1    -0.339580044328E+02   -0.32071E-02   -0.17168E-01    64   0.249E+00    0.107E-01
Total vdW correction in eV:      2.5281607
DAV:   2    -0.339580712078E+02   -0.66775E-04   -0.37103E-03    64   0.340E-01    0.774E-02
Total vdW correction in eV:      2.5281672
DAV:   3    -0.339580208888E+02    0.50319E-04   -0.40013E-04    96   0.116E-01    0.300E-02
Total vdW correction in eV:      2.5281694
DAV:   4    -0.339580224552E+02   -0.15664E-05   -0.13023E-04    96   0.525E-02    0.148E-02
Total vdW correction in eV:      2.5281743
DAV:   5    -0.339580235058E+02   -0.10506E-05   -0.20995E-05    96   0.279E-02
Total vdW correction in eV:      2.5281754
   9 F= -.33958024E+02 E0= -.33958024E+02  d E =-.321772E-02  mag=     0.0000
 BRION: g(F)=  0.948E-03 g(S)=  0.000E+00 retain N=  1 mean eig= 0.26
 eig:   0.261
 bond charge predicted
       N       E                     dE             d eps       ncg     rms          rms(c)
Total vdW correction in eV:      2.5284851
DAV:   1    -0.339581160102E+02   -0.93555E-04   -0.26668E-02    80   0.996E-01    0.485E-02
Total vdW correction in eV:      2.5285273
DAV:   2    -0.339581442375E+02   -0.28227E-04   -0.43465E-04    64   0.120E-01    0.336E-02
Total vdW correction in eV:      2.5285594
DAV:   3    -0.339581500517E+02   -0.58142E-05   -0.70723E-05    64   0.497E-02
Total vdW correction in eV:      2.5285532
  10 F= -.33958150E+02 E0= -.33958150E+02  d E =-.126546E-03  mag=     0.0000
 BRION: g(F)=  0.317E-02 g(S)=  0.000E+00 retain N=  2 mean eig= 0.22
 eig:   0.217  0.217
 bond charge predicted
       N       E                     dE             d eps       ncg     rms          rms(c)
Total vdW correction in eV:      2.5281707
DAV:   1    -0.339584262728E+02   -0.28204E-03   -0.23832E-02    64   0.912E-01    0.374E-02
Total vdW correction in eV:      2.5281479
DAV:   2    -0.339584371872E+02   -0.10914E-04   -0.43390E-04    64   0.119E-01    0.283E-02
Total vdW correction in eV:      2.5281534
DAV:   3    -0.339584241804E+02    0.13007E-04   -0.87951E-05    80   0.595E-02    0.497E-03
Total vdW correction in eV:      2.5281640
DAV:   4    -0.339584193368E+02    0.48436E-05   -0.22021E-05    80   0.334E-02
Total vdW correction in eV:      2.5281713
  11 F= -.33958419E+02 E0= -.33958419E+02  d E =-.269285E-03  mag=     0.0000
 BRION: g(F)=  0.823E-03 g(S)=  0.000E+00 retain N=  2 mean eig= 2.73
 eig:   0.180  5.272
 bond charge predicted
       N       E                     dE             d eps       ncg     rms          rms(c)
Total vdW correction in eV:      2.5283573
DAV:   1    -0.339584620857E+02   -0.37905E-04   -0.97039E-03    64   0.593E-01    0.228E-02
Total vdW correction in eV:      2.5283635
DAV:   2    -0.339584534549E+02    0.86309E-05   -0.13670E-04    80   0.709E-02    0.163E-02
Total vdW correction in eV:      2.5283634
DAV:   3    -0.339584563002E+02   -0.28453E-05   -0.50735E-05    64   0.466E-02
Total vdW correction in eV:      2.5283581
  12 F= -.33958456E+02 E0= -.33958456E+02  d E =-.369633E-04  mag=     0.0000
 BRION: g(F)=  0.113E-02 g(S)=  0.000E+00 retain N=  2 mean eig= 0.07
 eig:   0.036  0.101
 bond charge predicted
       N       E                     dE             d eps       ncg     rms          rms(c)
Total vdW correction in eV:      2.5281781
DAV:   1    -0.339585743907E+02   -0.12094E-03   -0.67365E-03    64   0.481E-01    0.203E-02
Total vdW correction in eV:      2.5281708
DAV:   2    -0.339585804647E+02   -0.60740E-05   -0.15714E-04    64   0.775E-02    0.156E-02
Total vdW correction in eV:      2.5281698
DAV:   3    -0.339585864731E+02   -0.60084E-05   -0.40857E-05    64   0.468E-02
Total vdW correction in eV:      2.5281743
  13 F= -.33958586E+02 E0= -.33958586E+02  d E =-.130173E-03  mag=    -0.0000
 BRION: g(F)=  0.124E-03 g(S)=  0.000E+00 retain N=  2 mean eig= 2.68
 eig:   0.163  5.188
 bond charge predicted
       N       E                     dE             d eps       ncg     rms          rms(c)
Total vdW correction in eV:      2.5281574
DAV:   1    -0.339585793207E+02    0.11440E-05   -0.39632E-03    64   0.383E-01    0.149E-02
Total vdW correction in eV:      2.5281622
DAV:   2    -0.339585816885E+02   -0.23678E-05   -0.10326E-04    96   0.713E-02    0.122E-02
Total vdW correction in eV:      2.5281665
DAV:   3    -0.339585894538E+02   -0.77652E-05   -0.33099E-05    96   0.438E-02
Total vdW correction in eV:      2.5281699
  14 F= -.33958589E+02 E0= -.33958589E+02  d E =-.298064E-05  mag=    -0.0000
 BRION: g(F)=  0.374E-03 g(S)=  0.000E+00 retain N=  3 mean eig= 2.71
 eig:   7.714  0.149  0.274
 bond charge predicted
       N       E                     dE             d eps       ncg     rms          rms(c)
Total vdW correction in eV:      2.5281344
DAV:   1    -0.339586213065E+02   -0.39618E-04   -0.25778E-03    80   0.312E-01    0.109E-02
Total vdW correction in eV:      2.5281334
DAV:   2    -0.339586245107E+02   -0.32042E-05   -0.76549E-05    64   0.572E-02
Total vdW correction in eV:      2.5281340
  15 F= -.33958625E+02 E0= -.33958625E+02  d E =-.350569E-04  mag=     0.0000
 BRION: g(F)=  0.621E-04 g(S)=  0.000E+00 retain N=  2 mean eig= 2.85
 eig:   0.208  5.484
 bond charge predicted
       N       E                     dE             d eps       ncg     rms          rms(c)
Total vdW correction in eV:      2.5282155
DAV:   1    -0.339586209074E+02    0.39908E-06   -0.13068E-03    64   0.218E-01    0.966E-03
Total vdW correction in eV:      2.5282200
DAV:   2    -0.339586197742E+02    0.11332E-05   -0.24013E-05    88   0.301E-02
Total vdW correction in eV:      2.5282218
  16 F= -.33958620E+02 E0= -.33958620E+02  d E =0.473652E-05  mag=     0.0000
 BRION: g(F)=  0.189E-03 g(S)=  0.000E+00 retain N=  2 mean eig= 0.21
 eig:   0.206  0.206
 bond charge predicted
       N       E                     dE             d eps       ncg     rms          rms(c)
Total vdW correction in eV:      2.5280969
DAV:   1    -0.339586350624E+02   -0.14155E-04   -0.19806E-03    64   0.252E-01    0.121E-02
Total vdW correction in eV:      2.5280909
DAV:   2    -0.339586355353E+02   -0.47288E-06   -0.33685E-05    64   0.378E-02
Total vdW correction in eV:      2.5280908
  17 F= -.33958636E+02 E0= -.33958636E+02  d E =-.157611E-04  mag=     0.0000
 BRION: g(F)=  0.888E-04 g(S)=  0.000E+00 retain N=  3 mean eig= 0.70
 eig:   1.712  0.228  0.162
 bond charge predicted
       N       E                     dE             d eps       ncg     rms          rms(c)
Total vdW correction in eV:      2.5281175
DAV:   1    -0.339586535697E+02   -0.18507E-04   -0.69411E-04    64   0.159E-01    0.606E-03
Total vdW correction in eV:      2.5281227
DAV:   2    -0.339586494413E+02    0.41283E-05   -0.40575E-05    64   0.441E-02
Total vdW correction in eV:      2.5281243
  18 F= -.33958649E+02 E0= -.33958649E+02  d E =-.139060E-04  mag=    -0.0000
 BRION: g(F)=  0.774E-05 g(S)=  0.000E+00 retain N=  2 mean eig= 0.66
 eig:   0.208  1.118
 reached required accuracy - stopping structural energy minimisation
--------------------------------------------------------
>>>  Job finished at Fri May  1 19:06:05 EDT 2020
