>>>  VASP 5.4.4 with BEEF-vdw and vtst
--------------------------------------------------------
>>>  Job information
     SLURM_JOBID=3069309
     SLURM_JOB_NODELIST=cpn-u25-35
     SLURM_NNODES=1
     SLURMTMPDIR=/scratch/3069309
     working directory = /projects/academic/ericwalk/kevingie/decane_nox_gas_phase/C4H10/vtst
--------------------------------------------------------
>>>  Module information
The Intel compilers are in your path. This is adequate for compiling and
running most codes. Source
/util/academic/intel/17.0/compilers_and_libraries_2017/linux/bin/compilervars.sh
for more features. 
 The MKL Libraries are in your library path. This is adequate for compiling and
running most codes. Source $MKL/bin/mklvars.sh" for more features. 
 Intel-MPI is in your path. This is adequate for compiling and running most
codes. Source the
/util/academic/intel/17.0/compilers_and_libraries_2017/linux/mpi/intel64/bin/mpivars.sh
file for more features. 

Currently Loaded Modules:
  1) python/py36-anaconda-5.3.1   3) mkl/2017.0.1
  2) intel/17.0                   4) intel-mpi/2017.0.1

 

--------------------------------------------------------
>>>  Running Configuration
NPROCS=16
--------------------------------------------------------
>>>  Job started at Wed May 13 10:22:42 EDT 2020
--------------------------------------------------------
 running on   16 total cores
 distrk:  each k-point on   16 cores,    1 groups
 distr:  one band on    4 cores,    4 groups
 using from now: INCAR     
 vasp.5.4.4.18Apr17-6-g9f103f2a35 (build Dec 31 2018 11:41:54) complex          
  
 POSCAR found type information on POSCAR  C  H 
 POSCAR found :  2 types and      14 ions
 scaLAPACK will be used
 LDA part: xc-table for Pade appr. of Perdew
 POSCAR found type information on POSCAR  C  H 
 POSCAR found :  2 types and      14 ions
 POSCAR, INCAR and KPOINTS ok, starting setup
 FFT: planning ...
 WAVECAR not read
 entering main loop
       N       E                     dE             d eps       ncg     rms          rms(c)
DAV:   1     0.118647602598E+03    0.11865E+03   -0.70759E+03   144   0.457E+02
DAV:   2    -0.276947103263E+02   -0.14634E+03   -0.13792E+03   168   0.109E+02
DAV:   3    -0.609793237724E+02   -0.33285E+02   -0.33138E+02   160   0.541E+01
DAV:   4    -0.627101680724E+02   -0.17308E+01   -0.17278E+01   168   0.162E+01
DAV:   5    -0.627388851519E+02   -0.28717E-01   -0.28708E-01   184   0.197E+00    0.244E+01
DAV:   6    -0.280839293542E+02    0.34655E+02   -0.95679E+01   152   0.369E+01    0.109E+01
DAV:   7    -0.554927467435E+02   -0.27409E+02   -0.26523E+01   160   0.183E+01    0.635E+00
DAV:   8    -0.590683162515E+02   -0.35756E+01   -0.19213E+00   160   0.576E+00    0.407E+00
DAV:   9    -0.683569654217E+02   -0.92886E+01   -0.46092E+00   132   0.727E+00    0.190E+00
DAV:  10    -0.703402336870E+02   -0.19833E+01   -0.57655E-01   140   0.271E+00    0.134E+00
DAV:  11    -0.722426870626E+02   -0.19025E+01   -0.88999E-01   112   0.304E+00    0.667E-01
DAV:  12    -0.730481244650E+02   -0.80544E+00   -0.25602E-01   128   0.171E+00    0.240E-01
DAV:  13    -0.734126304270E+02   -0.36451E+00   -0.50625E-02   132   0.655E-01    0.137E-01
DAV:  14    -0.734970077830E+02   -0.84377E-01   -0.12780E-02   132   0.363E-01    0.778E-02
DAV:  15    -0.735162145083E+02   -0.19207E-01   -0.33939E-03   148   0.199E-01    0.396E-02
DAV:  16    -0.735231269483E+02   -0.69124E-02   -0.69325E-04   120   0.100E-01    0.185E-02
DAV:  17    -0.735282037513E+02   -0.50768E-02   -0.35012E-04   124   0.588E-02    0.113E-02
DAV:  18    -0.735294714561E+02   -0.12677E-02   -0.16605E-04   128   0.393E-02    0.707E-03
DAV:  19    -0.735301231198E+02   -0.65166E-03   -0.70928E-05   124   0.259E-02    0.478E-03
DAV:  20    -0.735306465429E+02   -0.52342E-03   -0.72723E-05   116   0.229E-02    0.347E-03
DAV:  21    -0.735307835766E+02   -0.13703E-03   -0.13058E-05   124   0.117E-02    0.248E-03
DAV:  22    -0.735308689800E+02   -0.85403E-04   -0.63738E-06   116   0.942E-03    0.177E-03
DAV:  23    -0.735309054221E+02   -0.36442E-04   -0.39495E-06   128   0.703E-03    0.125E-03
DAV:  24    -0.735309171247E+02   -0.11703E-04   -0.50981E-07   136   0.360E-03    0.726E-04
DAV:  25    -0.735309361355E+02   -0.19011E-04   -0.11025E-06   124   0.346E-03    0.581E-04
DAV:  26    -0.735309385644E+02   -0.24289E-05   -0.11858E-07   140   0.157E-03    0.342E-04
DAV:  27    -0.735309409922E+02   -0.24278E-05   -0.95656E-08   128   0.122E-03    0.187E-04
DAV:  28    -0.735309426806E+02   -0.16884E-05   -0.44838E-08   128   0.829E-04    0.164E-04
DAV:  29    -0.735309433227E+02   -0.64205E-06   -0.10534E-08   128   0.384E-04    0.113E-04
DAV:  30    -0.735309437766E+02   -0.45393E-06   -0.69543E-09   136   0.312E-04    0.800E-05
DAV:  31    -0.735309442210E+02   -0.44441E-06   -0.33577E-09   116   0.217E-04    0.788E-05
DAV:  32    -0.735309444153E+02   -0.19429E-06   -0.11981E-09   124   0.130E-04    0.758E-05
DAV:  33    -0.735309444717E+02   -0.56445E-07   -0.40163E-10   120   0.806E-05    0.737E-05
DAV:  34    -0.735309444884E+02   -0.16683E-07   -0.13318E-10   120   0.529E-05    0.733E-05
DAV:  35    -0.735309444916E+02   -0.31534E-08    0.20961E-11   124   0.282E-05
   1 F= -.73530944E+02 E0= -.73530944E+02  d E =-.735309E+02  mag=     0.0000
quench:  g(F)=  0.000E+00 g(S)=  0.000E+00 dE (1.order)= 0.000E+00
 bond charge predicted
       N       E                     dE             d eps       ncg     rms          rms(c)
DAV:   1    -0.735308627456E+02    0.81743E-04   -0.24652E-03   112   0.240E-01    0.891E-03
DAV:   2    -0.735308633557E+02   -0.61012E-06   -0.23445E-05   112   0.246E-02    0.679E-03
DAV:   3    -0.735308629509E+02    0.40486E-06   -0.65084E-06   112   0.129E-02    0.175E-03
DAV:   4    -0.735308628754E+02    0.75445E-07   -0.11491E-06   120   0.540E-03    0.549E-04
DAV:   5    -0.735308629062E+02   -0.30818E-07   -0.11238E-07   120   0.155E-03    0.251E-04
DAV:   6    -0.735308629167E+02   -0.10472E-07   -0.39210E-09   144   0.341E-04    0.122E-04
DAV:   7    -0.735308629247E+02   -0.79961E-08   -0.10802E-09   100   0.181E-04
   2 F= -.73530863E+02 E0= -.73530863E+02  d E =0.815669E-04  mag=     0.0000
quench:  g(F)=  0.000E+00 g(S)=  0.000E+00 dE (1.order)= 0.000E+00
 bond charge predicted
       N       E                     dE             d eps       ncg     rms          rms(c)
DAV:   1    -0.735310938409E+02   -0.23092E-03   -0.49031E-03   112   0.343E-01    0.128E-02
DAV:   2    -0.735310942015E+02   -0.36063E-06   -0.40090E-05   112   0.320E-02    0.925E-03
DAV:   3    -0.735310929270E+02    0.12745E-05   -0.11484E-05   112   0.176E-02    0.203E-03
DAV:   4    -0.735310928818E+02    0.45240E-07   -0.22478E-06   136   0.723E-03    0.110E-03
DAV:   5    -0.735310928890E+02   -0.71971E-08   -0.34199E-07   128   0.256E-03    0.419E-04
DAV:   6    -0.735310929012E+02   -0.12170E-07   -0.24500E-08   136   0.761E-04    0.233E-04
DAV:   7    -0.735310929070E+02   -0.58234E-08   -0.55067E-09   136   0.349E-04
   3 F= -.73531093E+02 E0= -.73531093E+02  d E =-.229982E-03  mag=     0.0000
quench:  g(F)=  0.000E+00 g(S)=  0.000E+00 dE (1.order)= 0.000E+00
 bond charge predicted
       N       E                     dE             d eps       ncg     rms          rms(c)
DAV:   1    -0.735307348827E+02    0.35802E-03   -0.48461E-03   112   0.336E-01    0.124E-02
DAV:   2    -0.735307361207E+02   -0.12381E-05   -0.45705E-05   128   0.328E-02    0.905E-03
DAV:   3    -0.735307352735E+02    0.84728E-06   -0.79461E-06   120   0.149E-02    0.232E-03
DAV:   4    -0.735307355724E+02   -0.29892E-06   -0.19011E-06   144   0.646E-03    0.135E-03
DAV:   5    -0.735307355933E+02   -0.20900E-07   -0.22898E-07   112   0.217E-03    0.437E-04
DAV:   6    -0.735307356116E+02   -0.18286E-07   -0.53673E-08   144   0.115E-03    0.211E-04
DAV:   7    -0.735307356331E+02   -0.21558E-07   -0.37721E-09   136   0.317E-04    0.107E-04
DAV:   8    -0.735307356461E+02   -0.13014E-07   -0.16910E-09   128   0.189E-04    0.817E-05
DAV:   9    -0.735307356530E+02   -0.68909E-08   -0.21243E-10   128   0.965E-05
   4 F= -.73530736E+02 E0= -.73530736E+02  d E =0.357254E-03  mag=     0.0000
quench:  g(F)=  0.000E+00 g(S)=  0.000E+00 dE (1.order)= 0.000E+00
 bond charge predicted
       N       E                     dE             d eps       ncg     rms          rms(c)
DAV:   1    -0.735308939654E+02   -0.15832E-03   -0.50146E-03   112   0.354E-01    0.121E-02
DAV:   2    -0.735308971680E+02   -0.32027E-05   -0.67071E-05   120   0.400E-02    0.978E-03
DAV:   3    -0.735308958487E+02    0.13193E-05   -0.94926E-06   144   0.161E-02    0.176E-03
DAV:   4    -0.735308959415E+02   -0.92752E-07   -0.19483E-06   120   0.615E-03    0.935E-04
DAV:   5    -0.735308959604E+02   -0.18927E-07   -0.14946E-07   144   0.170E-03    0.366E-04
DAV:   6    -0.735308959744E+02   -0.13965E-07   -0.16214E-08   144   0.672E-04    0.205E-04
DAV:   7    -0.735308959929E+02   -0.18516E-07   -0.90324E-09   136   0.409E-04    0.110E-04
DAV:   8    -0.735308960030E+02   -0.10082E-07   -0.10060E-09   104   0.176E-04    0.856E-05
DAV:   9    -0.735308960273E+02   -0.24323E-07   -0.12756E-09    96   0.162E-04    0.806E-05
DAV:  10    -0.735308960454E+02   -0.18120E-07   -0.35684E-10   120   0.100E-04    0.779E-05
DAV:  11    -0.735308960610E+02   -0.15565E-07   -0.32967E-10   112   0.762E-05    0.736E-05
DAV:  12    -0.735308960714E+02   -0.10365E-07   -0.13908E-10   128   0.496E-05    0.737E-05
DAV:  13    -0.735308960756E+02   -0.42203E-08    0.76117E-12   112   0.265E-05
   5 F= -.73530896E+02 E0= -.73530896E+02  d E =-.160423E-03  mag=    -0.0000
quench:  g(F)=  0.000E+00 g(S)=  0.000E+00 dE (1.order)= 0.000E+00
 bond charge predicted
       N       E                     dE             d eps       ncg     rms          rms(c)
DAV:   1    -0.735306529013E+02    0.24317E-03   -0.48450E-03   112   0.349E-01    0.120E-02
DAV:   2    -0.735306553731E+02   -0.24718E-05   -0.50461E-05   112   0.344E-02    0.915E-03
DAV:   3    -0.735306546120E+02    0.76107E-06   -0.73137E-06   112   0.145E-02    0.154E-03
DAV:   4    -0.735306547148E+02   -0.10275E-06   -0.17554E-06   136   0.571E-03    0.978E-04
DAV:   5    -0.735306547366E+02   -0.21839E-07   -0.16275E-07   128   0.179E-03    0.359E-04
DAV:   6    -0.735306547565E+02   -0.19922E-07   -0.19054E-08   128   0.696E-04    0.208E-04
DAV:   7    -0.735306547906E+02   -0.34035E-07   -0.49152E-09   120   0.321E-04    0.929E-05
DAV:   8    -0.735306548093E+02   -0.18698E-07   -0.82898E-10   112   0.139E-04    0.820E-05
DAV:   9    -0.735306548456E+02   -0.36333E-07   -0.16260E-09    96   0.148E-04    0.761E-05
DAV:  10    -0.735306548578E+02   -0.12160E-07   -0.31624E-10   120   0.102E-04    0.750E-05
DAV:  11    -0.735306548681E+02   -0.10380E-07   -0.20095E-10   104   0.760E-05    0.735E-05
DAV:  12    -0.735306548754E+02   -0.72415E-08   -0.14397E-10   120   0.524E-05
   6 F= -.73530655E+02 E0= -.73530655E+02  d E =0.241200E-03  mag=     0.0000
quench:  g(F)=  0.000E+00 g(S)=  0.000E+00 dE (1.order)= 0.000E+00
 bond charge predicted
       N       E                     dE             d eps       ncg     rms          rms(c)
DAV:   1    -0.735308960773E+02   -0.24121E-03   -0.47957E-03   112   0.343E-01    0.119E-02
DAV:   2    -0.735308975944E+02   -0.15171E-05   -0.50049E-05   112   0.333E-02    0.858E-03
DAV:   3    -0.735308966273E+02    0.96711E-06   -0.72806E-06   128   0.138E-02    0.210E-03
DAV:   4    -0.735308966994E+02   -0.72145E-07   -0.15166E-06   128   0.555E-03    0.115E-03
DAV:   5    -0.735308967105E+02   -0.11102E-07   -0.24722E-07   128   0.225E-03    0.347E-04
DAV:   6    -0.735308967292E+02   -0.18642E-07   -0.32495E-08   144   0.935E-04    0.209E-04
DAV:   7    -0.735308967446E+02   -0.15430E-07   -0.37873E-09   112   0.274E-04    0.865E-05
DAV:   8    -0.735308967526E+02   -0.80300E-08   -0.47210E-10   128   0.105E-04
   7 F= -.73530897E+02 E0= -.73530897E+02  d E =-.241877E-03  mag=     0.0000
quench:  g(F)=  0.000E+00 g(S)=  0.000E+00 dE (1.order)= 0.000E+00
 bond charge predicted
       N       E                     dE             d eps       ncg     rms          rms(c)
DAV:   1    -0.735309358399E+02   -0.39095E-04   -0.50753E-03   112   0.353E-01    0.117E-02
DAV:   2    -0.735309395441E+02   -0.37042E-05   -0.69452E-05   112   0.397E-02    0.953E-03
DAV:   3    -0.735309383522E+02    0.11919E-05   -0.81037E-06   120   0.145E-02    0.229E-03
DAV:   4    -0.735309385616E+02   -0.20939E-06   -0.17929E-06   136   0.555E-03    0.102E-03
DAV:   5    -0.735309386103E+02   -0.48749E-07   -0.14430E-07   128   0.169E-03    0.374E-04
DAV:   6    -0.735309386162E+02   -0.58508E-08   -0.19963E-08   144   0.759E-04
   8 F= -.73530939E+02 E0= -.73530939E+02  d E =-.418635E-04  mag=    -0.0000
quench:  g(F)=  0.000E+00 g(S)=  0.000E+00 dE (1.order)= 0.000E+00
 bond charge predicted
       N       E                     dE             d eps       ncg     rms          rms(c)
DAV:   1    -0.735311811823E+02   -0.24257E-03   -0.48441E-03   112   0.349E-01    0.119E-02
DAV:   2    -0.735311833072E+02   -0.21249E-05   -0.50940E-05   112   0.344E-02    0.915E-03
DAV:   3    -0.735311820308E+02    0.12764E-05   -0.73057E-06   112   0.144E-02    0.156E-03
DAV:   4    -0.735311820860E+02   -0.55221E-07   -0.17364E-06   136   0.567E-03    0.973E-04
DAV:   5    -0.735311820729E+02    0.13087E-07   -0.16242E-07   120   0.180E-03    0.361E-04
DAV:   6    -0.735311820883E+02   -0.15321E-07   -0.20158E-08   136   0.800E-04    0.210E-04
DAV:   7    -0.735311821039E+02   -0.15631E-07   -0.74938E-09   120   0.577E-04    0.102E-04
DAV:   8    -0.735311821134E+02   -0.95226E-08   -0.29480E-09   128   0.434E-04
   9 F= -.73531182E+02 E0= -.73531182E+02  d E =-.243497E-03  mag=    -0.0000
quench:  g(F)=  0.000E+00 g(S)=  0.000E+00 dE (1.order)= 0.000E+00
 bond charge predicted
       N       E                     dE             d eps       ncg     rms          rms(c)
DAV:   1    -0.735309442157E+02    0.23789E-03   -0.47963E-03   112   0.343E-01    0.119E-02
DAV:   2    -0.735309461810E+02   -0.19653E-05   -0.49839E-05   112   0.332E-02    0.860E-03
DAV:   3    -0.735309457128E+02    0.46819E-06   -0.72403E-06   128   0.138E-02    0.211E-03
DAV:   4    -0.735309458863E+02   -0.17357E-06   -0.15094E-06   128   0.555E-03    0.115E-03
DAV:   5    -0.735309459431E+02   -0.56768E-07   -0.24913E-07   136   0.227E-03    0.346E-04
DAV:   6    -0.735309459543E+02   -0.11189E-07   -0.33631E-08   144   0.963E-04    0.209E-04
DAV:   7    -0.735309459723E+02   -0.18008E-07   -0.40685E-09   120   0.332E-04    0.880E-05
DAV:   8    -0.735309459779E+02   -0.56259E-08   -0.10330E-09   128   0.245E-04
  10 F= -.73530946E+02 E0= -.73530946E+02  d E =0.236135E-03  mag=     0.0000
quench:  g(F)=  0.000E+00 g(S)=  0.000E+00 dE (1.order)= 0.000E+00
 bond charge predicted
       N       E                     dE             d eps       ncg     rms          rms(c)
DAV:   1    -0.735309707047E+02   -0.24732E-04   -0.49975E-03   112   0.355E-01    0.119E-02
DAV:   2    -0.735309739303E+02   -0.32256E-05   -0.67099E-05   112   0.392E-02    0.955E-03
DAV:   3    -0.735309727364E+02    0.11939E-05   -0.86347E-06   136   0.151E-02    0.208E-03
DAV:   4    -0.735309729378E+02   -0.20130E-06   -0.17689E-06   136   0.580E-03    0.102E-03
DAV:   5    -0.735309729838E+02   -0.46012E-07   -0.16766E-07   144   0.188E-03    0.361E-04
DAV:   6    -0.735309729879E+02   -0.40955E-08   -0.23713E-08   136   0.856E-04
  11 F= -.73530973E+02 E0= -.73530973E+02  d E =-.270099E-04  mag=    -0.0000
quench:  g(F)=  0.000E+00 g(S)=  0.000E+00 dE (1.order)= 0.000E+00
 bond charge predicted
       N       E                     dE             d eps       ncg     rms          rms(c)
DAV:   1    -0.735307537600E+02    0.21922E-03   -0.49026E-03   112   0.343E-01    0.127E-02
DAV:   2    -0.735307544936E+02   -0.73355E-06   -0.40125E-05   112   0.320E-02    0.926E-03
DAV:   3    -0.735307537327E+02    0.76084E-06   -0.11449E-05   112   0.176E-02    0.201E-03
DAV:   4    -0.735307536665E+02    0.66254E-07   -0.22525E-06   144   0.726E-03    0.110E-03
DAV:   5    -0.735307536971E+02   -0.30640E-07   -0.33811E-07   132   0.258E-03    0.416E-04
DAV:   6    -0.735307537256E+02   -0.28468E-07   -0.30333E-08   136   0.106E-03    0.234E-04
DAV:   7    -0.735307537549E+02   -0.29270E-07   -0.13225E-08   128   0.830E-04    0.115E-04
DAV:   8    -0.735307537577E+02   -0.28263E-08   -0.46906E-09   128   0.560E-04
  12 F= -.73530754E+02 E0= -.73530754E+02  d E =0.219230E-03  mag=    -0.0000
quench:  g(F)=  0.000E+00 g(S)=  0.000E+00 dE (1.order)= 0.000E+00
 bond charge predicted
       N       E                     dE             d eps       ncg     rms          rms(c)
DAV:   1    -0.735311069191E+02   -0.35316E-03   -0.48471E-03   112   0.336E-01    0.123E-02
DAV:   2    -0.735311076009E+02   -0.68183E-06   -0.45438E-05   128   0.328E-02    0.904E-03
DAV:   3    -0.735311060738E+02    0.15271E-05   -0.79575E-06   120   0.150E-02    0.230E-03
DAV:   4    -0.735311062022E+02   -0.12839E-06   -0.19028E-06   144   0.646E-03    0.135E-03
DAV:   5    -0.735311061877E+02    0.14439E-07   -0.22821E-07   128   0.216E-03    0.437E-04
DAV:   6    -0.735311062210E+02   -0.33258E-07   -0.52238E-08   144   0.114E-03    0.209E-04
DAV:   7    -0.735311062387E+02   -0.17659E-07   -0.40434E-09   136   0.347E-04    0.105E-04
DAV:   8    -0.735311062545E+02   -0.15869E-07   -0.18554E-09   128   0.224E-04    0.810E-05
DAV:   9    -0.735311062652E+02   -0.10665E-07   -0.51936E-10   128   0.169E-04    0.767E-05
DAV:  10    -0.735311062774E+02   -0.12223E-07   -0.32378E-10   104   0.108E-04    0.744E-05
DAV:  11    -0.735311062824E+02   -0.49700E-08   -0.17293E-11   128   0.520E-05
  13 F= -.73531106E+02 E0= -.73531106E+02  d E =-.352525E-03  mag=    -0.0000
quench:  g(F)=  0.000E+00 g(S)=  0.000E+00 dE (1.order)= 0.000E+00
 bond charge predicted
       N       E                     dE             d eps       ncg     rms          rms(c)
DAV:   1    -0.735310837920E+02    0.22485E-04   -0.28170E-03   112   0.261E-01    0.115E-02
DAV:   2    -0.735310840216E+02   -0.22966E-06   -0.33546E-05   128   0.279E-02    0.840E-03
DAV:   3    -0.735310834147E+02    0.60694E-06   -0.88503E-06   136   0.150E-02    0.218E-03
DAV:   4    -0.735310833516E+02    0.63042E-07   -0.17454E-06   136   0.611E-03    0.122E-03
DAV:   5    -0.735310833961E+02   -0.44469E-07   -0.32404E-07   144   0.234E-03    0.343E-04
DAV:   6    -0.735310834059E+02   -0.98446E-08   -0.18883E-08   144   0.686E-04
  14 F= -.73531083E+02 E0= -.73531083E+02  d E =0.228764E-04  mag=     0.0000
quench:  g(F)=  0.000E+00 g(S)=  0.000E+00 dE (1.order)= 0.000E+00
 bond charge predicted
       N       E                     dE             d eps       ncg     rms          rms(c)
DAV:   1    -0.735308062510E+02    0.27715E-03   -0.79129E-04   160   0.136E-01    0.137E-02
DAV:   2    -0.735308037697E+02    0.24813E-05   -0.14461E-05   128   0.189E-02    0.814E-03
DAV:   3    -0.735308040550E+02   -0.28530E-06   -0.11171E-05   136   0.147E-02    0.325E-03
DAV:   4    -0.735308036159E+02    0.43914E-06   -0.16804E-06   128   0.627E-03    0.155E-03
DAV:   5    -0.735308037869E+02   -0.17102E-06   -0.64704E-07   120   0.334E-03    0.409E-04
DAV:   6    -0.735308038052E+02   -0.18327E-07   -0.27652E-08   144   0.812E-04    0.231E-04
DAV:   7    -0.735308038169E+02   -0.11698E-07   -0.10270E-08   120   0.421E-04    0.927E-05
DAV:   8    -0.735308038227E+02   -0.57654E-08   -0.92812E-10   128   0.164E-04
  15 F= -.73530804E+02 E0= -.73530804E+02  d E =0.279583E-03  mag=    -0.0000
quench:  g(F)=  0.000E+00 g(S)=  0.000E+00 dE (1.order)= 0.000E+00
 bond charge predicted
       N       E                     dE             d eps       ncg     rms          rms(c)
DAV:   1    -0.735308919148E+02   -0.88098E-04   -0.71622E-04   144   0.128E-01    0.814E-03
DAV:   2    -0.735308915123E+02    0.40251E-06   -0.47278E-06   112   0.979E-03    0.489E-03
DAV:   3    -0.735308916283E+02   -0.11605E-06   -0.11765E-06   120   0.491E-03    0.890E-04
DAV:   4    -0.735308916085E+02    0.19860E-07   -0.13945E-07   144   0.183E-03    0.495E-04
DAV:   5    -0.735308916141E+02   -0.56361E-08   -0.61227E-08   120   0.113E-03
  16 F= -.73530892E+02 E0= -.73530892E+02  d E =-.877914E-04  mag=    -0.0000
quench:  g(F)=  0.000E+00 g(S)=  0.000E+00 dE (1.order)= 0.000E+00
 bond charge predicted
       N       E                     dE             d eps       ncg     rms          rms(c)
DAV:   1    -0.735307743837E+02    0.11722E-03   -0.72976E-04   160   0.131E-01    0.970E-03
DAV:   2    -0.735307742602E+02    0.12347E-06   -0.10192E-05   112   0.148E-02    0.650E-03
DAV:   3    -0.735307745350E+02   -0.27482E-06   -0.28782E-06   112   0.793E-03    0.160E-03
DAV:   4    -0.735307744376E+02    0.97443E-07   -0.39914E-07   128   0.329E-03    0.819E-04
DAV:   5    -0.735307744549E+02   -0.17332E-07   -0.24683E-07   120   0.214E-03    0.312E-04
DAV:   6    -0.735307744593E+02   -0.43992E-08   -0.26725E-08   144   0.822E-04
  17 F= -.73530774E+02 E0= -.73530774E+02  d E =0.117155E-03  mag=    -0.0000
quench:  g(F)=  0.000E+00 g(S)=  0.000E+00 dE (1.order)= 0.000E+00
 bond charge predicted
       N       E                     dE             d eps       ncg     rms          rms(c)
DAV:   1    -0.735308185008E+02   -0.44046E-04   -0.71603E-04   120   0.128E-01    0.782E-03
DAV:   2    -0.735308184247E+02    0.76084E-07   -0.42449E-06   112   0.954E-03    0.483E-03
DAV:   3    -0.735308184036E+02    0.21067E-07   -0.10460E-06   112   0.480E-03    0.748E-04
DAV:   4    -0.735308183937E+02    0.98931E-08   -0.13892E-07   144   0.187E-03    0.498E-04
DAV:   5    -0.735308184024E+02   -0.86976E-08   -0.80787E-08   112   0.137E-03
  18 F= -.73530818E+02 E0= -.73530818E+02  d E =-.439431E-04  mag=     0.0000
quench:  g(F)=  0.000E+00 g(S)=  0.000E+00 dE (1.order)= 0.000E+00
 bond charge predicted
       N       E                     dE             d eps       ncg     rms          rms(c)
DAV:   1    -0.735309986054E+02   -0.18021E-03   -0.73446E-04   144   0.130E-01    0.101E-02
DAV:   2    -0.735309972269E+02    0.13785E-05   -0.71293E-06   112   0.132E-02    0.603E-03
DAV:   3    -0.735309970891E+02    0.13778E-06   -0.39195E-06   120   0.887E-03    0.187E-03
DAV:   4    -0.735309969680E+02    0.12107E-06   -0.59256E-07   120   0.371E-03    0.933E-04
DAV:   5    -0.735309969984E+02   -0.30376E-07   -0.20997E-07   128   0.202E-03    0.273E-04
DAV:   6    -0.735309969979E+02    0.48988E-09   -0.17479E-08   144   0.758E-04
  19 F= -.73530997E+02 E0= -.73530997E+02  d E =-.178596E-03  mag=    -0.0000
quench:  g(F)=  0.000E+00 g(S)=  0.000E+00 dE (1.order)= 0.000E+00
 bond charge predicted
       N       E                     dE             d eps       ncg     rms          rms(c)
DAV:   1    -0.735310060196E+02   -0.90212E-05   -0.70578E-04   144   0.133E-01    0.753E-03
DAV:   2    -0.735310060272E+02   -0.76229E-08   -0.70832E-06   112   0.127E-02    0.481E-03
DAV:   3    -0.735310062446E+02   -0.21737E-06   -0.92834E-07   112   0.465E-03    0.550E-04
DAV:   4    -0.735310062460E+02   -0.13495E-08   -0.13809E-07   140   0.172E-03    0.405E-04
DAV:   5    -0.735310062527E+02   -0.67944E-08   -0.33150E-08   112   0.110E-03
  20 F= -.73531006E+02 E0= -.73531006E+02  d E =-.925483E-05  mag=    -0.0000
quench:  g(F)=  0.000E+00 g(S)=  0.000E+00 dE (1.order)= 0.000E+00
 bond charge predicted
       N       E                     dE             d eps       ncg     rms          rms(c)
DAV:   1    -0.735310279935E+02   -0.21748E-04   -0.71369E-04   128   0.112E-01    0.762E-03
DAV:   2    -0.735310279389E+02    0.54654E-07   -0.42130E-06   112   0.918E-03    0.471E-03
DAV:   3    -0.735310280254E+02   -0.86553E-07   -0.73842E-07   120   0.413E-03    0.525E-04
DAV:   4    -0.735310280298E+02   -0.43526E-08   -0.10059E-07   144   0.166E-03    0.386E-04
DAV:   5    -0.735310280431E+02   -0.13307E-07   -0.38835E-08   112   0.113E-03    0.158E-04
DAV:   6    -0.735310280460E+02   -0.29391E-08   -0.12069E-08   144   0.839E-04
  21 F= -.73531028E+02 E0= -.73531028E+02  d E =-.217933E-04  mag=    -0.0000
quench:  g(F)=  0.000E+00 g(S)=  0.000E+00 dE (1.order)= 0.000E+00
 bond charge predicted
       N       E                     dE             d eps       ncg     rms          rms(c)
DAV:   1    -0.735311138044E+02   -0.85761E-04   -0.71990E-04   136   0.110E-01    0.832E-03
DAV:   2    -0.735311134046E+02    0.39979E-06   -0.49638E-06   112   0.911E-03    0.498E-03
DAV:   3    -0.735311134556E+02   -0.51022E-07   -0.13826E-06   136   0.491E-03    0.101E-03
DAV:   4    -0.735311134285E+02    0.27085E-07   -0.15272E-07   144   0.188E-03    0.531E-04
DAV:   5    -0.735311134328E+02   -0.43021E-08   -0.72556E-08   120   0.129E-03
  22 F= -.73531113E+02 E0= -.73531113E+02  d E =-.853868E-04  mag=    -0.0000
quench:  g(F)=  0.000E+00 g(S)=  0.000E+00 dE (1.order)= 0.000E+00
 bond charge predicted
       N       E                     dE             d eps       ncg     rms          rms(c)
DAV:   1    -0.735310805680E+02    0.32861E-04   -0.77203E-04   144   0.142E-01    0.123E-02
DAV:   2    -0.735310786070E+02    0.19610E-05   -0.13539E-05   112   0.185E-02    0.759E-03
DAV:   3    -0.735310787136E+02   -0.10659E-06   -0.10686E-05   140   0.144E-02    0.338E-03
DAV:   4    -0.735310782803E+02    0.43333E-06   -0.17091E-06   132   0.646E-03    0.173E-03
DAV:   5    -0.735310783404E+02   -0.60135E-07   -0.79666E-07   132   0.360E-03    0.359E-04
DAV:   6    -0.735310783537E+02   -0.13288E-07   -0.42195E-08   136   0.125E-03    0.238E-04
DAV:   7    -0.735310783623E+02   -0.86361E-08   -0.85689E-09   132   0.634E-04
  23 F= -.73531078E+02 E0= -.73531078E+02  d E =0.350705E-04  mag=    -0.0000
quench:  g(F)=  0.000E+00 g(S)=  0.000E+00 dE (1.order)= 0.000E+00
 bond charge predicted
       N       E                     dE             d eps       ncg     rms          rms(c)
DAV:   1    -0.735310556891E+02    0.22665E-04   -0.72172E-04   112   0.128E-01    0.790E-03
DAV:   2    -0.735310557792E+02   -0.90128E-07   -0.44876E-06   112   0.965E-03    0.486E-03
DAV:   3    -0.735310558928E+02   -0.11352E-06   -0.10405E-06   112   0.476E-03    0.736E-04
DAV:   4    -0.735310558766E+02    0.16201E-07   -0.13493E-07   144   0.181E-03    0.497E-04
DAV:   5    -0.735310558780E+02   -0.14387E-08   -0.81452E-08   136   0.127E-03
  24 F= -.73531056E+02 E0= -.73531056E+02  d E =0.224843E-04  mag=    -0.0000
quench:  g(F)=  0.000E+00 g(S)=  0.000E+00 dE (1.order)= 0.000E+00
 bond charge predicted
       N       E                     dE             d eps       ncg     rms          rms(c)
DAV:   1    -0.735308996874E+02    0.15619E-03   -0.74187E-04   120   0.130E-01    0.101E-02
DAV:   2    -0.735308989250E+02    0.76245E-06   -0.77570E-06   112   0.131E-02    0.599E-03
DAV:   3    -0.735308992453E+02   -0.32027E-06   -0.36352E-06   136   0.835E-03    0.179E-03
DAV:   4    -0.735308991082E+02    0.13709E-06   -0.54660E-07   120   0.349E-03    0.873E-04
DAV:   5    -0.735308991949E+02   -0.86718E-07   -0.18483E-07   144   0.188E-03    0.280E-04
DAV:   6    -0.735308991996E+02   -0.47496E-08   -0.18160E-08   136   0.715E-04
  25 F= -.73530899E+02 E0= -.73530899E+02  d E =0.156678E-03  mag=    -0.0000
quench:  g(F)=  0.000E+00 g(S)=  0.000E+00 dE (1.order)= 0.000E+00
 bond charge predicted
       N       E                     dE             d eps       ncg     rms          rms(c)
DAV:   1    -0.735308056464E+02    0.93549E-04   -0.73381E-04   120   0.130E-01    0.951E-03
DAV:   2    -0.735308055703E+02    0.76013E-07   -0.92262E-06   112   0.133E-02    0.618E-03
DAV:   3    -0.735308058646E+02   -0.29420E-06   -0.26489E-06   112   0.726E-03    0.153E-03
DAV:   4    -0.735308057603E+02    0.10424E-06   -0.35102E-07   112   0.309E-03    0.830E-04
DAV:   5    -0.735308057850E+02   -0.24673E-07   -0.25725E-07   148   0.216E-03    0.303E-04
DAV:   6    -0.735308057817E+02    0.33205E-08   -0.35628E-08   124   0.117E-03
  26 F= -.73530806E+02 E0= -.73530806E+02  d E =0.934180E-04  mag=    -0.0000
quench:  g(F)=  0.000E+00 g(S)=  0.000E+00 dE (1.order)= 0.000E+00
 bond charge predicted
       N       E                     dE             d eps       ncg     rms          rms(c)
DAV:   1    -0.735310710695E+02   -0.26528E-03   -0.79502E-04   144   0.136E-01    0.138E-02
DAV:   2    -0.735310676824E+02    0.33871E-05   -0.13987E-05   112   0.183E-02    0.812E-03
DAV:   3    -0.735310670074E+02    0.67505E-06   -0.10722E-05   120   0.140E-02    0.312E-03
DAV:   4    -0.735310666490E+02    0.35844E-06   -0.17747E-06   112   0.629E-03    0.138E-03
DAV:   5    -0.735310666938E+02   -0.44889E-07   -0.48609E-07   120   0.305E-03    0.356E-04
DAV:   6    -0.735310666898E+02    0.39918E-08   -0.38108E-08   128   0.141E-03
  27 F= -.73531067E+02 E0= -.73531067E+02  d E =-.260908E-03  mag=    -0.0000
quench:  g(F)=  0.000E+00 g(S)=  0.000E+00 dE (1.order)= 0.000E+00
 bond charge predicted
       N       E                     dE             d eps       ncg     rms          rms(c)
DAV:   1    -0.735309921733E+02    0.74521E-04   -0.72236E-04   112   0.128E-01    0.809E-03
DAV:   2    -0.735309920726E+02    0.10076E-06   -0.47870E-06   120   0.989E-03    0.491E-03
DAV:   3    -0.735309924039E+02   -0.33138E-06   -0.12262E-06   128   0.521E-03    0.903E-04
DAV:   4    -0.735309923554E+02    0.48503E-07   -0.16492E-07   152   0.227E-03    0.551E-04
DAV:   5    -0.735309923870E+02   -0.31526E-07   -0.94999E-08   112   0.172E-03    0.199E-04
DAV:   6    -0.735309923635E+02    0.23488E-07   -0.33535E-08   128   0.141E-03    0.127E-04
DAV:   7    -0.735309923604E+02    0.30514E-08   -0.38105E-09   128   0.450E-04
  28 F= -.73530992E+02 E0= -.73530992E+02  d E =0.743294E-04  mag=     0.0000
quench:  g(F)=  0.000E+00 g(S)=  0.000E+00 dE (1.order)= 0.000E+00
 bond charge predicted
       N       E                     dE             d eps       ncg     rms          rms(c)
DAV:   1    -0.735310677791E+02   -0.75416E-04   -0.74175E-04   128   0.131E-01    0.972E-03
DAV:   2    -0.735310669560E+02    0.82303E-06   -0.94414E-06   112   0.143E-02    0.623E-03
DAV:   3    -0.735310669578E+02   -0.17795E-08   -0.51013E-06   112   0.979E-03    0.228E-03
DAV:   4    -0.735310667420E+02    0.21583E-06   -0.79836E-07   144   0.437E-03    0.115E-03
DAV:   5    -0.735310667852E+02   -0.43173E-07   -0.38890E-07   112   0.255E-03    0.306E-04
DAV:   6    -0.735310667960E+02   -0.10837E-07   -0.28326E-08   144   0.800E-04    0.147E-04
DAV:   7    -0.735310668029E+02   -0.68907E-08   -0.38015E-09   112   0.271E-04
  29 F= -.73531067E+02 E0= -.73531067E+02  d E =-.744425E-04  mag=     0.0000
quench:  g(F)=  0.000E+00 g(S)=  0.000E+00 dE (1.order)= 0.000E+00
 bond charge predicted
       N       E                     dE             d eps       ncg     rms          rms(c)
DAV:   1    -0.735308023933E+02    0.26440E-03   -0.79548E-04   144   0.136E-01    0.138E-02
DAV:   2    -0.735307998382E+02    0.25552E-05   -0.14158E-05   120   0.181E-02    0.814E-03
DAV:   3    -0.735308000437E+02   -0.20551E-06   -0.10700E-05   112   0.140E-02    0.312E-03
DAV:   4    -0.735307996018E+02    0.44183E-06   -0.18106E-06   120   0.628E-03    0.136E-03
DAV:   5    -0.735307997879E+02   -0.18606E-06   -0.45214E-07   120   0.286E-03    0.340E-04
DAV:   6    -0.735307998001E+02   -0.12180E-07   -0.16167E-08   144   0.653E-04    0.199E-04
DAV:   7    -0.735307998073E+02   -0.72083E-08   -0.10365E-08   112   0.465E-04
  30 F= -.73530800E+02 E0= -.73530800E+02  d E =0.266996E-03  mag=     0.0000
quench:  g(F)=  0.000E+00 g(S)=  0.000E+00 dE (1.order)= 0.000E+00
 bond charge predicted
       N       E                     dE             d eps       ncg     rms          rms(c)
DAV:   1    -0.735308852356E+02   -0.85436E-04   -0.72335E-04   112   0.128E-01    0.818E-03
DAV:   2    -0.735308849176E+02    0.31805E-06   -0.47535E-06   112   0.985E-03    0.496E-03
DAV:   3    -0.735308849722E+02   -0.54631E-07   -0.12591E-06   128   0.514E-03    0.927E-04
DAV:   4    -0.735308849494E+02    0.22789E-07   -0.15381E-07   136   0.192E-03    0.550E-04
DAV:   5    -0.735308849519E+02   -0.24721E-08   -0.78077E-08   128   0.124E-03
  31 F= -.73530885E+02 E0= -.73530885E+02  d E =-.851446E-04  mag=     0.0000
quench:  g(F)=  0.000E+00 g(S)=  0.000E+00 dE (1.order)= 0.000E+00
 bond charge predicted
       N       E                     dE             d eps       ncg     rms          rms(c)
DAV:   1    -0.735307860405E+02    0.98909E-04   -0.74184E-04   128   0.131E-01    0.100E-02
DAV:   2    -0.735307858019E+02    0.23859E-06   -0.93578E-06   112   0.143E-02    0.655E-03
DAV:   3    -0.735307860204E+02   -0.21842E-06   -0.28850E-06   128   0.792E-03    0.160E-03
DAV:   4    -0.735307859216E+02    0.98765E-07   -0.44195E-07   144   0.337E-03    0.832E-04
DAV:   5    -0.735307859371E+02   -0.15491E-07   -0.24115E-07   128   0.207E-03    0.278E-04
DAV:   6    -0.735307859421E+02   -0.50001E-08   -0.25556E-08   144   0.821E-04
  32 F= -.73530786E+02 E0= -.73530786E+02  d E =0.990098E-04  mag=    -0.0000
quench:  g(F)=  0.000E+00 g(S)=  0.000E+00 dE (1.order)= 0.000E+00
 bond charge predicted
       N       E                     dE             d eps       ncg     rms          rms(c)
DAV:   1    -0.735308138590E+02   -0.27922E-04   -0.72269E-04   112   0.128E-01    0.795E-03
DAV:   2    -0.735308138076E+02    0.51343E-07   -0.45640E-06   112   0.970E-03    0.488E-03
DAV:   3    -0.735308137620E+02    0.45676E-07   -0.10590E-06   120   0.483E-03    0.744E-04
DAV:   4    -0.735308137410E+02    0.20997E-07   -0.14348E-07   144   0.199E-03    0.499E-04
DAV:   5    -0.735308137659E+02   -0.24897E-07   -0.89380E-08   112   0.151E-03    0.223E-04
DAV:   6    -0.735308137483E+02    0.17613E-07   -0.24185E-08   120   0.112E-03    0.123E-04
DAV:   7    -0.735308137509E+02   -0.26137E-08   -0.54919E-09   116   0.486E-04
  33 F= -.73530814E+02 E0= -.73530814E+02  d E =-.278088E-04  mag=     0.0000
quench:  g(F)=  0.000E+00 g(S)=  0.000E+00 dE (1.order)= 0.000E+00
 bond charge predicted
       N       E                     dE             d eps       ncg     rms          rms(c)
DAV:   1    -0.735309823211E+02   -0.16857E-03   -0.74215E-04   120   0.130E-01    0.101E-02
DAV:   2    -0.735309811273E+02    0.11938E-05   -0.78359E-06   128   0.131E-02    0.601E-03
DAV:   3    -0.735309809351E+02    0.19220E-06   -0.37728E-06   136   0.851E-03    0.183E-03
DAV:   4    -0.735309808149E+02    0.12023E-06   -0.54677E-07   128   0.349E-03    0.916E-04
DAV:   5    -0.735309808413E+02   -0.26474E-07   -0.21285E-07   136   0.198E-03    0.285E-04
DAV:   6    -0.735309808450E+02   -0.36476E-08   -0.18597E-08   144   0.623E-04
  34 F= -.73530981E+02 E0= -.73530981E+02  d E =-.167094E-03  mag=    -0.0000
quench:  g(F)=  0.000E+00 g(S)=  0.000E+00 dE (1.order)= 0.000E+00
 bond charge predicted
       N       E                     dE             d eps       ncg     rms          rms(c)
DAV:   1    -0.735310943874E+02   -0.11355E-03   -0.73905E-04   128   0.135E-01    0.100E-02
DAV:   2    -0.735310933329E+02    0.10546E-05   -0.96753E-06   112   0.150E-02    0.629E-03
DAV:   3    -0.735310932627E+02    0.70165E-07   -0.49539E-06   112   0.991E-03    0.224E-03
DAV:   4    -0.735310930699E+02    0.19276E-06   -0.78087E-07   136   0.439E-03    0.114E-03
DAV:   5    -0.735310931080E+02   -0.38083E-07   -0.36368E-07   120   0.249E-03    0.333E-04
DAV:   6    -0.735310931109E+02   -0.28833E-08   -0.25728E-08   160   0.793E-04
  35 F= -.73531093E+02 E0= -.73531093E+02  d E =-.112266E-03  mag=    -0.0000
quench:  g(F)=  0.000E+00 g(S)=  0.000E+00 dE (1.order)= 0.000E+00
 bond charge predicted
       N       E                     dE             d eps       ncg     rms          rms(c)
DAV:   1    -0.735310577510E+02    0.35357E-04   -0.71471E-04   112   0.127E-01    0.776E-03
DAV:   2    -0.735310578511E+02   -0.10019E-06   -0.44119E-06   112   0.959E-03    0.481E-03
DAV:   3    -0.735310580023E+02   -0.15116E-06   -0.10689E-06   128   0.491E-03    0.758E-04
DAV:   4    -0.735310579832E+02    0.19082E-07   -0.14206E-07   144   0.186E-03    0.519E-04
DAV:   5    -0.735310579849E+02   -0.16578E-08   -0.81561E-08   120   0.132E-03
  36 F= -.73531058E+02 E0= -.73531058E+02  d E =0.351260E-04  mag=    -0.0000
quench:  g(F)=  0.000E+00 g(S)=  0.000E+00 dE (1.order)= 0.000E+00
 bond charge predicted
       N       E                     dE             d eps       ncg     rms          rms(c)
DAV:   1    -0.735308918200E+02    0.16616E-03   -0.73463E-04   144   0.130E-01    0.101E-02
DAV:   2    -0.735308909322E+02    0.88779E-06   -0.70597E-06   120   0.131E-02    0.603E-03
DAV:   3    -0.735308913301E+02   -0.39787E-06   -0.39303E-06   120   0.887E-03    0.187E-03
DAV:   4    -0.735308911747E+02    0.15534E-06   -0.59871E-07   120   0.372E-03    0.929E-04
DAV:   5    -0.735308912631E+02   -0.88360E-07   -0.20573E-07   128   0.199E-03    0.270E-04
DAV:   6    -0.735308912675E+02   -0.44255E-08   -0.15991E-08   144   0.698E-04
  37 F= -.73530891E+02 E0= -.73530891E+02  d E =0.166717E-03  mag=    -0.0000
quench:  g(F)=  0.000E+00 g(S)=  0.000E+00 dE (1.order)= 0.000E+00
 bond charge predicted
       N       E                     dE             d eps       ncg     rms          rms(c)
DAV:   1    -0.735307879861E+02    0.10328E-03   -0.72853E-04   160   0.130E-01    0.957E-03
DAV:   2    -0.735307877832E+02    0.20282E-06   -0.87074E-06   112   0.137E-02    0.618E-03
DAV:   3    -0.735307880895E+02   -0.30628E-06   -0.24029E-06   128   0.739E-03    0.142E-03
DAV:   4    -0.735307880066E+02    0.82943E-07   -0.34598E-07   120   0.311E-03    0.797E-04
DAV:   5    -0.735307880291E+02   -0.22491E-07   -0.22775E-07   128   0.210E-03    0.313E-04
DAV:   6    -0.735307880248E+02    0.42858E-08   -0.32943E-08   120   0.113E-03
  38 F= -.73530788E+02 E0= -.73530788E+02  d E =0.103243E-03  mag=    -0.0000
quench:  g(F)=  0.000E+00 g(S)=  0.000E+00 dE (1.order)= 0.000E+00
 bond charge predicted
       N       E                     dE             d eps       ncg     rms          rms(c)
DAV:   1    -0.735310760232E+02   -0.28799E-03   -0.79262E-04   144   0.136E-01    0.138E-02
DAV:   2    -0.735310726094E+02    0.34139E-05   -0.14191E-05   128   0.188E-02    0.815E-03
DAV:   3    -0.735310719784E+02    0.63097E-06   -0.11101E-05   136   0.147E-02    0.323E-03
DAV:   4    -0.735310716296E+02    0.34877E-06   -0.16944E-06   136   0.634E-03    0.154E-03
DAV:   5    -0.735310716693E+02   -0.39661E-07   -0.62148E-07   120   0.335E-03    0.394E-04
DAV:   6    -0.735310716673E+02    0.19743E-08   -0.40866E-08   160   0.138E-03
  39 F= -.73531072E+02 E0= -.73531072E+02  d E =-.283643E-03  mag=    -0.0000
quench:  g(F)=  0.000E+00 g(S)=  0.000E+00 dE (1.order)= 0.000E+00
 bond charge predicted
       N       E                     dE             d eps       ncg     rms          rms(c)
DAV:   1    -0.735309953437E+02    0.76326E-04   -0.71641E-04   128   0.128E-01    0.814E-03
DAV:   2    -0.735309951524E+02    0.19135E-06   -0.47123E-06   112   0.987E-03    0.489E-03
DAV:   3    -0.735309955186E+02   -0.36619E-06   -0.12398E-06   112   0.516E-03    0.914E-04
DAV:   4    -0.735309954788E+02    0.39771E-07   -0.16556E-07   128   0.231E-03    0.530E-04
DAV:   5    -0.735309955119E+02   -0.33156E-07   -0.91063E-08   112   0.176E-03    0.213E-04
DAV:   6    -0.735309954929E+02    0.19074E-07   -0.31221E-08   128   0.135E-03    0.128E-04
DAV:   7    -0.735309954928E+02    0.62641E-10   -0.39610E-09   112   0.439E-04
  40 F= -.73530995E+02 E0= -.73530995E+02  d E =0.761745E-04  mag=    -0.0000
quench:  g(F)=  0.000E+00 g(S)=  0.000E+00 dE (1.order)= 0.000E+00
 bond charge predicted
       N       E                     dE             d eps       ncg     rms          rms(c)
DAV:   1    -0.735308750277E+02    0.12047E-03   -0.73177E-04   128   0.133E-01    0.872E-03
DAV:   2    -0.735308746383E+02    0.38940E-06   -0.58536E-06   112   0.113E-02    0.533E-03
DAV:   3    -0.735308751805E+02   -0.54213E-06   -0.26300E-06   120   0.742E-03    0.160E-03
DAV:   4    -0.735308750889E+02    0.91545E-07   -0.33497E-07   128   0.288E-03    0.104E-03
DAV:   5    -0.735308751069E+02   -0.18012E-07   -0.28017E-07   120   0.226E-03    0.256E-04
DAV:   6    -0.735308751093E+02   -0.24099E-08   -0.24506E-08   144   0.801E-04
  41 F= -.73530875E+02 E0= -.73530875E+02  d E =0.120383E-03  mag=     0.0000
quench:  g(F)=  0.000E+00 g(S)=  0.000E+00 dE (1.order)= 0.000E+00
 bond charge predicted
       N       E                     dE             d eps       ncg     rms          rms(c)
DAV:   1    -0.735308590782E+02    0.16029E-04   -0.71467E-04   112   0.111E-01    0.768E-03
DAV:   2    -0.735308590705E+02    0.77242E-08   -0.41113E-06   112   0.896E-03    0.474E-03
DAV:   3    -0.735308592615E+02   -0.19100E-06   -0.76512E-07   116   0.418E-03    0.560E-04
DAV:   4    -0.735308592614E+02    0.97543E-10   -0.10204E-07   136   0.150E-03    0.402E-04
DAV:   5    -0.735308592677E+02   -0.63028E-08   -0.43337E-08   112   0.961E-04
  42 F= -.73530859E+02 E0= -.73530859E+02  d E =0.158416E-04  mag=     0.0000
quench:  g(F)=  0.000E+00 g(S)=  0.000E+00 dE (1.order)= 0.000E+00
 bond charge predicted
       N       E                     dE             d eps       ncg     rms          rms(c)
DAV:   1    -0.735307515825E+02    0.10768E-03   -0.72043E-04   136   0.110E-01    0.828E-03
DAV:   2    -0.735307514250E+02    0.15751E-06   -0.48648E-06   112   0.899E-03    0.496E-03
DAV:   3    -0.735307517525E+02   -0.32753E-06   -0.13120E-06   112   0.478E-03    0.970E-04
DAV:   4    -0.735307517297E+02    0.22801E-07   -0.14182E-07   136   0.177E-03    0.506E-04
DAV:   5    -0.735307517466E+02   -0.16931E-07   -0.64285E-08   120   0.117E-03    0.190E-04
DAV:   6    -0.735307517492E+02   -0.25883E-08   -0.10464E-08   144   0.530E-04
  43 F= -.73530752E+02 E0= -.73530752E+02  d E =0.107519E-03  mag=     0.0000
quench:  g(F)=  0.000E+00 g(S)=  0.000E+00 dE (1.order)= 0.000E+00
--------------------------------------------------------
>>>  Job finished at Wed May 13 10:30:03 EDT 2020
