>>>  VASP 5.4.4 with BEEF-vdw and vtst
--------------------------------------------------------
>>>  Job information
     SLURM_JOBID=2127168
     SLURM_JOB_NODELIST=cpn-u23-34
     SLURM_NNODES=1
     SLURMTMPDIR=/scratch/2127168
     working directory = /projects/academic/ericwalk/cahorvat/DecaneReaction/O/vtst
--------------------------------------------------------
>>>  Module information
The Intel compilers are in your path. This is adequate for compiling and
running most codes. Source
/util/academic/intel/17.0/compilers_and_libraries_2017/linux/bin/compilervars.sh
for more features. 
 The MKL Libraries are in your library path. This is adequate for compiling and
running most codes. Source $MKL/bin/mklvars.sh" for more features. 
 Intel-MPI is in your path. This is adequate for compiling and running most
codes. Source the
/util/academic/intel/17.0/compilers_and_libraries_2017/linux/mpi/intel64/bin/mpivars.sh
file for more features. 

Currently Loaded Modules:
  1) intel/17.0   2) mkl/2017.0.1   3) intel-mpi/2017.0.1

 

--------------------------------------------------------
>>>  Running Configuration
NPROCS=16
--------------------------------------------------------
>>>  Job started at Sun Mar 29 16:16:31 EDT 2020
--------------------------------------------------------
 running on   16 total cores
 distrk:  each k-point on   16 cores,    1 groups
 distr:  one band on    4 cores,    4 groups
 using from now: INCAR     
 vasp.5.4.4.18Apr17-6-g9f103f2a35 (build Dec 31 2018 11:41:54) complex          
  
 POSCAR found type information on POSCAR  O 
 POSCAR found :  1 types and       1 ions
 scaLAPACK will be used

 ----------------------------------------------------------------------------- 
|                                                                             |
|  ADVICE TO THIS USER RUNNING 'VASP/VAMP'   (HEAR YOUR MASTER'S VOICE ...):  |
|                                                                             |
|      You have a (more or less) 'small supercell' and for smaller cells      |
|      it is recommended  to use the reciprocal-space projection scheme!      |
|      The real space optimization is not  efficient for small cells and it   |
|      is also less accurate ...                                              |
|      Therefore set LREAL=.FALSE. in the  INCAR file                         |
|                                                                             |
 ----------------------------------------------------------------------------- 

 LDA part: xc-table for Pade appr. of Perdew
 POSCAR found type information on POSCAR  O 
 POSCAR found :  1 types and       1 ions
 POSCAR, INCAR and KPOINTS ok, starting setup
 FFT: planning ...
 WAVECAR not read
 WARNING: random wavefunctions but no delay for mixing, default for NELMDL
 entering main loop
       N       E                     dE             d eps       ncg     rms          rms(c)
DAV:   1     0.477568411210E+02    0.47757E+02   -0.11416E+03    24   0.272E+02
DAV:   2     0.120440594491E+02   -0.35713E+02   -0.35713E+02    32   0.535E+01
DAV:   3     0.548780460281E+00   -0.11495E+02   -0.11495E+02    16   0.437E+01
DAV:   4    -0.702225488693E-01   -0.61900E+00   -0.54604E+00    16   0.130E+01
DAV:   5    -0.800926488537E-01   -0.98701E-02   -0.98040E-02    16   0.152E+00    0.306E-01
DAV:   6    -0.796037749245E-01    0.48887E-03   -0.75413E-03    32   0.562E-01    0.282E-01
DAV:   7    -0.797136661221E-01   -0.10989E-03   -0.43242E-03    16   0.100E-01    0.910E-01
DAV:   8    -0.711523344384E-01    0.85613E-02   -0.34319E-03    16   0.205E-01    0.214E-01
DAV:   9    -0.798721523759E-01   -0.87198E-02   -0.82372E-04    16   0.181E-01    0.171E-01
DAV:  10    -0.791467898227E-01    0.72536E-03   -0.21227E-05    16   0.588E-02    0.270E-02
DAV:  11    -0.798427379239E-01   -0.69595E-03   -0.18609E-05    16   0.552E-02    0.129E-02
DAV:  12    -0.798926119588E-01   -0.49874E-04   -0.16302E-06    24   0.146E-02    0.318E-03
DAV:  13    -0.799192172067E-01   -0.26605E-04   -0.36398E-07    16   0.790E-03    0.165E-03
DAV:  14    -0.799219200612E-01   -0.27029E-05   -0.16525E-08    24   0.129E-03    0.154E-03
DAV:  15    -0.799225458588E-01   -0.62580E-06   -0.18103E-09    16   0.422E-04    0.335E-04
DAV:  16    -0.799236688433E-01   -0.11230E-05   -0.91403E-09    16   0.105E-03    0.242E-04
DAV:  17    -0.799237897500E-01   -0.12091E-06   -0.59675E-10    16   0.195E-04    0.347E-04
DAV:  18    -0.799238148159E-01   -0.25066E-07   -0.10863E-09    32   0.393E-04    0.135E-04
DAV:  19    -0.799238331861E-01   -0.18370E-07   -0.14239E-10    16   0.647E-05    0.777E-05
DAV:  20    -0.799238415907E-01   -0.84046E-08   -0.15295E-10    16   0.641E-05
   1 F= -.79923842E-01 E0= -.41358263E-01  d E =-.799238E-01
quench:  g(F)=  0.000E+00 g(S)=  0.000E+00 dE (1.order)= 0.000E+00
 reached required accuracy - stopping structural energy minimisation
--------------------------------------------------------
>>>  Job finished at Sun Mar 29 16:16:53 EDT 2020
