>>>  VASP 5.4.4 with BEEF-vdw and vtst
--------------------------------------------------------
>>>  Job information
     SLURM_JOBID=3061143
     SLURM_JOB_NODELIST=cpn-u25-34
     SLURM_NNODES=1
     SLURMTMPDIR=/scratch/3061143
     working directory = /projects/academic/ericwalk/kevingie/decane_nox_gas_phase/C9H20
--------------------------------------------------------
>>>  Module information
The Intel compilers are in your path. This is adequate for compiling and
running most codes. Source
/util/academic/intel/17.0/compilers_and_libraries_2017/linux/bin/compilervars.sh
for more features. 
 The MKL Libraries are in your library path. This is adequate for compiling and
running most codes. Source $MKL/bin/mklvars.sh" for more features. 
 Intel-MPI is in your path. This is adequate for compiling and running most
codes. Source the
/util/academic/intel/17.0/compilers_and_libraries_2017/linux/mpi/intel64/bin/mpivars.sh
file for more features. 

Currently Loaded Modules:
  1) python/py36-anaconda-5.3.1   3) mkl/2017.0.1
  2) intel/17.0                   4) intel-mpi/2017.0.1

 

--------------------------------------------------------
>>>  Running Configuration
NPROCS=16
--------------------------------------------------------
>>>  Job started at Mon May 11 17:11:01 EDT 2020
--------------------------------------------------------
 running on   16 total cores
 distrk:  each k-point on   16 cores,    1 groups
 distr:  one band on    4 cores,    4 groups
 using from now: INCAR     
 vasp.5.4.4.18Apr17-6-g9f103f2a35 (build Dec 31 2018 11:41:54) complex          
  
 POSCAR found type information on POSCAR  C  H 
 POSCAR found :  2 types and      29 ions
 scaLAPACK will be used

     **************************************************************************
     Initializing libbeef V0.1.3 with the BEEF-vdW functional.
     Citation: Wellendorff et al., PRB 85, 235149 (2012).
     **************************************************************************


 ----------------------------------------------------------------------------- 
|                                                                             |
|  ADVICE TO THIS USER RUNNING 'VASP/VAMP'   (HEAR YOUR MASTER'S VOICE ...):  |
|                                                                             |
|      You have switched on vdW-DFT.                                          |
|      This routine was written and supplied by Jiri Klimes.                  |
|      We recommed that you carefully read and cite the following             |
|      publication                                                            |
|      J. Klimes, D.R. Bowler, A. Michelides                                  |
|        J. Phys.: Cond Matt. 22 022201 (2010)                                |
|      J. Klimes, D.R. Bowler, A. Michelides                                  |
|        Phys. Rev. B. 83, 195131 (2011)                                      |
|      and references therein.                                                |
|                                                                             |
 ----------------------------------------------------------------------------- 


 ----------------------------------------------------------------------------- 
|                                                                             |
|  ADVICE TO THIS USER RUNNING 'VASP/VAMP'   (HEAR YOUR MASTER'S VOICE ...):  |
|                                                                             |
|      You enforced a specific xc-type in the INCAR file,                     |
|      a different type was found on the POTCAR file                          |
|          I HOPE YOU KNOW, WHAT YOU ARE  DOING                               |
|                                                                             |
 ----------------------------------------------------------------------------- 

 LDA part: xc-table for Pade appr. of Perdew
 POSCAR found type information on POSCAR  C  H 
 POSCAR found :  2 types and      29 ions
 POSCAR, INCAR and KPOINTS ok, starting setup
 FFT: planning ...
 WAVECAR not read
 entering main loop
       N       E                     dE             d eps       ncg     rms          rms(c)
Total vdW correction in eV:      9.4849994
DAV:   1     0.306068633285E+03    0.30607E+03   -0.16128E+04   264   0.518E+02
DAV:   2    -0.720677194852E+02   -0.37814E+03   -0.35534E+03   348   0.140E+02
DAV:   3    -0.140746329836E+03   -0.68679E+02   -0.68233E+02   328   0.611E+01
DAV:   4    -0.143351266262E+03   -0.26049E+01   -0.25974E+01   368   0.151E+01
DAV:   5    -0.143395332857E+03   -0.44067E-01   -0.44003E-01   336   0.169E+00    0.350E+01
Total vdW correction in eV:      9.7426690
DAV:   6     0.100242457146E+02    0.15342E+03   -0.43325E+02   288   0.636E+01    0.165E+01
Total vdW correction in eV:     10.1353555
DAV:   7    -0.106751453260E+03   -0.11678E+03   -0.11157E+02   312   0.284E+01    0.925E+00
Total vdW correction in eV:     10.4035610
DAV:   8    -0.115307450718E+03   -0.85560E+01   -0.14282E+01   328   0.108E+01    0.612E+00
Total vdW correction in eV:     10.6564598
DAV:   9    -0.147856854879E+03   -0.32549E+02   -0.28225E+01   304   0.121E+01    0.355E+00
Total vdW correction in eV:     10.7028478
DAV:  10    -0.154739058707E+03   -0.68822E+01   -0.41934E+00   280   0.578E+00    0.212E+00
Total vdW correction in eV:     10.7512452
DAV:  11    -0.161957163069E+03   -0.72181E+01   -0.60839E+00   272   0.566E+00    0.136E+00
Total vdW correction in eV:     10.7004209
DAV:  12    -0.162757425051E+03   -0.80026E+00   -0.50440E-01   296   0.243E+00    0.732E-01
Total vdW correction in eV:     10.6663703
DAV:  13    -0.163547974469E+03   -0.79055E+00   -0.30550E-01   268   0.160E+00    0.417E-01
Total vdW correction in eV:     10.6507229
DAV:  14    -0.163872505786E+03   -0.32453E+00   -0.49396E-02   264   0.821E-01    0.207E-01
Total vdW correction in eV:     10.6333868
DAV:  15    -0.163983572032E+03   -0.11107E+00   -0.14382E-02   272   0.445E-01    0.106E-01
Total vdW correction in eV:     10.6283909
DAV:  16    -0.164013043680E+03   -0.29472E-01   -0.42029E-03   288   0.236E-01    0.619E-02
Total vdW correction in eV:     10.6255326
DAV:  17    -0.164021253809E+03   -0.82101E-02   -0.28971E-03   260   0.185E-01    0.355E-02
Total vdW correction in eV:     10.6201031
DAV:  18    -0.164024577687E+03   -0.33239E-02   -0.12988E-03   272   0.134E-01    0.247E-02
Total vdW correction in eV:     10.6192654
DAV:  19    -0.164025784716E+03   -0.12070E-02   -0.48491E-04   280   0.767E-02    0.157E-02
Total vdW correction in eV:     10.6188804
DAV:  20    -0.164027205836E+03   -0.14211E-02   -0.56023E-04   256   0.644E-02    0.110E-02
Total vdW correction in eV:     10.6187363
DAV:  21    -0.164027825946E+03   -0.62011E-03   -0.20284E-04   272   0.458E-02    0.641E-03
Total vdW correction in eV:     10.6190692
DAV:  22    -0.164028154004E+03   -0.32806E-03   -0.10161E-04   268   0.390E-02    0.651E-03
Total vdW correction in eV:     10.6195081
DAV:  23    -0.164028322704E+03   -0.16870E-03   -0.38411E-05   264   0.250E-02    0.380E-03
Total vdW correction in eV:     10.6196847
DAV:  24    -0.164028367077E+03   -0.44373E-04   -0.18235E-05   232   0.171E-02    0.224E-03
Total vdW correction in eV:     10.6197883
DAV:  25    -0.164028380957E+03   -0.13880E-04   -0.14822E-05   224   0.119E-02    0.210E-03
Total vdW correction in eV:     10.6197788
DAV:  26    -0.164028355019E+03    0.25938E-04   -0.28401E-06   240   0.615E-03    0.995E-04
Total vdW correction in eV:     10.6197104
DAV:  27    -0.164028305239E+03    0.49780E-04   -0.21140E-06   216   0.467E-03    0.654E-04
Total vdW correction in eV:     10.6197037
DAV:  28    -0.164028275468E+03    0.29771E-04   -0.76081E-07   248   0.279E-03    0.478E-04
Total vdW correction in eV:     10.6197052
DAV:  29    -0.164028264169E+03    0.11299E-04   -0.27278E-07   224   0.181E-03    0.226E-04
Total vdW correction in eV:     10.6197010
DAV:  30    -0.164028256649E+03    0.75197E-05   -0.22059E-07   224   0.159E-03
Total vdW correction in eV:     10.6197010
   1 F= -.16402826E+03 E0= -.16402826E+03  d E =-.164028E+03  mag=    -0.0000
 BRION: g(F)=  0.127E+01 g(S)=  0.000E+00
 bond charge predicted
       N       E                     dE             d eps       ncg     rms          rms(c)
Total vdW correction in eV:     10.6127552
DAV:   1    -0.164731573430E+03   -0.70331E+00   -0.34674E+01   248   0.204E+01    0.169E+00
Total vdW correction in eV:     10.6110255
DAV:   2    -0.164753669390E+03   -0.22096E-01   -0.82993E-01   264   0.287E+00    0.111E+00
Total vdW correction in eV:     10.6128513
DAV:   3    -0.164744142970E+03    0.95264E-02   -0.22571E-01   288   0.138E+00    0.445E-01
Total vdW correction in eV:     10.6128951
DAV:   4    -0.164739758835E+03    0.43841E-02   -0.35669E-02   272   0.630E-01    0.238E-01
Total vdW correction in eV:     10.6135606
DAV:   5    -0.164740679848E+03   -0.92101E-03   -0.12808E-02   304   0.376E-01    0.728E-02
Total vdW correction in eV:     10.6136531
DAV:   6    -0.164740840207E+03   -0.16036E-03   -0.12887E-03   288   0.124E-01    0.352E-02
Total vdW correction in eV:     10.6139177
DAV:   7    -0.164741286454E+03   -0.44625E-03   -0.27551E-04   256   0.462E-02    0.119E-02
Total vdW correction in eV:     10.6140537
DAV:   8    -0.164741567170E+03   -0.28072E-03   -0.50337E-05   272   0.227E-02    0.878E-03
Total vdW correction in eV:     10.6141449
DAV:   9    -0.164741820827E+03   -0.25366E-03   -0.74375E-05   264   0.294E-02    0.390E-03
Total vdW correction in eV:     10.6141909
DAV:  10    -0.164741902359E+03   -0.81531E-04   -0.31509E-05   288   0.196E-02    0.317E-03
Total vdW correction in eV:     10.6142283
DAV:  11    -0.164741943291E+03   -0.40932E-04   -0.25860E-05   256   0.200E-02    0.210E-03
Total vdW correction in eV:     10.6142456
DAV:  12    -0.164741948185E+03   -0.48938E-05   -0.10814E-05   224   0.136E-02
Total vdW correction in eV:     10.6142662
   2 F= -.16474195E+03 E0= -.16474195E+03  d E =-.713692E+00  mag=     0.0000
 BRION: g(F)=  0.884E+00 g(S)=  0.000E+00 retain N=  1 mean eig= 0.72
 eig:   0.722
 bond charge predicted
       N       E                     dE             d eps       ncg     rms          rms(c)
Total vdW correction in eV:     10.6307019
DAV:   1    -0.164870037932E+03   -0.12809E+00   -0.32166E+01   256   0.189E+01    0.944E-01
Total vdW correction in eV:     10.6332450
DAV:   2    -0.164912670051E+03   -0.42632E-01   -0.59598E-01   296   0.238E+00    0.812E-01
Total vdW correction in eV:     10.6357027
DAV:   3    -0.164903210327E+03    0.94597E-02   -0.37471E-02   320   0.718E-01    0.311E-01
Total vdW correction in eV:     10.6369004
DAV:   4    -0.164904183233E+03   -0.97291E-03   -0.13272E-02   272   0.354E-01    0.976E-02
Total vdW correction in eV:     10.6374314
DAV:   5    -0.164904158156E+03    0.25077E-04   -0.13526E-03   256   0.126E-01    0.294E-02
Total vdW correction in eV:     10.6374486
DAV:   6    -0.164904157378E+03    0.77712E-06   -0.20625E-04   272   0.512E-02    0.170E-02
Total vdW correction in eV:     10.6375859
DAV:   7    -0.164904137622E+03    0.19756E-04   -0.51399E-05   256   0.279E-02    0.463E-03
Total vdW correction in eV:     10.6376441
DAV:   8    -0.164904123235E+03    0.14387E-04   -0.29681E-05   304   0.252E-02    0.311E-03
Total vdW correction in eV:     10.6376672
DAV:   9    -0.164904108164E+03    0.15071E-04   -0.19792E-05   248   0.208E-02    0.215E-03
Total vdW correction in eV:     10.6377132
DAV:  10    -0.164904063400E+03    0.44764E-04   -0.96672E-06   224   0.127E-02    0.128E-03
Total vdW correction in eV:     10.6377417
DAV:  11    -0.164904033404E+03    0.29996E-04   -0.27896E-06   224   0.566E-03    0.806E-04
Total vdW correction in eV:     10.6377487
DAV:  12    -0.164904014347E+03    0.19057E-04   -0.18909E-06   208   0.482E-03    0.492E-04
Total vdW correction in eV:     10.6377459
DAV:  13    -0.164904007876E+03    0.64711E-05   -0.54269E-07   256   0.256E-03
Total vdW correction in eV:     10.6377403
   3 F= -.16490401E+03 E0= -.16490401E+03  d E =-.162060E+00  mag=    -0.0000
 BRION: g(F)=  0.635E+00 g(S)=  0.000E+00 retain N=  2 mean eig= 0.34
 eig:   0.337  0.337
 bond charge predicted
       N       E                     dE             d eps       ncg     rms          rms(c)
Total vdW correction in eV:     10.6281139
DAV:   1    -0.165058436925E+03   -0.15442E+00   -0.86056E+00   264   0.103E+01    0.799E-01
Total vdW correction in eV:     10.6254206
DAV:   2    -0.165071684540E+03   -0.13248E-01   -0.22204E-01   272   0.143E+00    0.614E-01
Total vdW correction in eV:     10.6237819
DAV:   3    -0.165067776979E+03    0.39076E-02   -0.16777E-02   288   0.491E-01    0.147E-01
Total vdW correction in eV:     10.6236227
DAV:   4    -0.165068190694E+03   -0.41371E-03   -0.38824E-03   288   0.187E-01    0.589E-02
Total vdW correction in eV:     10.6235528
DAV:   5    -0.165068328523E+03   -0.13783E-03   -0.41748E-04   248   0.757E-02    0.166E-02
Total vdW correction in eV:     10.6235341
DAV:   6    -0.165068395825E+03   -0.67302E-04   -0.82831E-05   304   0.314E-02    0.956E-03
Total vdW correction in eV:     10.6235017
DAV:   7    -0.165068500184E+03   -0.10436E-03   -0.20413E-05   240   0.143E-02    0.371E-03
Total vdW correction in eV:     10.6234726
DAV:   8    -0.165068560229E+03   -0.60044E-04   -0.52012E-06   224   0.861E-03    0.216E-03
Total vdW correction in eV:     10.6234321
DAV:   9    -0.165068646387E+03   -0.86159E-04   -0.11189E-05   208   0.124E-02    0.143E-03
Total vdW correction in eV:     10.6234172
DAV:  10    -0.165068675104E+03   -0.28717E-04   -0.75456E-06   240   0.112E-02    0.110E-03
Total vdW correction in eV:     10.6234056
DAV:  11    -0.165068705203E+03   -0.30099E-04   -0.23582E-06   224   0.469E-03    0.545E-04
Total vdW correction in eV:     10.6233980
DAV:  12    -0.165068729468E+03   -0.24265E-04   -0.13812E-06   240   0.330E-03    0.483E-04
Total vdW correction in eV:     10.6233986
DAV:  13    -0.165068732469E+03   -0.30007E-05   -0.19900E-07   256   0.162E-03
Total vdW correction in eV:     10.6234011
   4 F= -.16506873E+03 E0= -.16506873E+03  d E =-.164725E+00  mag=     0.0000
 BRION: g(F)=  0.156E+00 g(S)=  0.000E+00 retain N=  3 mean eig= 1.67
 eig:   0.568  2.229  2.229
 bond charge predicted
       N       E                     dE             d eps       ncg     rms          rms(c)
Total vdW correction in eV:     10.6314846
DAV:   1    -0.165094711386E+03   -0.25982E-01   -0.48562E+00   240   0.775E+00    0.367E-01
Total vdW correction in eV:     10.6332353
DAV:   2    -0.165101766855E+03   -0.70555E-02   -0.85254E-02   288   0.962E-01    0.320E-01
Total vdW correction in eV:     10.6345835
DAV:   3    -0.165100676979E+03    0.10899E-02   -0.40217E-03   304   0.237E-01    0.152E-01
Total vdW correction in eV:     10.6356556
DAV:   4    -0.165100783042E+03   -0.10606E-03   -0.19971E-03   256   0.155E-01    0.408E-02
Total vdW correction in eV:     10.6357905
DAV:   5    -0.165100776578E+03    0.64643E-05   -0.34984E-04   288   0.672E-02    0.125E-02
Total vdW correction in eV:     10.6358274
DAV:   6    -0.165100779675E+03   -0.30971E-05   -0.61175E-05   256   0.255E-02
Total vdW correction in eV:     10.6358812
   5 F= -.16510078E+03 E0= -.16510078E+03  d E =-.320472E-01  mag=     0.0000
 BRION: g(F)=  0.861E-01 g(S)=  0.000E+00 retain N=  4 mean eig= 2.74
 eig:   4.923  4.923  0.555  0.555
 bond charge predicted
       N       E                     dE             d eps       ncg     rms          rms(c)
Total vdW correction in eV:     10.6302615
DAV:   1    -0.165113871315E+03   -0.13095E-01   -0.14105E+00   264   0.409E+00    0.238E-01
Total vdW correction in eV:     10.6292171
DAV:   2    -0.165115843781E+03   -0.19725E-02   -0.29548E-02   264   0.542E-01    0.197E-01
Total vdW correction in eV:     10.6284991
DAV:   3    -0.165115257331E+03    0.58645E-03   -0.17663E-03   272   0.163E-01    0.589E-02
Total vdW correction in eV:     10.6283438
DAV:   4    -0.165115286775E+03   -0.29445E-04   -0.51381E-04   272   0.690E-02    0.182E-02
Total vdW correction in eV:     10.6283185
DAV:   5    -0.165115300520E+03   -0.13745E-04   -0.41105E-05   272   0.257E-02    0.515E-03
Total vdW correction in eV:     10.6283022
DAV:   6    -0.165115315351E+03   -0.14830E-04   -0.11192E-05   256   0.133E-02    0.312E-03
Total vdW correction in eV:     10.6282881
DAV:   7    -0.165115339995E+03   -0.24645E-04   -0.10281E-05   224   0.142E-02    0.151E-03
Total vdW correction in eV:     10.6282776
DAV:   8    -0.165115346004E+03   -0.60085E-05   -0.77993E-06   256   0.124E-02
Total vdW correction in eV:     10.6282700
   6 F= -.16511535E+03 E0= -.16511535E+03  d E =-.145663E-01  mag=     0.0000
 BRION: g(F)=  0.213E-01 g(S)=  0.000E+00 retain N=  4 mean eig= 3.68
 eig:   7.050  7.050  0.314  0.314
 bond charge predicted
       N       E                     dE             d eps       ncg     rms          rms(c)
Total vdW correction in eV:     10.6293652
DAV:   1    -0.165120452295E+03   -0.51123E-02   -0.23773E-01   256   0.173E+00    0.127E-01
Total vdW correction in eV:     10.6296874
DAV:   2    -0.165120833359E+03   -0.38106E-03   -0.59211E-03   264   0.253E-01    0.103E-01
Total vdW correction in eV:     10.6299433
DAV:   3    -0.165120738000E+03    0.95359E-04   -0.82839E-04   288   0.107E-01    0.304E-02
Total vdW correction in eV:     10.6299766
DAV:   4    -0.165120744268E+03   -0.62674E-05   -0.18126E-04   272   0.448E-02    0.157E-02
Total vdW correction in eV:     10.6300401
DAV:   5    -0.165120741951E+03    0.23165E-05   -0.35133E-05   272   0.199E-02
Total vdW correction in eV:     10.6300324
   7 F= -.16512074E+03 E0= -.16512074E+03  d E =-.539595E-02  mag=     0.0000
 BRION: g(F)=  0.721E-02 g(S)=  0.000E+00 retain N=  2 mean eig= 1.28
 eig:   0.260  2.299
 bond charge predicted
       N       E                     dE             d eps       ncg     rms          rms(c)
Total vdW correction in eV:     10.6293208
DAV:   1    -0.165123288678E+03   -0.25444E-02   -0.17899E-01   240   0.148E+00    0.976E-02
Total vdW correction in eV:     10.6292251
DAV:   2    -0.165123508045E+03   -0.21937E-03   -0.33152E-03   264   0.185E-01    0.738E-02
Total vdW correction in eV:     10.6291292
DAV:   3    -0.165123457294E+03    0.50752E-04   -0.24075E-04   272   0.615E-02    0.217E-02
Total vdW correction in eV:     10.6291142
DAV:   4    -0.165123456533E+03    0.76081E-06   -0.63183E-05   280   0.262E-02
Total vdW correction in eV:     10.6291216
   8 F= -.16512346E+03 E0= -.16512346E+03  d E =-.271458E-02  mag=    -0.0000
 BRION: g(F)=  0.815E-02 g(S)=  0.000E+00 retain N=  3 mean eig= 1.16
 eig:   0.254  1.614  1.614
 bond charge predicted
       N       E                     dE             d eps       ncg     rms          rms(c)
Total vdW correction in eV:     10.6291144
DAV:   1    -0.165125474670E+03   -0.20174E-02   -0.87796E-02   272   0.101E+00    0.624E-02
Total vdW correction in eV:     10.6292197
DAV:   2    -0.165125603861E+03   -0.12919E-03   -0.17136E-03   264   0.135E-01    0.507E-02
Total vdW correction in eV:     10.6293638
DAV:   3    -0.165125581593E+03    0.22268E-04   -0.12860E-04   288   0.485E-02    0.126E-02
Total vdW correction in eV:     10.6294026
DAV:   4    -0.165125586569E+03   -0.49761E-05   -0.52515E-05   272   0.270E-02
Total vdW correction in eV:     10.6294036
   9 F= -.16512559E+03 E0= -.16512559E+03  d E =-.213004E-02  mag=     0.0000
 BRION: g(F)=  0.376E-02 g(S)=  0.000E+00 retain N=  2 mean eig= 2.40
 eig:   0.254  4.541
 bond charge predicted
       N       E                     dE             d eps       ncg     rms          rms(c)
Total vdW correction in eV:     10.6285784
DAV:   1    -0.165128012297E+03   -0.24307E-02   -0.76702E-02   240   0.932E-01    0.741E-02
Total vdW correction in eV:     10.6285149
DAV:   2    -0.165128072626E+03   -0.60329E-04   -0.12223E-03   240   0.112E-01    0.504E-02
Total vdW correction in eV:     10.6284943
DAV:   3    -0.165128084517E+03   -0.11892E-04   -0.16512E-04   244   0.557E-02    0.114E-02
Total vdW correction in eV:     10.6285043
DAV:   4    -0.165128079680E+03    0.48372E-05   -0.14399E-04   240   0.539E-02    0.528E-03
Total vdW correction in eV:     10.6285090
DAV:   5    -0.165128061395E+03    0.18285E-04   -0.81148E-05   240   0.410E-02    0.322E-03
Total vdW correction in eV:     10.6285134
DAV:   6    -0.165128049392E+03    0.12003E-04   -0.14997E-05   272   0.173E-02    0.930E-04
Total vdW correction in eV:     10.6285127
DAV:   7    -0.165128050076E+03   -0.68452E-06   -0.51197E-07   256   0.287E-03
Total vdW correction in eV:     10.6285121
  10 F= -.16512805E+03 E0= -.16512805E+03  d E =-.246351E-02  mag=    -0.0000
 BRION: g(F)=  0.335E-02 g(S)=  0.000E+00 retain N=  2 mean eig= 0.82
 eig:   0.281  1.359
 bond charge predicted
       N       E                     dE             d eps       ncg     rms          rms(c)
Total vdW correction in eV:     10.6285024
DAV:   1    -0.165130020935E+03   -0.19715E-02   -0.47778E-02   240   0.749E-01    0.599E-02
Total vdW correction in eV:     10.6285827
DAV:   2    -0.165130062224E+03   -0.41289E-04   -0.56968E-04   248   0.771E-02    0.397E-02
Total vdW correction in eV:     10.6286721
DAV:   3    -0.165130067778E+03   -0.55541E-05   -0.40340E-05   272   0.280E-02
Total vdW correction in eV:     10.6286893
  11 F= -.16513007E+03 E0= -.16513007E+03  d E =-.201770E-02  mag=    -0.0000
 BRION: g(F)=  0.294E-02 g(S)=  0.000E+00 retain N=  2 mean eig= 1.60
 eig:   0.133  3.068
 bond charge predicted
       N       E                     dE             d eps       ncg     rms          rms(c)
Total vdW correction in eV:     10.6277510
DAV:   1    -0.165133320409E+03   -0.32582E-02   -0.18941E-01   240   0.146E+00    0.113E-01
Total vdW correction in eV:     10.6277414
DAV:   2    -0.165133465579E+03   -0.14517E-03   -0.23127E-03   256   0.155E-01    0.748E-02
Total vdW correction in eV:     10.6278275
DAV:   3    -0.165133440543E+03    0.25036E-04   -0.17017E-04   264   0.559E-02    0.141E-02
Total vdW correction in eV:     10.6278569
DAV:   4    -0.165133444208E+03   -0.36654E-05   -0.49397E-05   256   0.240E-02
Total vdW correction in eV:     10.6278604
  12 F= -.16513344E+03 E0= -.16513344E+03  d E =-.337643E-02  mag=    -0.0000
 BRION: g(F)=  0.316E-02 g(S)=  0.000E+00 retain N=  2 mean eig= 0.32
 eig:   0.319  0.319
 bond charge predicted
       N       E                     dE             d eps       ncg     rms          rms(c)
Total vdW correction in eV:     10.6276147
DAV:   1    -0.165133825814E+03   -0.38527E-03   -0.24812E-02   288   0.539E-01    0.340E-02
Total vdW correction in eV:     10.6275663
DAV:   2    -0.165133856756E+03   -0.30942E-04   -0.56705E-04   256   0.777E-02    0.280E-02
Total vdW correction in eV:     10.6275110
DAV:   3    -0.165133850367E+03    0.63891E-05   -0.71893E-05   256   0.357E-02
Total vdW correction in eV:     10.6275085
  13 F= -.16513385E+03 E0= -.16513385E+03  d E =-.406158E-03  mag=    -0.0000
 BRION: g(F)=  0.291E-02 g(S)=  0.000E+00 retain N=  2 mean eig= 1.01
 eig:   0.337  1.673
 bond charge predicted
       N       E                     dE             d eps       ncg     rms          rms(c)
Total vdW correction in eV:     10.6274898
DAV:   1    -0.165135687489E+03   -0.18307E-02   -0.60077E-02   240   0.838E-01    0.658E-02
Total vdW correction in eV:     10.6275958
DAV:   2    -0.165135740266E+03   -0.52776E-04   -0.74514E-04   240   0.915E-02    0.443E-02
Total vdW correction in eV:     10.6277247
DAV:   3    -0.165135772537E+03   -0.32271E-04   -0.10338E-04   240   0.495E-02    0.867E-03
Total vdW correction in eV:     10.6277493
DAV:   4    -0.165135767192E+03    0.53444E-05   -0.11322E-04   240   0.501E-02    0.434E-03
Total vdW correction in eV:     10.6277491
DAV:   5    -0.165135742516E+03    0.24676E-04   -0.36685E-05   240   0.293E-02    0.274E-03
Total vdW correction in eV:     10.6277497
DAV:   6    -0.165135739680E+03    0.28358E-05   -0.38970E-06   224   0.942E-03
Total vdW correction in eV:     10.6277505
  14 F= -.16513574E+03 E0= -.16513574E+03  d E =-.188931E-02  mag=    -0.0000
 BRION: g(F)=  0.250E-02 g(S)=  0.000E+00 retain N=  2 mean eig= 0.97
 eig:   0.259  1.671
 bond charge predicted
       N       E                     dE             d eps       ncg     rms          rms(c)
Total vdW correction in eV:     10.6271804
DAV:   1    -0.165136722057E+03   -0.97954E-03   -0.25431E-02   240   0.535E-01    0.388E-02
Total vdW correction in eV:     10.6271255
DAV:   2    -0.165136740556E+03   -0.18500E-04   -0.39228E-04   248   0.636E-02    0.276E-02
Total vdW correction in eV:     10.6270939
DAV:   3    -0.165136729961E+03    0.10596E-04   -0.30959E-05   248   0.224E-02    0.502E-03
Total vdW correction in eV:     10.6270975
DAV:   4    -0.165136729631E+03    0.32910E-06   -0.76910E-06   256   0.879E-03
Total vdW correction in eV:     10.6271015
  15 F= -.16513673E+03 E0= -.16513673E+03  d E =-.989951E-03  mag=    -0.0000
 BRION: g(F)=  0.201E-02 g(S)=  0.000E+00 retain N=  2 mean eig= 2.11
 eig:   0.299  3.929
 bond charge predicted
       N       E                     dE             d eps       ncg     rms          rms(c)
Total vdW correction in eV:     10.6265215
DAV:   1    -0.165138913389E+03   -0.21834E-02   -0.88843E-02   240   0.101E+00    0.839E-02
Total vdW correction in eV:     10.6265371
DAV:   2    -0.165138977488E+03   -0.64098E-04   -0.10398E-03   240   0.102E-01    0.539E-02
Total vdW correction in eV:     10.6265929
DAV:   3    -0.165138976996E+03    0.49222E-06   -0.70169E-05   256   0.357E-02
Total vdW correction in eV:     10.6266113
  16 F= -.16513898E+03 E0= -.16513898E+03  d E =-.224736E-02  mag=     0.0000
 BRION: g(F)=  0.193E-02 g(S)=  0.000E+00 retain N=  2 mean eig= 0.28
 eig:   0.283  0.283
 bond charge predicted
       N       E                     dE             d eps       ncg     rms          rms(c)
Total vdW correction in eV:     10.6266140
DAV:   1    -0.165139726715E+03   -0.74923E-03   -0.30007E-02   240   0.591E-01    0.394E-02
Total vdW correction in eV:     10.6266897
DAV:   2    -0.165139769985E+03   -0.43270E-04   -0.51241E-04   240   0.732E-02    0.293E-02
Total vdW correction in eV:     10.6267824
DAV:   3    -0.165139774542E+03   -0.45572E-05   -0.40964E-05   240   0.280E-02
Total vdW correction in eV:     10.6268015
  17 F= -.16513977E+03 E0= -.16513977E+03  d E =-.797547E-03  mag=     0.0000
 BRION: g(F)=  0.214E-02 g(S)=  0.000E+00 retain N=  2 mean eig= 0.25
 eig:   0.131  0.373
 bond charge predicted
       N       E                     dE             d eps       ncg     rms          rms(c)
Total vdW correction in eV:     10.6257765
DAV:   1    -0.165141501663E+03   -0.17317E-02   -0.83610E-02   240   0.981E-01    0.777E-02
Total vdW correction in eV:     10.6256823
DAV:   2    -0.165141563725E+03   -0.62062E-04   -0.11853E-03   240   0.111E-01    0.522E-02
Total vdW correction in eV:     10.6256281
DAV:   3    -0.165141554215E+03    0.95103E-05   -0.10248E-04   256   0.431E-02    0.109E-02
Total vdW correction in eV:     10.6256329
DAV:   4    -0.165141553302E+03    0.91315E-06   -0.51226E-05   240   0.315E-02
Total vdW correction in eV:     10.6256394
  18 F= -.16514155E+03 E0= -.16514155E+03  d E =-.177876E-02  mag=    -0.0000
 BRION: g(F)=  0.210E-02 g(S)=  0.000E+00 retain N=  2 mean eig= 1.03
 eig:   0.278  1.776
 bond charge predicted
       N       E                     dE             d eps       ncg     rms          rms(c)
Total vdW correction in eV:     10.6260112
DAV:   1    -0.165141543314E+03    0.10901E-04   -0.97897E-03   240   0.344E-01    0.215E-02
Total vdW correction in eV:     10.6260840
DAV:   2    -0.165141561767E+03   -0.18453E-04   -0.21924E-04   240   0.522E-02    0.184E-02
Total vdW correction in eV:     10.6261463
DAV:   3    -0.165141575765E+03   -0.13998E-04   -0.40117E-05   256   0.293E-02    0.482E-03
Total vdW correction in eV:     10.6261550
DAV:   4    -0.165141576735E+03   -0.96934E-06   -0.49454E-05   240   0.330E-02
Total vdW correction in eV:     10.6261519
  19 F= -.16514158E+03 E0= -.16514158E+03  d E =-.234328E-04  mag=     0.0000
 BRION: g(F)=  0.153E-02 g(S)=  0.000E+00 retain N=  2 mean eig= 1.62
 eig:   0.215  3.024
 bond charge predicted
       N       E                     dE             d eps       ncg     rms          rms(c)
Total vdW correction in eV:     10.6257254
DAV:   1    -0.165142937341E+03   -0.13616E-02   -0.51144E-02   240   0.763E-01    0.606E-02
Total vdW correction in eV:     10.6257496
DAV:   2    -0.165142972007E+03   -0.34666E-04   -0.56289E-04   256   0.766E-02    0.391E-02
Total vdW correction in eV:     10.6258072
DAV:   3    -0.165142971344E+03    0.66297E-06   -0.41238E-05   264   0.278E-02
Total vdW correction in eV:     10.6258263
  20 F= -.16514297E+03 E0= -.16514297E+03  d E =-.139461E-02  mag=     0.0000
 BRION: g(F)=  0.132E-02 g(S)=  0.000E+00 retain N=  2 mean eig= 0.27
 eig:   0.272  0.262
 bond charge predicted
       N       E                     dE             d eps       ncg     rms          rms(c)
Total vdW correction in eV:     10.6251387
DAV:   1    -0.165143967256E+03   -0.99525E-03   -0.33148E-02   240   0.622E-01    0.500E-02
Total vdW correction in eV:     10.6250783
DAV:   2    -0.165143987350E+03   -0.20095E-04   -0.43617E-04   240   0.669E-02    0.332E-02
Total vdW correction in eV:     10.6250363
DAV:   3    -0.165143981234E+03    0.61164E-05   -0.32030E-05   256   0.243E-02
Total vdW correction in eV:     10.6250372
  21 F= -.16514398E+03 E0= -.16514398E+03  d E =-.100989E-02  mag=     0.0000
 BRION: g(F)=  0.149E-02 g(S)=  0.000E+00 retain N=  2 mean eig= 0.54
 eig:   0.156  0.932
 bond charge predicted
       N       E                     dE             d eps       ncg     rms          rms(c)
Total vdW correction in eV:     10.6247485
DAV:   1    -0.165145948031E+03   -0.19607E-02   -0.13813E-01   240   0.126E+00    0.102E-01
Total vdW correction in eV:     10.6248800
DAV:   2    -0.165146049839E+03   -0.10181E-03   -0.14770E-03   240   0.124E-01    0.660E-02
Total vdW correction in eV:     10.6250721
DAV:   3    -0.165146063125E+03   -0.13286E-04   -0.11181E-04   240   0.478E-02    0.130E-02
Total vdW correction in eV:     10.6251148
DAV:   4    -0.165146065004E+03   -0.18793E-05   -0.52005E-05   240   0.313E-02
Total vdW correction in eV:     10.6251153
  22 F= -.16514607E+03 E0= -.16514607E+03  d E =-.208377E-02  mag=    -0.0000
 BRION: g(F)=  0.161E-02 g(S)=  0.000E+00 retain N=  2 mean eig= 0.83
 eig:   0.182  1.487
 bond charge predicted
       N       E                     dE             d eps       ncg     rms          rms(c)
Total vdW correction in eV:     10.6250926
DAV:   1    -0.165145161875E+03    0.90125E-03   -0.35001E-02   240   0.649E-01    0.492E-02
Total vdW correction in eV:     10.6249954
DAV:   2    -0.165145181181E+03   -0.19306E-04   -0.52339E-04   240   0.775E-02    0.345E-02
Total vdW correction in eV:     10.6248966
DAV:   3    -0.165145183086E+03   -0.19047E-05   -0.74468E-05   240   0.412E-02
Total vdW correction in eV:     10.6248742
  23 F= -.16514518E+03 E0= -.16514518E+03  d E =0.881919E-03  mag=    -0.0000
 BRION: g(F)=  0.139E-02 g(S)=  0.000E+00 retain N=  2 mean eig= 1.03
 eig:   0.354  1.699
 bond charge predicted
       N       E                     dE             d eps       ncg     rms          rms(c)
Total vdW correction in eV:     10.6243409
DAV:   1    -0.165146420188E+03   -0.12390E-02   -0.47935E-02   240   0.745E-01    0.612E-02
Total vdW correction in eV:     10.6243386
DAV:   2    -0.165146440412E+03   -0.20223E-04   -0.59642E-04   240   0.855E-02    0.394E-02
Total vdW correction in eV:     10.6243609
DAV:   3    -0.165146504766E+03   -0.64355E-04   -0.18221E-04   240   0.658E-02    0.953E-03
Total vdW correction in eV:     10.6243720
DAV:   4    -0.165146487534E+03    0.17232E-04   -0.26273E-04   240   0.774E-02    0.474E-03
Total vdW correction in eV:     10.6243742
DAV:   5    -0.165146427451E+03    0.60083E-04   -0.68638E-05   240   0.396E-02    0.209E-03
Total vdW correction in eV:     10.6243770
DAV:   6    -0.165146427969E+03   -0.51714E-06   -0.12715E-06   224   0.515E-03
Total vdW correction in eV:     10.6243771
  24 F= -.16514643E+03 E0= -.16514643E+03  d E =-.124488E-02  mag=     0.0000
 BRION: g(F)=  0.102E-02 g(S)=  0.000E+00 retain N=  2 mean eig= 0.43
 eig:   0.348  0.519
 bond charge predicted
       N       E                     dE             d eps       ncg     rms          rms(c)
Total vdW correction in eV:     10.6243125
DAV:   1    -0.165147107854E+03   -0.68040E-03   -0.21490E-02   240   0.497E-01    0.379E-02
Total vdW correction in eV:     10.6243768
DAV:   2    -0.165147130194E+03   -0.22340E-04   -0.24985E-04   256   0.513E-02    0.251E-02
Total vdW correction in eV:     10.6244593
DAV:   3    -0.165147136194E+03   -0.60001E-05   -0.17394E-05   224   0.187E-02
Total vdW correction in eV:     10.6244797
  25 F= -.16514714E+03 E0= -.16514714E+03  d E =-.708226E-03  mag=     0.0000
 BRION: g(F)=  0.957E-03 g(S)=  0.000E+00 retain N=  2 mean eig= 0.41
 eig:   0.160  0.659
 bond charge predicted
       N       E                     dE             d eps       ncg     rms          rms(c)
Total vdW correction in eV:     10.6233820
DAV:   1    -0.165148713191E+03   -0.15830E-02   -0.11983E-01   240   0.117E+00    0.952E-02
Total vdW correction in eV:     10.6233171
DAV:   2    -0.165148786792E+03   -0.73601E-04   -0.13219E-03   240   0.117E-01    0.612E-02
Total vdW correction in eV:     10.6233101
DAV:   3    -0.165148773619E+03    0.13173E-04   -0.86509E-05   264   0.402E-02    0.126E-02
Total vdW correction in eV:     10.6233239
DAV:   4    -0.165148774513E+03   -0.89341E-06   -0.24632E-05   240   0.182E-02
Total vdW correction in eV:     10.6233333
  26 F= -.16514877E+03 E0= -.16514877E+03  d E =-.163832E-02  mag=     0.0000
 BRION: g(F)=  0.102E-02 g(S)=  0.000E+00 retain N=  2 mean eig= 0.67
 eig:   0.155  1.183
 bond charge predicted
       N       E                     dE             d eps       ncg     rms          rms(c)
Total vdW correction in eV:     10.6239282
DAV:   1    -0.165148294564E+03    0.47906E-03   -0.22320E-02   240   0.512E-01    0.338E-02
Total vdW correction in eV:     10.6240065
DAV:   2    -0.165148326966E+03   -0.32401E-04   -0.37903E-04   240   0.651E-02    0.258E-02
Total vdW correction in eV:     10.6240721
DAV:   3    -0.165148332890E+03   -0.59246E-05   -0.37661E-05   256   0.270E-02
Total vdW correction in eV:     10.6240735
  27 F= -.16514833E+03 E0= -.16514833E+03  d E =0.441623E-03  mag=    -0.0000
 BRION: g(F)=  0.133E-02 g(S)=  0.000E+00 retain N=  2 mean eig= 0.35
 eig:   0.152  0.543
 bond charge predicted
       N       E                     dE             d eps       ncg     rms          rms(c)
Total vdW correction in eV:     10.6237306
DAV:   1    -0.165149180652E+03   -0.85369E-03   -0.38289E-02   240   0.662E-01    0.499E-02
Total vdW correction in eV:     10.6237525
DAV:   2    -0.165149208285E+03   -0.27633E-04   -0.49492E-04   240   0.742E-02    0.336E-02
Total vdW correction in eV:     10.6238013
DAV:   3    -0.165149219088E+03   -0.10802E-04   -0.60202E-05   240   0.358E-02    0.728E-03
Total vdW correction in eV:     10.6238201
DAV:   4    -0.165149214482E+03    0.46052E-05   -0.52736E-05   240   0.332E-02
Total vdW correction in eV:     10.6238227
  28 F= -.16514921E+03 E0= -.16514921E+03  d E =-.881592E-03  mag=    -0.0000
 BRION: g(F)=  0.823E-03 g(S)=  0.000E+00 retain N=  2 mean eig= 1.17
 eig:   0.256  2.094
 bond charge predicted
       N       E                     dE             d eps       ncg     rms          rms(c)
Total vdW correction in eV:     10.6234022
DAV:   1    -0.165149585465E+03   -0.36638E-03   -0.85180E-03   240   0.318E-01    0.250E-02
Total vdW correction in eV:     10.6233555
DAV:   2    -0.165149586467E+03   -0.10018E-05   -0.11656E-04   240   0.357E-02    0.169E-02
Total vdW correction in eV:     10.6233192
DAV:   3    -0.165149583752E+03    0.27152E-05   -0.12361E-05   208   0.168E-02
Total vdW correction in eV:     10.6233149
  29 F= -.16514958E+03 E0= -.16514958E+03  d E =-.369269E-03  mag=     0.0000
 BRION: g(F)=  0.674E-03 g(S)=  0.000E+00 retain N=  2 mean eig= 0.53
 eig:   0.198  0.857
 bond charge predicted
       N       E                     dE             d eps       ncg     rms          rms(c)
Total vdW correction in eV:     10.6230049
DAV:   1    -0.165150407355E+03   -0.82089E-03   -0.39827E-02   240   0.677E-01    0.546E-02
Total vdW correction in eV:     10.6230539
DAV:   2    -0.165150435422E+03   -0.28067E-04   -0.42585E-04   240   0.676E-02    0.350E-02
Total vdW correction in eV:     10.6231305
DAV:   3    -0.165150450551E+03   -0.15129E-04   -0.46618E-05   240   0.326E-02    0.755E-03
Total vdW correction in eV:     10.6231519
DAV:   4    -0.165150449541E+03    0.10102E-05   -0.43210E-05   240   0.305E-02
Total vdW correction in eV:     10.6231525
  30 F= -.16515045E+03 E0= -.16515045E+03  d E =-.865789E-03  mag=     0.0000
 BRION: g(F)=  0.648E-03 g(S)=  0.000E+00 retain N=  2 mean eig= 0.18
 eig:   0.048  0.308
 bond charge predicted
       N       E                     dE             d eps       ncg     rms          rms(c)
Total vdW correction in eV:     10.6226838
DAV:   1    -0.165150757278E+03   -0.30673E-03   -0.14441E-02   240   0.411E-01    0.293E-02
Total vdW correction in eV:     10.6226281
DAV:   2    -0.165150766818E+03   -0.95397E-05   -0.23297E-04   240   0.502E-02    0.212E-02
Total vdW correction in eV:     10.6225841
DAV:   3    -0.165150761826E+03    0.49914E-05   -0.19300E-05   232   0.183E-02
Total vdW correction in eV:     10.6225833
  31 F= -.16515076E+03 E0= -.16515076E+03  d E =-.312286E-03  mag=     0.0000
 BRION: g(F)=  0.908E-03 g(S)=  0.000E+00 retain N=  2 mean eig= 0.45
 eig:   0.396  0.497
 bond charge predicted
       N       E                     dE             d eps       ncg     rms          rms(c)
Total vdW correction in eV:     10.6222378
DAV:   1    -0.165151365694E+03   -0.59888E-03   -0.24057E-02   240   0.536E-01    0.436E-02
Total vdW correction in eV:     10.6222454
DAV:   2    -0.165151384803E+03   -0.19109E-04   -0.30398E-04   240   0.575E-02    0.293E-02
Total vdW correction in eV:     10.6222675
DAV:   3    -0.165151391044E+03   -0.62415E-05   -0.29237E-05   224   0.252E-02
Total vdW correction in eV:     10.6222760
  32 F= -.16515139E+03 E0= -.16515139E+03  d E =-.629218E-03  mag=     0.0000
 BRION: g(F)=  0.714E-03 g(S)=  0.000E+00 retain N=  2 mean eig= 1.31
 eig:   0.230  2.397
 bond charge predicted
       N       E                     dE             d eps       ncg     rms          rms(c)
Total vdW correction in eV:     10.6225733
DAV:   1    -0.165151329117E+03    0.55685E-04   -0.30308E-03   240   0.195E-01    0.122E-02
Total vdW correction in eV:     10.6226356
DAV:   2    -0.165151336880E+03   -0.77622E-05   -0.75081E-05   240   0.327E-02
Total vdW correction in eV:     10.6226876
  33 F= -.16515134E+03 E0= -.16515134E+03  d E =0.541645E-04  mag=     0.0000
 BRION: g(F)=  0.546E-03 g(S)=  0.000E+00 retain N=  2 mean eig= 0.48
 eig:   0.284  0.684
 bond charge predicted
       N       E                     dE             d eps       ncg     rms          rms(c)
Total vdW correction in eV:     10.6223001
DAV:   1    -0.165151826093E+03   -0.49698E-03   -0.16322E-02   240   0.433E-01    0.336E-02
Total vdW correction in eV:     10.6222943
DAV:   2    -0.165151831973E+03   -0.58801E-05   -0.20220E-04   240   0.506E-02    0.216E-02
Total vdW correction in eV:     10.6223043
DAV:   3    -0.165151856576E+03   -0.24603E-04   -0.64092E-05   240   0.391E-02    0.599E-03
Total vdW correction in eV:     10.6223129
DAV:   4    -0.165151847032E+03    0.95442E-05   -0.89128E-05   240   0.451E-02
Total vdW correction in eV:     10.6223153
  34 F= -.16515185E+03 E0= -.16515185E+03  d E =-.510152E-03  mag=    -0.0000
 BRION: g(F)=  0.473E-03 g(S)=  0.000E+00 retain N=  2 mean eig= 0.22
 eig:   0.294  0.145
 bond charge predicted
       N       E                     dE             d eps       ncg     rms          rms(c)
Total vdW correction in eV:     10.6220177
DAV:   1    -0.165152512968E+03   -0.65639E-03   -0.39380E-02   240   0.676E-01    0.556E-02
Total vdW correction in eV:     10.6220655
DAV:   2    -0.165152541062E+03   -0.28094E-04   -0.41730E-04   240   0.657E-02    0.356E-02
Total vdW correction in eV:     10.6221382
DAV:   3    -0.165152544592E+03   -0.35299E-05   -0.26958E-05   224   0.220E-02
Total vdW correction in eV:     10.6221582
  35 F= -.16515254E+03 E0= -.16515254E+03  d E =-.697560E-03  mag=     0.0000
 BRION: g(F)=  0.597E-03 g(S)=  0.000E+00 retain N=  2 mean eig= 0.82
 eig:   0.819  0.819
 bond charge predicted
       N       E                     dE             d eps       ncg     rms          rms(c)
Total vdW correction in eV:     10.6214697
DAV:   1    -0.165153460643E+03   -0.91958E-03   -0.96402E-02   240   0.105E+00    0.825E-02
Total vdW correction in eV:     10.6214856
DAV:   2    -0.165153529461E+03   -0.68818E-04   -0.10616E-03   240   0.106E-01    0.539E-02
Total vdW correction in eV:     10.6215551
DAV:   3    -0.165153524608E+03    0.48526E-05   -0.69438E-05   256   0.369E-02
Total vdW correction in eV:     10.6215817
  36 F= -.16515352E+03 E0= -.16515352E+03  d E =-.980016E-03  mag=    -0.0000
 BRION: g(F)=  0.626E-03 g(S)=  0.000E+00 retain N=  2 mean eig= 1.01
 eig:   0.166  1.851
 bond charge predicted
       N       E                     dE             d eps       ncg     rms          rms(c)
Total vdW correction in eV:     10.6216605
DAV:   1    -0.165152797111E+03    0.73235E-03   -0.54902E-02   240   0.798E-01    0.607E-02
Total vdW correction in eV:     10.6215461
DAV:   2    -0.165152821752E+03   -0.24641E-04   -0.64543E-04   240   0.835E-02    0.403E-02
Total vdW correction in eV:     10.6214155
DAV:   3    -0.165152802538E+03    0.19213E-04   -0.50868E-05   256   0.324E-02    0.832E-03
Total vdW correction in eV:     10.6213825
DAV:   4    -0.165152804605E+03   -0.20666E-05   -0.26160E-05   240   0.220E-02
Total vdW correction in eV:     10.6213821
  37 F= -.16515280E+03 E0= -.16515280E+03  d E =0.720004E-03  mag=     0.0000
 BRION: g(F)=  0.653E-03 g(S)=  0.000E+00 retain N=  2 mean eig= 0.49
 eig:   0.342  0.636
 bond charge predicted
       N       E                     dE             d eps       ncg     rms          rms(c)
Total vdW correction in eV:     10.6211882
DAV:   1    -0.165153427694E+03   -0.62516E-03   -0.34465E-02   240   0.631E-01    0.502E-02
Total vdW correction in eV:     10.6212528
DAV:   2    -0.165153453781E+03   -0.26087E-04   -0.36557E-04   240   0.631E-02    0.324E-02
Total vdW correction in eV:     10.6213422
DAV:   3    -0.165153469481E+03   -0.15700E-04   -0.44467E-05   240   0.316E-02    0.648E-03
Total vdW correction in eV:     10.6213624
DAV:   4    -0.165153468943E+03    0.53764E-06   -0.41667E-05   240   0.302E-02
Total vdW correction in eV:     10.6213624
  38 F= -.16515347E+03 E0= -.16515347E+03  d E =-.664338E-03  mag=    -0.0000
 BRION: g(F)=  0.369E-03 g(S)=  0.000E+00 retain N=  2 mean eig= 1.07
 eig:   0.327  1.804
 bond charge predicted
       N       E                     dE             d eps       ncg     rms          rms(c)
Total vdW correction in eV:     10.6210736
DAV:   1    -0.165153788482E+03   -0.31900E-03   -0.11554E-02   240   0.366E-01    0.297E-02
Total vdW correction in eV:     10.6210677
DAV:   2    -0.165153794702E+03   -0.62199E-05   -0.13072E-04   240   0.379E-02    0.191E-02
Total vdW correction in eV:     10.6210732
DAV:   3    -0.165153798325E+03   -0.36225E-05   -0.16050E-05   224   0.187E-02
Total vdW correction in eV:     10.6210795
  39 F= -.16515380E+03 E0= -.16515380E+03  d E =-.329381E-03  mag=    -0.0000
 BRION: g(F)=  0.350E-03 g(S)=  0.000E+00 retain N=  2 mean eig= 0.28
 eig:   0.279  0.279
 bond charge predicted
       N       E                     dE             d eps       ncg     rms          rms(c)
Total vdW correction in eV:     10.6205500
DAV:   1    -0.165154356856E+03   -0.56215E-03   -0.40944E-02   240   0.686E-01    0.544E-02
Total vdW correction in eV:     10.6205480
DAV:   2    -0.165154382752E+03   -0.25895E-04   -0.45357E-04   240   0.706E-02    0.353E-02
Total vdW correction in eV:     10.6205774
DAV:   3    -0.165154394711E+03   -0.11959E-04   -0.57424E-05   240   0.365E-02    0.775E-03
Total vdW correction in eV:     10.6205924
DAV:   4    -0.165154393459E+03    0.12521E-05   -0.62356E-05   240   0.368E-02
Total vdW correction in eV:     10.6205944
  40 F= -.16515439E+03 E0= -.16515439E+03  d E =-.595135E-03  mag=     0.0000
 BRION: g(F)=  0.374E-03 g(S)=  0.000E+00 retain N=  2 mean eig= 1.47
 eig:   0.148  2.793
 bond charge predicted
       N       E                     dE             d eps       ncg     rms          rms(c)
Total vdW correction in eV:     10.6210021
DAV:   1    -0.165154352288E+03    0.42423E-04   -0.39959E-03   240   0.223E-01    0.130E-02
Total vdW correction in eV:     10.6210969
DAV:   2    -0.165154366717E+03   -0.14429E-04   -0.83522E-05   272   0.305E-02    0.111E-02
Total vdW correction in eV:     10.6211761
DAV:   3    -0.165154372942E+03   -0.62243E-05   -0.71819E-06   224   0.120E-02
Total vdW correction in eV:     10.6211993
  41 F= -.16515437E+03 E0= -.16515437E+03  d E =0.205178E-04  mag=     0.0000
 BRION: g(F)=  0.546E-03 g(S)=  0.000E+00 retain N=  2 mean eig= 0.08
 eig:   0.083  0.083
 bond charge predicted
       N       E                     dE             d eps       ncg     rms          rms(c)
Total vdW correction in eV:     10.6207901
DAV:   1    -0.165154547272E+03   -0.18055E-03   -0.48509E-03   240   0.242E-01    0.168E-02
Total vdW correction in eV:     10.6207238
DAV:   2    -0.165154544127E+03    0.31447E-05   -0.85663E-05   240   0.322E-02
Total vdW correction in eV:     10.6206668
  42 F= -.16515454E+03 E0= -.16515454E+03  d E =-.171186E-03  mag=     0.0000
 BRION: g(F)=  0.295E-03 g(S)=  0.000E+00 retain N=  2 mean eig= 1.13
 eig:   0.258  2.012
 bond charge predicted
       N       E                     dE             d eps       ncg     rms          rms(c)
Total vdW correction in eV:     10.6205397
DAV:   1    -0.165154739642E+03   -0.19237E-03   -0.56360E-03   240   0.257E-01    0.217E-02
Total vdW correction in eV:     10.6205535
DAV:   2    -0.165154741217E+03   -0.15747E-05   -0.85547E-05   240   0.353E-02
Total vdW correction in eV:     10.6205768
  43 F= -.16515474E+03 E0= -.16515474E+03  d E =-.197090E-03  mag=     0.0000
 BRION: g(F)=  0.246E-03 g(S)=  0.000E+00 retain N=  2 mean eig= 0.23
 eig:   0.218  0.236
 bond charge predicted
       N       E                     dE             d eps       ncg     rms          rms(c)
Total vdW correction in eV:     10.6203732
DAV:   1    -0.165155000003E+03   -0.26036E-03   -0.80594E-03   240   0.309E-01    0.269E-02
Total vdW correction in eV:     10.6203835
DAV:   2    -0.165154993558E+03    0.64454E-05   -0.15626E-04   240   0.530E-02    0.173E-02
Total vdW correction in eV:     10.6204037
DAV:   3    -0.165155070121E+03   -0.76563E-04   -0.18083E-04   240   0.645E-02    0.612E-03
Total vdW correction in eV:     10.6204110
DAV:   4    -0.165154997524E+03    0.72597E-04   -0.18236E-04   240   0.633E-02    0.237E-03
Total vdW correction in eV:     10.6204123
DAV:   5    -0.165154980090E+03    0.17434E-04   -0.17947E-05   224   0.196E-02    0.883E-04
Total vdW correction in eV:     10.6204138
DAV:   6    -0.165154980198E+03   -0.10881E-06   -0.34699E-07   224   0.243E-03
Total vdW correction in eV:     10.6204146
  44 F= -.16515498E+03 E0= -.16515498E+03  d E =-.238981E-03  mag=    -0.0000
 BRION: g(F)=  0.272E-03 g(S)=  0.000E+00 retain N=  2 mean eig= 2.49
 eig:   0.279  4.696
 bond charge predicted
       N       E                     dE             d eps       ncg     rms          rms(c)
Total vdW correction in eV:     10.6202692
DAV:   1    -0.165155047134E+03   -0.67045E-04   -0.95601E-04   256   0.107E-01    0.772E-03
Total vdW correction in eV:     10.6202495
DAV:   2    -0.165155046438E+03    0.69678E-06   -0.13625E-05   240   0.125E-02
Total vdW correction in eV:     10.6202318
  45 F= -.16515505E+03 E0= -.16515505E+03  d E =-.662391E-04  mag=     0.0000
 BRION: g(F)=  0.256E-03 g(S)=  0.000E+00 retain N=  2 mean eig= 0.14
 eig:   0.129  0.151
 bond charge predicted
       N       E                     dE             d eps       ncg     rms          rms(c)
Total vdW correction in eV:     10.6202686
DAV:   1    -0.165155109839E+03   -0.62705E-04   -0.83910E-04   240   0.101E-01    0.769E-03
Total vdW correction in eV:     10.6202928
DAV:   2    -0.165155113107E+03   -0.32676E-05   -0.10946E-05   224   0.115E-02
Total vdW correction in eV:     10.6203227
  46 F= -.16515511E+03 E0= -.16515511E+03  d E =-.666692E-04  mag=    -0.0000
 BRION: g(F)=  0.233E-03 g(S)=  0.000E+00 retain N=  2 mean eig= 1.14
 eig:   0.249  2.025
 bond charge predicted
       N       E                     dE             d eps       ncg     rms          rms(c)
Total vdW correction in eV:     10.6200110
DAV:   1    -0.165155410549E+03   -0.30071E-03   -0.13708E-02   240   0.398E-01    0.325E-02
Total vdW correction in eV:     10.6200077
DAV:   2    -0.165155418221E+03   -0.76721E-05   -0.14147E-04   240   0.386E-02    0.209E-02
Total vdW correction in eV:     10.6200198
DAV:   3    -0.165155418885E+03   -0.66415E-06   -0.10234E-05   208   0.152E-02
Total vdW correction in eV:     10.6200257
  47 F= -.16515542E+03 E0= -.16515542E+03  d E =-.305778E-03  mag=     0.0000
 BRION: g(F)=  0.248E-03 g(S)=  0.000E+00 retain N=  2 mean eig= 0.16
 eig:   0.164  0.164
 bond charge predicted
       N       E                     dE             d eps       ncg     rms          rms(c)
Total vdW correction in eV:     10.6200840
DAV:   1    -0.165155355668E+03    0.62553E-04   -0.11721E-03   240   0.119E-01    0.839E-03
Total vdW correction in eV:     10.6200853
DAV:   2    -0.165155356174E+03   -0.50642E-06   -0.22933E-05   240   0.172E-02
Total vdW correction in eV:     10.6200843
  48 F= -.16515536E+03 E0= -.16515536E+03  d E =0.627106E-04  mag=     0.0000
 BRION: g(F)=  0.247E-03 g(S)=  0.000E+00 retain N=  2 mean eig= 3.10
 eig:   0.358  5.841
 bond charge predicted
       N       E                     dE             d eps       ncg     rms          rms(c)
Total vdW correction in eV:     10.6198931
DAV:   1    -0.165155625791E+03   -0.27012E-03   -0.12507E-02   240   0.380E-01    0.287E-02
Total vdW correction in eV:     10.6199124
DAV:   2    -0.165155635370E+03   -0.95785E-05   -0.13897E-04   240   0.396E-02    0.186E-02
Total vdW correction in eV:     10.6199442
DAV:   3    -0.165155643177E+03   -0.78073E-05   -0.19333E-05   224   0.216E-02
Total vdW correction in eV:     10.6199568
  49 F= -.16515564E+03 E0= -.16515564E+03  d E =-.287003E-03  mag=    -0.0000
 BRION: g(F)=  0.216E-03 g(S)=  0.000E+00 retain N=  2 mean eig= 0.34
 eig:   0.154  0.535
 bond charge predicted
       N       E                     dE             d eps       ncg     rms          rms(c)
Total vdW correction in eV:     10.6195850
DAV:   1    -0.165155820230E+03   -0.18486E-03   -0.66770E-03   240   0.281E-01    0.221E-02
Total vdW correction in eV:     10.6195454
DAV:   2    -0.165155817539E+03    0.26908E-05   -0.95169E-05   240   0.363E-02
Total vdW correction in eV:     10.6195161
  50 F= -.16515582E+03 E0= -.16515582E+03  d E =-.174363E-03  mag=     0.0000
 BRION: g(F)=  0.243E-03 g(S)=  0.000E+00 retain N=  2 mean eig= 0.72
 eig:   0.723  0.723
 bond charge predicted
       N       E                     dE             d eps       ncg     rms          rms(c)
Total vdW correction in eV:     10.6188763
DAV:   1    -0.165156545817E+03   -0.72559E-03   -0.12662E-01   240   0.121E+00    0.997E-02
Total vdW correction in eV:     10.6189273
DAV:   2    -0.165156616147E+03   -0.70330E-04   -0.13646E-03   240   0.124E-01    0.640E-02
Total vdW correction in eV:     10.6190419
DAV:   3    -0.165156688128E+03   -0.71981E-04   -0.24528E-04   248   0.753E-02    0.133E-02
Total vdW correction in eV:     10.6190740
DAV:   4    -0.165156673181E+03    0.14947E-04   -0.29386E-04   240   0.812E-02    0.595E-03
Total vdW correction in eV:     10.6190763
DAV:   5    -0.165156604534E+03    0.68647E-04   -0.90086E-05   240   0.457E-02    0.330E-03
Total vdW correction in eV:     10.6190797
DAV:   6    -0.165156601972E+03    0.25624E-05   -0.38994E-06   224   0.916E-03
Total vdW correction in eV:     10.6190811
  51 F= -.16515660E+03 E0= -.16515660E+03  d E =-.784432E-03  mag=     0.0000
 BRION: g(F)=  0.349E-03 g(S)=  0.000E+00 retain N=  2 mean eig= 0.43
 eig:   0.197  0.657
 bond charge predicted
       N       E                     dE             d eps       ncg     rms          rms(c)
Total vdW correction in eV:     10.6197978
DAV:   1    -0.165155915936E+03    0.68860E-03   -0.90206E-02   240   0.102E+00    0.809E-02
Total vdW correction in eV:     10.6197789
DAV:   2    -0.165155972831E+03   -0.56895E-04   -0.98084E-04   240   0.101E-01    0.525E-02
Total vdW correction in eV:     10.6197400
DAV:   3    -0.165155959113E+03    0.13718E-04   -0.65604E-05   272   0.346E-02    0.109E-02
Total vdW correction in eV:     10.6197188
DAV:   4    -0.165155962305E+03   -0.31922E-05   -0.16795E-05   224   0.150E-02
Total vdW correction in eV:     10.6197129
  52 F= -.16515596E+03 E0= -.16515596E+03  d E =0.639667E-03  mag=    -0.0000
 BRION: g(F)=  0.255E-03 g(S)=  0.000E+00 retain N=  2 mean eig= 1.34
 eig:   0.358  2.325
 bond charge predicted
       N       E                     dE             d eps       ncg     rms          rms(c)
Total vdW correction in eV:     10.6193233
DAV:   1    -0.165156287452E+03   -0.32834E-03   -0.20616E-02   240   0.488E-01    0.388E-02
Total vdW correction in eV:     10.6193143
DAV:   2    -0.165156297434E+03   -0.99824E-05   -0.21514E-04   240   0.481E-02    0.250E-02
Total vdW correction in eV:     10.6193249
DAV:   3    -0.165156299337E+03   -0.19031E-05   -0.21214E-05   224   0.214E-02
Total vdW correction in eV:     10.6193328
  53 F= -.16515630E+03 E0= -.16515630E+03  d E =-.337032E-03  mag=    -0.0000
 BRION: g(F)=  0.176E-03 g(S)=  0.000E+00 retain N=  2 mean eig= 0.81
 eig:   0.553  1.058
 bond charge predicted
       N       E                     dE             d eps       ncg     rms          rms(c)
Total vdW correction in eV:     10.6190276
DAV:   1    -0.165156610132E+03   -0.31270E-03   -0.24964E-02   240   0.537E-01    0.423E-02
Total vdW correction in eV:     10.6190501
DAV:   2    -0.165156626585E+03   -0.16454E-04   -0.27036E-04   240   0.547E-02    0.274E-02
Total vdW correction in eV:     10.6190954
DAV:   3    -0.165156638642E+03   -0.12057E-04   -0.35036E-05   240   0.278E-02    0.628E-03
Total vdW correction in eV:     10.6191106
DAV:   4    -0.165156636484E+03    0.21578E-05   -0.35820E-05   240   0.273E-02
Total vdW correction in eV:     10.6191117
  54 F= -.16515664E+03 E0= -.16515664E+03  d E =-.337147E-03  mag=     0.0000
 BRION: g(F)=  0.197E-03 g(S)=  0.000E+00 retain N=  2 mean eig= 0.47
 eig:   0.466  0.466
 bond charge predicted
       N       E                     dE             d eps       ncg     rms          rms(c)
Total vdW correction in eV:     10.6186052
DAV:   1    -0.165157064818E+03   -0.42618E-03   -0.52876E-02   240   0.784E-01    0.645E-02
Total vdW correction in eV:     10.6186120
DAV:   2    -0.165157096324E+03   -0.31505E-04   -0.53890E-04   240   0.746E-02    0.411E-02
Total vdW correction in eV:     10.6186504
DAV:   3    -0.165157096648E+03   -0.32385E-06   -0.33798E-05   264   0.252E-02
Total vdW correction in eV:     10.6186661
  55 F= -.16515710E+03 E0= -.16515710E+03  d E =-.460163E-03  mag=    -0.0000
 BRION: g(F)=  0.202E-03 g(S)=  0.000E+00 retain N=  3 mean eig= 3.25
 eig:   6.406  2.564  0.774
 bond charge predicted
       N       E                     dE             d eps       ncg     rms          rms(c)
Total vdW correction in eV:     10.6158379
DAV:   1    -0.165157978198E+03   -0.88187E-03   -0.13549E+00   240   0.395E+00    0.315E-01
Total vdW correction in eV:     10.6157495
DAV:   2    -0.165158832560E+03   -0.85436E-03   -0.14014E-02   240   0.381E-01    0.202E-01
Total vdW correction in eV:     10.6159654
DAV:   3    -0.165158707989E+03    0.12457E-03   -0.87349E-04   272   0.129E-01    0.423E-02
Total vdW correction in eV:     10.6160454
DAV:   4    -0.165158733334E+03   -0.25345E-04   -0.24708E-04   240   0.545E-02    0.136E-02
Total vdW correction in eV:     10.6160628
DAV:   5    -0.165158730262E+03    0.30716E-05   -0.32198E-05   240   0.254E-02
Total vdW correction in eV:     10.6160690
  56 F= -.16515873E+03 E0= -.16515873E+03  d E =-.163361E-02  mag=     0.0000
 BRION: g(F)=  0.187E-03 g(S)=  0.000E+00 retain N=  3 mean eig= 2.64
 eig:   3.366  3.366  1.194
 bond charge predicted
       N       E                     dE             d eps       ncg     rms          rms(c)
Total vdW correction in eV:     10.6177167
DAV:   1    -0.165157823882E+03    0.90945E-03   -0.36448E-01   240   0.205E+00    0.162E-01
Total vdW correction in eV:     10.6177266
DAV:   2    -0.165158050656E+03   -0.22677E-03   -0.38827E-03   240   0.203E-01    0.105E-01
Total vdW correction in eV:     10.6177076
DAV:   3    -0.165158043194E+03    0.74628E-05   -0.29155E-04   264   0.788E-02    0.224E-02
Total vdW correction in eV:     10.6176741
DAV:   4    -0.165158050399E+03   -0.72058E-05   -0.16390E-04   240   0.563E-02    0.768E-03
Total vdW correction in eV:     10.6176667
DAV:   5    -0.165158024716E+03    0.25684E-04   -0.58792E-05   240   0.378E-02    0.518E-03
Total vdW correction in eV:     10.6176591
DAV:   6    -0.165158018740E+03    0.59757E-05   -0.13905E-05   240   0.174E-02
Total vdW correction in eV:     10.6176594
  57 F= -.16515802E+03 E0= -.16515802E+03  d E =0.711522E-03  mag=    -0.0000
 BRION: g(F)=  0.491E-03 g(S)=  0.000E+00 retain N=  4 mean eig= 3.37
 eig:   5.992  5.992  1.197  0.280
 bond charge predicted
       N       E                     dE             d eps       ncg     rms          rms(c)
Total vdW correction in eV:     10.6151640
DAV:   1    -0.165158525151E+03   -0.50044E-03   -0.11549E+00   240   0.365E+00    0.291E-01
Total vdW correction in eV:     10.6151019
DAV:   2    -0.165159235106E+03   -0.70996E-03   -0.11933E-02   248   0.352E-01    0.187E-01
Total vdW correction in eV:     10.6153097
DAV:   3    -0.165159121772E+03    0.11333E-03   -0.74086E-04   272   0.118E-01    0.394E-02
Total vdW correction in eV:     10.6153840
DAV:   4    -0.165159141246E+03   -0.19473E-04   -0.20177E-04   272   0.479E-02    0.125E-02
Total vdW correction in eV:     10.6153994
DAV:   5    -0.165159134379E+03    0.68664E-05   -0.15440E-05   192   0.158E-02
Total vdW correction in eV:     10.6154072
  58 F= -.16515913E+03 E0= -.16515913E+03  d E =-.111564E-02  mag=    -0.0000
 BRION: g(F)=  0.377E-04 g(S)=  0.000E+00 retain N=  1 mean eig= 1.03
 eig:   1.031
 bond charge predicted
       N       E                     dE             d eps       ncg     rms          rms(c)
Total vdW correction in eV:     10.6155703
DAV:   1    -0.165159143431E+03   -0.21849E-05   -0.16372E-03   240   0.137E-01    0.108E-02
Total vdW correction in eV:     10.6155841
DAV:   2    -0.165159147253E+03   -0.38220E-05   -0.23989E-05   224   0.172E-02
Total vdW correction in eV:     10.6155912
  59 F= -.16515915E+03 E0= -.16515915E+03  d E =-.128734E-04  mag=     0.0000
 BRION: g(F)=  0.563E-04 g(S)=  0.000E+00 retain N=  2 mean eig= 0.62
 eig:   0.999  0.233
 bond charge predicted
       N       E                     dE             d eps       ncg     rms          rms(c)
Total vdW correction in eV:     10.6154967
DAV:   1    -0.165159172767E+03   -0.29337E-04   -0.72175E-04   240   0.906E-02    0.591E-03
Total vdW correction in eV:     10.6154857
DAV:   2    -0.165159171143E+03    0.16247E-05   -0.18530E-05   240   0.177E-02
Total vdW correction in eV:     10.6154817
  60 F= -.16515917E+03 E0= -.16515917E+03  d E =-.238900E-04  mag=     0.0000
 BRION: g(F)=  0.330E-04 g(S)=  0.000E+00 retain N=  2 mean eig= 3.29
 eig:   0.228  6.355
 reached required accuracy - stopping structural energy minimisation
--------------------------------------------------------
>>>  Job finished at Mon May 11 17:56:42 EDT 2020
