>>>  VASP 5.4.4 with BEEF-vdw and vtst
--------------------------------------------------------
>>>  Job information
     SLURM_JOBID=2852431
     SLURM_JOB_NODELIST=cpn-u25-27
     SLURM_NNODES=1
     SLURMTMPDIR=/scratch/2852431
     working directory = /projects/academic/ericwalk/kevingie/decane_nox_gas_phase/C8H17
--------------------------------------------------------
>>>  Module information
The Intel compilers are in your path. This is adequate for compiling and
running most codes. Source
/util/academic/intel/17.0/compilers_and_libraries_2017/linux/bin/compilervars.sh
for more features. 
 The MKL Libraries are in your library path. This is adequate for compiling and
running most codes. Source $MKL/bin/mklvars.sh" for more features. 
 Intel-MPI is in your path. This is adequate for compiling and running most
codes. Source the
/util/academic/intel/17.0/compilers_and_libraries_2017/linux/mpi/intel64/bin/mpivars.sh
file for more features. 

Currently Loaded Modules:
  1) intel/17.0   2) mkl/2017.0.1   3) intel-mpi/2017.0.1

 

--------------------------------------------------------
>>>  Running Configuration
NPROCS=16
--------------------------------------------------------
>>>  Job started at Fri May  1 18:50:11 EDT 2020
--------------------------------------------------------
 running on   16 total cores
 distrk:  each k-point on   16 cores,    1 groups
 distr:  one band on    4 cores,    4 groups
 using from now: INCAR     
 vasp.5.4.4.18Apr17-6-g9f103f2a35 (build Dec 31 2018 11:41:54) complex          
  
 POSCAR found type information on POSCAR  C  H 
 POSCAR found :  2 types and      25 ions
 scaLAPACK will be used

     **************************************************************************
     Initializing libbeef V0.1.3 with the BEEF-vdW functional.
     Citation: Wellendorff et al., PRB 85, 235149 (2012).
     **************************************************************************


 ----------------------------------------------------------------------------- 
|                                                                             |
|  ADVICE TO THIS USER RUNNING 'VASP/VAMP'   (HEAR YOUR MASTER'S VOICE ...):  |
|                                                                             |
|      You have switched on vdW-DFT.                                          |
|      This routine was written and supplied by Jiri Klimes.                  |
|      We recommed that you carefully read and cite the following             |
|      publication                                                            |
|      J. Klimes, D.R. Bowler, A. Michelides                                  |
|        J. Phys.: Cond Matt. 22 022201 (2010)                                |
|      J. Klimes, D.R. Bowler, A. Michelides                                  |
|        Phys. Rev. B. 83, 195131 (2011)                                      |
|      and references therein.                                                |
|                                                                             |
 ----------------------------------------------------------------------------- 


 ----------------------------------------------------------------------------- 
|                                                                             |
|  ADVICE TO THIS USER RUNNING 'VASP/VAMP'   (HEAR YOUR MASTER'S VOICE ...):  |
|                                                                             |
|      You enforced a specific xc-type in the INCAR file,                     |
|      a different type was found on the POTCAR file                          |
|          I HOPE YOU KNOW, WHAT YOU ARE  DOING                               |
|                                                                             |
 ----------------------------------------------------------------------------- 

 LDA part: xc-table for Pade appr. of Perdew
 POSCAR found type information on POSCAR  C  H 
 POSCAR found :  2 types and      25 ions
 POSCAR, INCAR and KPOINTS ok, starting setup
 FFT: planning ...
 WAVECAR not read
 entering main loop
       N       E                     dE             d eps       ncg     rms          rms(c)
Total vdW correction in eV:      8.3588069
DAV:   1     0.305722022825E+03    0.30572E+03   -0.13581E+04   224   0.513E+02
DAV:   2    -0.457694755414E+02   -0.35149E+03   -0.32962E+03   308   0.138E+02
DAV:   3    -0.120248032700E+03   -0.74479E+02   -0.73824E+02   264   0.664E+01
DAV:   4    -0.123451516097E+03   -0.32035E+01   -0.31919E+01   312   0.178E+01
DAV:   5    -0.123506975453E+03   -0.55459E-01   -0.55393E-01   304   0.203E+00    0.316E+01
Total vdW correction in eV:      8.5861133
DAV:   6     0.130296529606E+01    0.12481E+03   -0.36222E+02   244   0.634E+01    0.151E+01
Total vdW correction in eV:      8.9175734
DAV:   7    -0.928108265604E+02   -0.94114E+02   -0.88426E+01   272   0.278E+01    0.851E+00
Total vdW correction in eV:      9.1539339
DAV:   8    -0.101404980146E+03   -0.85942E+01   -0.12261E+01   272   0.107E+01    0.559E+00
Total vdW correction in eV:      9.3575073
DAV:   9    -0.127105615548E+03   -0.25701E+02   -0.21384E+01   248   0.116E+01    0.322E+00
Total vdW correction in eV:      9.4035503
DAV:  10    -0.133712902255E+03   -0.66073E+01   -0.41321E+00   248   0.610E+00    0.190E+00
Total vdW correction in eV:      9.4394723
DAV:  11    -0.139562962713E+03   -0.58501E+01   -0.48543E+00   216   0.542E+00    0.126E+00
Total vdW correction in eV:      9.3881980
DAV:  12    -0.140505568026E+03   -0.94261E+00   -0.52159E-01   248   0.265E+00    0.610E-01
Total vdW correction in eV:      9.3673848
DAV:  13    -0.141151224990E+03   -0.64566E+00   -0.24581E-01   224   0.155E+00    0.357E-01
Total vdW correction in eV:      9.3567333
DAV:  14    -0.141350743864E+03   -0.19952E+00   -0.32995E-02   228   0.776E-01    0.187E-01
Total vdW correction in eV:      9.3404595
DAV:  15    -0.141443246763E+03   -0.92503E-01   -0.12230E-02   224   0.437E-01    0.921E-02
Total vdW correction in eV:      9.3366569
DAV:  16    -0.141464102009E+03   -0.20855E-01   -0.29638E-03   248   0.219E-01    0.520E-02
Total vdW correction in eV:      9.3337888
DAV:  17    -0.141470773379E+03   -0.66714E-02   -0.22717E-03   224   0.184E-01    0.310E-02
Total vdW correction in eV:      9.3297223
DAV:  18    -0.141473333123E+03   -0.25597E-02   -0.91688E-04   244   0.126E-01    0.206E-02
Total vdW correction in eV:      9.3289571
DAV:  19    -0.141474448083E+03   -0.11150E-02   -0.36360E-04   240   0.676E-02    0.130E-02
Total vdW correction in eV:      9.3283992
DAV:  20    -0.141475578496E+03   -0.11304E-02   -0.37127E-04   216   0.556E-02    0.895E-03
Total vdW correction in eV:      9.3283315
DAV:  21    -0.141476129702E+03   -0.55121E-03   -0.12997E-04   228   0.366E-02    0.492E-03
Total vdW correction in eV:      9.3285831
DAV:  22    -0.141476466238E+03   -0.33654E-03   -0.74442E-05   224   0.314E-02    0.487E-03
Total vdW correction in eV:      9.3288896
DAV:  23    -0.141476627257E+03   -0.16102E-03   -0.32164E-05   240   0.230E-02    0.325E-03
Total vdW correction in eV:      9.3289771
DAV:  24    -0.141476666970E+03   -0.39713E-04   -0.12489E-05   224   0.144E-02    0.170E-03
Total vdW correction in eV:      9.3290550
DAV:  25    -0.141476678601E+03   -0.11631E-04   -0.11724E-05   208   0.104E-02    0.160E-03
Total vdW correction in eV:      9.3290427
DAV:  26    -0.141476652944E+03    0.25658E-04   -0.23188E-06   192   0.579E-03    0.918E-04
Total vdW correction in eV:      9.3289972
DAV:  27    -0.141476614971E+03    0.37972E-04   -0.15486E-06   184   0.429E-03    0.475E-04
Total vdW correction in eV:      9.3289808
DAV:  28    -0.141476589194E+03    0.25778E-04   -0.67211E-07   208   0.262E-03    0.428E-04
Total vdW correction in eV:      9.3289780
DAV:  29    -0.141476580676E+03    0.85172E-05   -0.24365E-07   192   0.169E-03
Total vdW correction in eV:      9.3289774
   1 F= -.14147658E+03 E0= -.14147658E+03  d E =-.141477E+03  mag=     1.0000
 BRION: g(F)=  0.538E+00 g(S)=  0.000E+00
 bond charge predicted
       N       E                     dE             d eps       ncg     rms          rms(c)
Total vdW correction in eV:      9.3354194
DAV:   1    -0.138271736881E+03    0.32049E+01   -0.74691E+01   208   0.365E+01    0.190E+00
Total vdW correction in eV:      9.3372168
DAV:   2    -0.141546606228E+03   -0.32749E+01   -0.60779E+00   232   0.828E+00    0.114E+00
Total vdW correction in eV:      9.3389023
DAV:   3    -0.141643235638E+03   -0.96629E-01   -0.31791E-01   228   0.160E+00    0.659E-01
Total vdW correction in eV:      9.3405645
DAV:   4    -0.141639219902E+03    0.40157E-02   -0.56844E-02   248   0.816E-01    0.314E-01
Total vdW correction in eV:      9.3417663
DAV:   5    -0.141644232215E+03   -0.50123E-02   -0.15269E-02   240   0.476E-01    0.153E-01
Total vdW correction in eV:      9.3421789
DAV:   6    -0.141646473632E+03   -0.22414E-02   -0.20445E-03   236   0.196E-01    0.730E-02
Total vdW correction in eV:      9.3425396
DAV:   7    -0.141648466285E+03   -0.19927E-02   -0.11345E-03   236   0.130E-01    0.263E-02
Total vdW correction in eV:      9.3426619
DAV:   8    -0.141648886911E+03   -0.42063E-03   -0.17947E-04   240   0.693E-02    0.139E-02
Total vdW correction in eV:      9.3427260
DAV:   9    -0.141649456940E+03   -0.57003E-03   -0.55469E-05   240   0.313E-02    0.811E-03
Total vdW correction in eV:      9.3427835
DAV:  10    -0.141649841797E+03   -0.38486E-03   -0.31084E-05   240   0.253E-02    0.539E-03
Total vdW correction in eV:      9.3428167
DAV:  11    -0.141649954995E+03   -0.11320E-03   -0.90257E-06   200   0.140E-02    0.302E-03
Total vdW correction in eV:      9.3428485
DAV:  12    -0.141649987139E+03   -0.32144E-04   -0.77820E-06   184   0.997E-03    0.179E-03
Total vdW correction in eV:      9.3428677
DAV:  13    -0.141649977392E+03    0.97471E-05   -0.46194E-06   184   0.752E-03
Total vdW correction in eV:      9.3428747
   2 F= -.14164998E+03 E0= -.14164998E+03  d E =-.173397E+00  mag=     1.0000
 BRION: g(F)=  0.359E+00 g(S)=  0.000E+00 retain N=  1 mean eig= 0.46
 eig:   0.459
 bond charge predicted
       N       E                     dE             d eps       ncg     rms          rms(c)
Total vdW correction in eV:      9.3258426
DAV:   1    -0.141718755395E+03   -0.68768E-01   -0.11507E+01   240   0.120E+01    0.750E-01
Total vdW correction in eV:      9.3222961
DAV:   2    -0.141729125831E+03   -0.10370E-01   -0.21432E-01   232   0.161E+00    0.534E-01
Total vdW correction in eV:      9.3204004
DAV:   3    -0.141724417588E+03    0.47082E-02   -0.23834E-02   256   0.604E-01    0.199E-01
Total vdW correction in eV:      9.3198880
DAV:   4    -0.141724795580E+03   -0.37799E-03   -0.69260E-03   228   0.305E-01    0.874E-02
Total vdW correction in eV:      9.3199498
DAV:   5    -0.141725085914E+03   -0.29033E-03   -0.87410E-04   232   0.130E-01    0.431E-02
Total vdW correction in eV:      9.3197972
DAV:   6    -0.141725351772E+03   -0.26586E-03   -0.34784E-04   248   0.734E-02    0.155E-02
Total vdW correction in eV:      9.3197715
DAV:   7    -0.141725384083E+03   -0.32311E-04   -0.44719E-05   240   0.360E-02    0.897E-03
Total vdW correction in eV:      9.3197253
DAV:   8    -0.141725486044E+03   -0.10196E-03   -0.23034E-05   228   0.242E-02    0.434E-03
Total vdW correction in eV:      9.3196708
DAV:   9    -0.141725539199E+03   -0.53155E-04   -0.12984E-05   204   0.175E-02    0.282E-03
Total vdW correction in eV:      9.3196269
DAV:  10    -0.141725586182E+03   -0.46983E-04   -0.50978E-06   200   0.947E-03    0.180E-03
Total vdW correction in eV:      9.3195602
DAV:  11    -0.141725664462E+03   -0.78280E-04   -0.92963E-06   216   0.919E-03    0.180E-03
Total vdW correction in eV:      9.3195208
DAV:  12    -0.141725710030E+03   -0.45568E-04   -0.32406E-06   200   0.756E-03    0.111E-03
Total vdW correction in eV:      9.3195045
DAV:  13    -0.141725727776E+03   -0.17746E-04   -0.20762E-06   200   0.530E-03    0.571E-04
Total vdW correction in eV:      9.3195024
DAV:  14    -0.141725733829E+03   -0.60531E-05   -0.91452E-07   200   0.335E-03
Total vdW correction in eV:      9.3195019
   3 F= -.14172573E+03 E0= -.14172573E+03  d E =-.757564E-01  mag=     1.0000
 BRION: g(F)=  0.139E+00 g(S)=  0.000E+00 retain N=  2 mean eig= 1.06
 eig:   0.233  1.890
 bond charge predicted
       N       E                     dE             d eps       ncg     rms          rms(c)
Total vdW correction in eV:      9.3286186
DAV:   1    -0.141743740515E+03   -0.18013E-01   -0.28770E+00   208   0.640E+00    0.384E-01
Total vdW correction in eV:      9.3307372
DAV:   2    -0.141748688286E+03   -0.49478E-02   -0.57424E-02   236   0.837E-01    0.292E-01
Total vdW correction in eV:      9.3322937
DAV:   3    -0.141747925162E+03    0.76312E-03   -0.36339E-03   232   0.260E-01    0.140E-01
Total vdW correction in eV:      9.3337822
DAV:   4    -0.141748267058E+03   -0.34190E-03   -0.24351E-03   232   0.196E-01    0.516E-02
Total vdW correction in eV:      9.3335906
DAV:   5    -0.141748143304E+03    0.12375E-03   -0.45286E-04   216   0.983E-02    0.256E-02
Total vdW correction in eV:      9.3337601
DAV:   6    -0.141748136578E+03    0.67260E-05   -0.25908E-04   216   0.566E-02    0.140E-02
Total vdW correction in eV:      9.3338327
DAV:   7    -0.141748118442E+03    0.18136E-04   -0.43548E-05   216   0.303E-02    0.634E-03
Total vdW correction in eV:      9.3338834
DAV:   8    -0.141748096576E+03    0.21865E-04   -0.11926E-05   192   0.129E-02    0.306E-03
Total vdW correction in eV:      9.3339627
DAV:   9    -0.141748062148E+03    0.34429E-04   -0.59590E-06   184   0.109E-02    0.165E-03
Total vdW correction in eV:      9.3340117
DAV:  10    -0.141748044716E+03    0.17431E-04   -0.20760E-06   192   0.557E-03    0.136E-03
Total vdW correction in eV:      9.3340708
DAV:  11    -0.141748008649E+03    0.36068E-04   -0.25892E-06   192   0.586E-03    0.743E-04
Total vdW correction in eV:      9.3341103
DAV:  12    -0.141747975477E+03    0.33172E-04   -0.24141E-06   192   0.496E-03    0.111E-03
Total vdW correction in eV:      9.3341166
DAV:  13    -0.141747967410E+03    0.80665E-05   -0.72189E-07   200   0.275E-03
Total vdW correction in eV:      9.3341182
   4 F= -.14174797E+03 E0= -.14174797E+03  d E =-.222336E-01  mag=     1.0000
 BRION: g(F)=  0.801E-01 g(S)=  0.000E+00 retain N=  3 mean eig= 2.87
 eig:   7.453  0.308  0.851
 bond charge predicted
       N       E                     dE             d eps       ncg     rms          rms(c)
Total vdW correction in eV:      9.3275571
DAV:   1    -0.141762891881E+03   -0.14916E-01   -0.17004E+00   208   0.476E+00    0.299E-01
Total vdW correction in eV:      9.3261149
DAV:   2    -0.141766524710E+03   -0.36328E-02   -0.30752E-02   228   0.595E-01    0.189E-01
Total vdW correction in eV:      9.3255163
DAV:   3    -0.141767054729E+03   -0.53002E-03   -0.18471E-03   236   0.172E-01    0.111E-01
Total vdW correction in eV:      9.3246622
DAV:   4    -0.141767113442E+03   -0.58713E-04   -0.83113E-04   240   0.121E-01    0.251E-02
Total vdW correction in eV:      9.3247137
DAV:   5    -0.141767090292E+03    0.23150E-04   -0.21258E-04   224   0.602E-02    0.122E-02
Total vdW correction in eV:      9.3247254
DAV:   6    -0.141767091491E+03   -0.11990E-05   -0.30425E-05   240   0.236E-02
Total vdW correction in eV:      9.3246873
   5 F= -.14176709E+03 E0= -.14176709E+03  d E =-.191241E-01  mag=     1.0000
 BRION: g(F)=  0.219E-01 g(S)=  0.000E+00 retain N=  4 mean eig= 3.53
 eig:   0.195  0.366  7.740  5.821
 bond charge predicted
       N       E                     dE             d eps       ncg     rms          rms(c)
Total vdW correction in eV:      9.3269676
DAV:   1    -0.141772630368E+03   -0.55401E-02   -0.35431E-01   224   0.216E+00    0.143E-01
Total vdW correction in eV:      9.3274229
DAV:   2    -0.141773736885E+03   -0.11065E-02   -0.71671E-03   232   0.295E-01    0.943E-02
Total vdW correction in eV:      9.3276342
DAV:   3    -0.141773676912E+03    0.59973E-04   -0.38693E-04   228   0.825E-02    0.553E-02
Total vdW correction in eV:      9.3279494
DAV:   4    -0.141773787021E+03   -0.11011E-03   -0.26136E-04   232   0.692E-02    0.137E-02
Total vdW correction in eV:      9.3279135
DAV:   5    -0.141773737686E+03    0.49334E-04   -0.67603E-05   224   0.342E-02    0.778E-03
Total vdW correction in eV:      9.3279036
DAV:   6    -0.141773721980E+03    0.15706E-04   -0.79459E-06   188   0.124E-02    0.383E-03
Total vdW correction in eV:      9.3279084
DAV:   7    -0.141773712350E+03    0.96299E-05   -0.61973E-06   184   0.108E-02
Total vdW correction in eV:      9.3279069
   6 F= -.14177371E+03 E0= -.14177371E+03  d E =-.662086E-02  mag=     1.0000
 BRION: g(F)=  0.765E-02 g(S)=  0.000E+00 retain N=  2 mean eig= 0.29
 eig:   0.153  0.426
 bond charge predicted
       N       E                     dE             d eps       ncg     rms          rms(c)
Total vdW correction in eV:      9.3279378
DAV:   1    -0.141778544259E+03   -0.48223E-02   -0.18836E-01   208   0.163E+00    0.119E-01
Total vdW correction in eV:      9.3278501
DAV:   2    -0.141779132686E+03   -0.58843E-03   -0.34839E-03   224   0.204E-01    0.746E-02
Total vdW correction in eV:      9.3278056
DAV:   3    -0.141779096421E+03    0.36265E-04   -0.28195E-04   216   0.695E-02    0.415E-02
Total vdW correction in eV:      9.3277600
DAV:   4    -0.141779143700E+03   -0.47279E-04   -0.10624E-04   224   0.447E-02    0.107E-02
Total vdW correction in eV:      9.3277627
DAV:   5    -0.141779100598E+03    0.43102E-04   -0.22118E-05   192   0.224E-02    0.568E-03
Total vdW correction in eV:      9.3277625
DAV:   6    -0.141779083582E+03    0.17016E-04   -0.73404E-06   172   0.120E-02    0.235E-03
Total vdW correction in eV:      9.3277592
DAV:   7    -0.141779077557E+03    0.60248E-05   -0.29783E-06   172   0.777E-03
Total vdW correction in eV:      9.3277546
   7 F= -.14177908E+03 E0= -.14177908E+03  d E =-.536521E-02  mag=     1.0000
 BRION: g(F)=  0.727E-02 g(S)=  0.000E+00 retain N=  3 mean eig= 1.89
 eig:   5.095  0.294  0.294
 bond charge predicted
       N       E                     dE             d eps       ncg     rms          rms(c)
Total vdW correction in eV:      9.3285018
DAV:   1    -0.141783741971E+03   -0.46584E-02   -0.18376E-01   208   0.161E+00    0.117E-01
Total vdW correction in eV:      9.3285070
DAV:   2    -0.141784136236E+03   -0.39426E-03   -0.31471E-03   216   0.188E-01    0.752E-02
Total vdW correction in eV:      9.3285305
DAV:   3    -0.141784103582E+03    0.32654E-04   -0.19325E-04   224   0.586E-02    0.391E-02
Total vdW correction in eV:      9.3285455
DAV:   4    -0.141784120661E+03   -0.17080E-04   -0.78815E-05   216   0.400E-02    0.915E-03
Total vdW correction in eV:      9.3285377
DAV:   5    -0.141784097705E+03    0.22956E-04   -0.17062E-05   192   0.183E-02    0.459E-03
Total vdW correction in eV:      9.3285323
DAV:   6    -0.141784090862E+03    0.68429E-05   -0.41533E-06   176   0.831E-03
Total vdW correction in eV:      9.3285293
   8 F= -.14178409E+03 E0= -.14178409E+03  d E =-.501331E-02  mag=     1.0000
 BRION: g(F)=  0.594E-02 g(S)=  0.000E+00 retain N=  3 mean eig= 1.33
 eig:   3.580  0.335  0.071
 bond charge predicted
       N       E                     dE             d eps       ncg     rms          rms(c)
Total vdW correction in eV:      9.3275063
DAV:   1    -0.141786905741E+03   -0.28080E-02   -0.15341E-01   208   0.145E+00    0.935E-02
Total vdW correction in eV:      9.3271361
DAV:   2    -0.141787110352E+03   -0.20461E-03   -0.25287E-03   224   0.174E-01    0.672E-02
Total vdW correction in eV:      9.3268699
DAV:   3    -0.141787046859E+03    0.63494E-04   -0.13422E-04   240   0.523E-02    0.297E-02
Total vdW correction in eV:      9.3266597
DAV:   4    -0.141787052029E+03   -0.51701E-05   -0.10034E-04   216   0.401E-02    0.102E-02
Total vdW correction in eV:      9.3266782
DAV:   5    -0.141787032342E+03    0.19687E-04   -0.15758E-05   184   0.180E-02    0.631E-03
Total vdW correction in eV:      9.3266725
DAV:   6    -0.141787036151E+03   -0.38096E-05   -0.88733E-06   176   0.113E-02
Total vdW correction in eV:      9.3266652
   9 F= -.14178704E+03 E0= -.14178704E+03  d E =-.294529E-02  mag=     1.0000
 BRION: g(F)=  0.770E-02 g(S)=  0.000E+00 retain N=  3 mean eig= 1.47
 eig:   3.937  0.090  0.381
 bond charge predicted
       N       E                     dE             d eps       ncg     rms          rms(c)
Total vdW correction in eV:      9.3290653
DAV:   1    -0.141790537558E+03   -0.35052E-02   -0.13402E-01   208   0.137E+00    0.982E-02
Total vdW correction in eV:      9.3294422
DAV:   2    -0.141790814761E+03   -0.27720E-03   -0.22564E-03   216   0.158E-01    0.647E-02
Total vdW correction in eV:      9.3297085
DAV:   3    -0.141790819591E+03   -0.48306E-05   -0.12847E-04   224   0.479E-02    0.302E-02
Total vdW correction in eV:      9.3298828
DAV:   4    -0.141790849294E+03   -0.29703E-04   -0.57980E-05   216   0.324E-02    0.717E-03
Total vdW correction in eV:      9.3298553
DAV:   5    -0.141790824745E+03    0.24550E-04   -0.93861E-06   160   0.142E-02    0.383E-03
Total vdW correction in eV:      9.3298439
DAV:   6    -0.141790813208E+03    0.11537E-04   -0.24872E-06   172   0.682E-03    0.162E-03
Total vdW correction in eV:      9.3298448
DAV:   7    -0.141790804171E+03    0.90371E-05   -0.12035E-06   176   0.484E-03
Total vdW correction in eV:      9.3298486
  10 F= -.14179080E+03 E0= -.14179080E+03  d E =-.376802E-02  mag=     1.0000
 BRION: g(F)=  0.581E-02 g(S)=  0.000E+00 retain N=  3 mean eig= 1.56
 eig:   4.194  0.333  0.161
 bond charge predicted
       N       E                     dE             d eps       ncg     rms          rms(c)
Total vdW correction in eV:      9.3290349
DAV:   1    -0.141791959063E+03   -0.11459E-02   -0.41154E-02   216   0.756E-01    0.482E-02
Total vdW correction in eV:      9.3288059
DAV:   2    -0.141792037541E+03   -0.78478E-04   -0.99909E-04   224   0.106E-01    0.372E-02
Total vdW correction in eV:      9.3286597
DAV:   3    -0.141792001830E+03    0.35711E-04   -0.54337E-05   232   0.301E-02    0.182E-02
Total vdW correction in eV:      9.3285270
DAV:   4    -0.141791986905E+03    0.14926E-04   -0.32689E-05   232   0.229E-02    0.547E-03
Total vdW correction in eV:      9.3285480
DAV:   5    -0.141791982587E+03    0.43182E-05   -0.63981E-06   172   0.114E-02
Total vdW correction in eV:      9.3285422
  11 F= -.14179198E+03 E0= -.14179198E+03  d E =-.117842E-02  mag=     1.0000
 BRION: g(F)=  0.453E-02 g(S)=  0.000E+00 retain N=  2 mean eig= 0.65
 eig:   0.272  1.027
 bond charge predicted
       N       E                     dE             d eps       ncg     rms          rms(c)
Total vdW correction in eV:      9.3293501
DAV:   1    -0.141794671275E+03   -0.26844E-02   -0.86200E-02   208   0.108E+00    0.809E-02
Total vdW correction in eV:      9.3293539
DAV:   2    -0.141794822173E+03   -0.15090E-03   -0.15271E-03   224   0.134E-01    0.537E-02
Total vdW correction in eV:      9.3293539
DAV:   3    -0.141794815260E+03    0.69130E-05   -0.71630E-05   240   0.376E-02
Total vdW correction in eV:      9.3293414
  12 F= -.14179482E+03 E0= -.14179482E+03  d E =-.283267E-02  mag=     1.0000
 BRION: g(F)=  0.396E-02 g(S)=  0.000E+00 retain N=  3 mean eig= 1.23
 eig:   3.173  0.129  0.396
 bond charge predicted
       N       E                     dE             d eps       ncg     rms          rms(c)
Total vdW correction in eV:      9.3295189
DAV:   1    -0.141796871852E+03   -0.20497E-02   -0.57195E-02   216   0.887E-01    0.610E-02
Total vdW correction in eV:      9.3294412
DAV:   2    -0.141796943712E+03   -0.71860E-04   -0.99010E-04   216   0.108E-01    0.423E-02
Total vdW correction in eV:      9.3293728
DAV:   3    -0.141796925264E+03    0.18448E-04   -0.61924E-05   236   0.329E-02    0.143E-02
Total vdW correction in eV:      9.3293385
DAV:   4    -0.141796931704E+03   -0.64396E-05   -0.21956E-05   176   0.186E-02
Total vdW correction in eV:      9.3293373
  13 F= -.14179693E+03 E0= -.14179693E+03  d E =-.211644E-02  mag=     1.0000
 BRION: g(F)=  0.370E-02 g(S)=  0.000E+00 retain N=  3 mean eig= 1.90
 eig:   5.169  0.260  0.260
 bond charge predicted
       N       E                     dE             d eps       ncg     rms          rms(c)
Total vdW correction in eV:      9.3307050
DAV:   1    -0.141799882286E+03   -0.29570E-02   -0.93517E-02   208   0.112E+00    0.927E-02
Total vdW correction in eV:      9.3308068
DAV:   2    -0.141800031268E+03   -0.14898E-03   -0.16243E-03   208   0.133E-01    0.602E-02
Total vdW correction in eV:      9.3308785
DAV:   3    -0.141800036980E+03   -0.57124E-05   -0.93840E-05   228   0.401E-02
Total vdW correction in eV:      9.3309054
  14 F= -.14180004E+03 E0= -.14180004E+03  d E =-.310528E-02  mag=     1.0000
 BRION: g(F)=  0.374E-02 g(S)=  0.000E+00 retain N=  3 mean eig= 1.34
 eig:   3.526  0.253  0.253
 bond charge predicted
       N       E                     dE             d eps       ncg     rms          rms(c)
Total vdW correction in eV:      9.3302691
DAV:   1    -0.141802302321E+03   -0.22711E-02   -0.78649E-02   212   0.105E+00    0.768E-02
Total vdW correction in eV:      9.3299628
DAV:   2    -0.141802366639E+03   -0.64319E-04   -0.12120E-03   212   0.115E-01    0.513E-02
Total vdW correction in eV:      9.3296861
DAV:   3    -0.141802325927E+03    0.40712E-04   -0.68232E-05   232   0.340E-02    0.173E-02
Total vdW correction in eV:      9.3295695
DAV:   4    -0.141802322881E+03    0.30465E-05   -0.22916E-05   184   0.194E-02
Total vdW correction in eV:      9.3295787
  15 F= -.14180232E+03 E0= -.14180232E+03  d E =-.228590E-02  mag=     1.0000
 BRION: g(F)=  0.395E-02 g(S)=  0.000E+00 retain N=  3 mean eig= 2.01
 eig:   5.514  0.272  0.239
 bond charge predicted
       N       E                     dE             d eps       ncg     rms          rms(c)
Total vdW correction in eV:      9.3306824
DAV:   1    -0.141803193762E+03   -0.86783E-03   -0.36855E-02   216   0.704E-01    0.460E-02
Total vdW correction in eV:      9.3308549
DAV:   2    -0.141803284156E+03   -0.90394E-04   -0.78934E-04   224   0.969E-02    0.334E-02
Total vdW correction in eV:      9.3309428
DAV:   3    -0.141803281397E+03    0.27589E-05   -0.36001E-05   232   0.257E-02
Total vdW correction in eV:      9.3310449
  16 F= -.14180328E+03 E0= -.14180328E+03  d E =-.958516E-03  mag=     1.0000
 BRION: g(F)=  0.325E-02 g(S)=  0.000E+00 retain N=  3 mean eig= 2.47
 eig:   7.059  0.322  0.043
 bond charge predicted
       N       E                     dE             d eps       ncg     rms          rms(c)
Total vdW correction in eV:      9.3314925
DAV:   1    -0.141806304428E+03   -0.30203E-02   -0.12356E-01   208   0.129E+00    0.100E-01
Total vdW correction in eV:      9.3313600
DAV:   2    -0.141806470283E+03   -0.16585E-03   -0.21286E-03   208   0.154E-01    0.664E-02
Total vdW correction in eV:      9.3312456
DAV:   3    -0.141806446739E+03    0.23544E-04   -0.12920E-04   236   0.455E-02    0.243E-02
Total vdW correction in eV:      9.3311872
DAV:   4    -0.141806452814E+03   -0.60746E-05   -0.44009E-05   208   0.266E-02
Total vdW correction in eV:      9.3311871
  17 F= -.14180645E+03 E0= -.14180645E+03  d E =-.317142E-02  mag=     1.0000
 BRION: g(F)=  0.312E-02 g(S)=  0.000E+00 retain N=  3 mean eig= 1.30
 eig:   3.385  0.255  0.255
 bond charge predicted
       N       E                     dE             d eps       ncg     rms          rms(c)
Total vdW correction in eV:      9.3313785
DAV:   1    -0.141806242346E+03    0.20439E-03   -0.18933E-02   216   0.501E-01    0.286E-02
Total vdW correction in eV:      9.3314195
DAV:   2    -0.141806266025E+03   -0.23679E-04   -0.41274E-04   228   0.695E-02    0.234E-02
Total vdW correction in eV:      9.3314438
DAV:   3    -0.141806261161E+03    0.48640E-05   -0.25323E-05   232   0.212E-02
Total vdW correction in eV:      9.3314530
  18 F= -.14180626E+03 E0= -.14180626E+03  d E =0.191653E-03  mag=     1.0000
 BRION: g(F)=  0.269E-02 g(S)=  0.000E+00 retain N=  3 mean eig= 2.00
 eig:   5.383  0.311  0.311
 bond charge predicted
       N       E                     dE             d eps       ncg     rms          rms(c)
Total vdW correction in eV:      9.3318288
DAV:   1    -0.141808777726E+03   -0.25117E-02   -0.93082E-02   208   0.111E+00    0.876E-02
Total vdW correction in eV:      9.3317071
DAV:   2    -0.141808891965E+03   -0.11424E-03   -0.14100E-03   212   0.126E-01    0.567E-02
Total vdW correction in eV:      9.3316026
DAV:   3    -0.141808878086E+03    0.13879E-04   -0.71949E-05   208   0.371E-02    0.241E-02
Total vdW correction in eV:      9.3315274
DAV:   4    -0.141808879174E+03   -0.10882E-05   -0.40490E-05   208   0.263E-02
Total vdW correction in eV:      9.3315251
  19 F= -.14180888E+03 E0= -.14180888E+03  d E =-.261801E-02  mag=     1.0000
 BRION: g(F)=  0.246E-02 g(S)=  0.000E+00 retain N=  3 mean eig= 1.50
 eig:   3.966  0.019  0.506
 bond charge predicted
       N       E                     dE             d eps       ncg     rms          rms(c)
Total vdW correction in eV:      9.3326408
DAV:   1    -0.141810402632E+03   -0.15245E-02   -0.47669E-02   208   0.803E-01    0.615E-02
Total vdW correction in eV:      9.3327548
DAV:   2    -0.141810493048E+03   -0.90416E-04   -0.81021E-04   208   0.959E-02    0.405E-02
Total vdW correction in eV:      9.3328262
DAV:   3    -0.141810495286E+03   -0.22379E-05   -0.39623E-05   212   0.277E-02
Total vdW correction in eV:      9.3328745
  20 F= -.14181050E+03 E0= -.14181050E+03  d E =-.161611E-02  mag=     1.0000
 BRION: g(F)=  0.254E-02 g(S)=  0.000E+00 retain N=  3 mean eig= 1.72
 eig:   4.627  0.271  0.271
 bond charge predicted
       N       E                     dE             d eps       ncg     rms          rms(c)
Total vdW correction in eV:      9.3326796
DAV:   1    -0.141812327767E+03   -0.18347E-02   -0.67302E-02   208   0.965E-01    0.731E-02
Total vdW correction in eV:      9.3324629
DAV:   2    -0.141812405367E+03   -0.77600E-04   -0.11827E-03   208   0.114E-01    0.489E-02
Total vdW correction in eV:      9.3322667
DAV:   3    -0.141812376508E+03    0.28859E-04   -0.71884E-05   228   0.340E-02    0.175E-02
Total vdW correction in eV:      9.3321803
DAV:   4    -0.141812375007E+03    0.15012E-05   -0.21813E-05   184   0.191E-02
Total vdW correction in eV:      9.3321848
  21 F= -.14181238E+03 E0= -.14181238E+03  d E =-.187972E-02  mag=     1.0000
 BRION: g(F)=  0.272E-02 g(S)=  0.000E+00 retain N=  3 mean eig= 2.23
 eig:   6.172  0.261  0.261
 bond charge predicted
       N       E                     dE             d eps       ncg     rms          rms(c)
Total vdW correction in eV:      9.3339207
DAV:   1    -0.141815813266E+03   -0.34368E-02   -0.26069E-01   208   0.185E+00    0.152E-01
Total vdW correction in eV:      9.3339169
DAV:   2    -0.141816198981E+03   -0.38571E-03   -0.42115E-03   212   0.218E-01    0.972E-02
Total vdW correction in eV:      9.3339014
DAV:   3    -0.141816197832E+03    0.11482E-05   -0.21272E-04   232   0.640E-02    0.475E-02
Total vdW correction in eV:      9.3338650
DAV:   4    -0.141816222010E+03   -0.24178E-04   -0.13252E-04   220   0.479E-02    0.102E-02
Total vdW correction in eV:      9.3338449
DAV:   5    -0.141816206423E+03    0.15588E-04   -0.21349E-05   204   0.198E-02    0.594E-03
Total vdW correction in eV:      9.3338299
DAV:   6    -0.141816203687E+03    0.27360E-05   -0.37950E-06   168   0.835E-03
Total vdW correction in eV:      9.3338195
  22 F= -.14181620E+03 E0= -.14181620E+03  d E =-.382868E-02  mag=     1.0000
 BRION: g(F)=  0.247E-02 g(S)=  0.000E+00 retain N=  3 mean eig= 1.37
 eig:   3.675  0.384  0.062
 bond charge predicted
       N       E                     dE             d eps       ncg     rms          rms(c)
Total vdW correction in eV:      9.3328443
DAV:   1    -0.141814028299E+03    0.21781E-02   -0.92090E-02   208   0.112E+00    0.872E-02
Total vdW correction in eV:      9.3328166
DAV:   2    -0.141814215261E+03   -0.18696E-03   -0.17464E-03   220   0.141E-01    0.577E-02
Total vdW correction in eV:      9.3328310
DAV:   3    -0.141814201535E+03    0.13726E-04   -0.87778E-05   232   0.393E-02    0.281E-02
Total vdW correction in eV:      9.3328553
DAV:   4    -0.141814202957E+03   -0.14220E-05   -0.46109E-05   236   0.284E-02
Total vdW correction in eV:      9.3328625
  23 F= -.14181420E+03 E0= -.14181420E+03  d E =0.200073E-02  mag=     1.0000
 BRION: g(F)=  0.244E-02 g(S)=  0.000E+00 retain N=  3 mean eig= 1.69
 eig:   4.477  0.295  0.295
 bond charge predicted
       N       E                     dE             d eps       ncg     rms          rms(c)
Total vdW correction in eV:      9.3338951
DAV:   1    -0.141816517694E+03   -0.23162E-02   -0.10274E-01   208   0.117E+00    0.952E-02
Total vdW correction in eV:      9.3338931
DAV:   2    -0.141816659808E+03   -0.14211E-03   -0.16569E-03   216   0.136E-01    0.611E-02
Total vdW correction in eV:      9.3338815
DAV:   3    -0.141816654753E+03    0.50552E-05   -0.86916E-05   220   0.399E-02
Total vdW correction in eV:      9.3338619
  24 F= -.14181665E+03 E0= -.14181665E+03  d E =-.245180E-02  mag=     1.0000
 BRION: g(F)=  0.173E-02 g(S)=  0.000E+00 retain N=  3 mean eig= 1.31
 eig:   3.454  0.471  0.013
 bond charge predicted
       N       E                     dE             d eps       ncg     rms          rms(c)
Total vdW correction in eV:      9.3338428
DAV:   1    -0.141817875225E+03   -0.12154E-02   -0.37868E-02   212   0.722E-01    0.552E-02
Total vdW correction in eV:      9.3336966
DAV:   2    -0.141817906926E+03   -0.31701E-04   -0.59484E-04   212   0.811E-02    0.365E-02
Total vdW correction in eV:      9.3335570
DAV:   3    -0.141817887448E+03    0.19478E-04   -0.34960E-05   228   0.240E-02    0.130E-02
Total vdW correction in eV:      9.3334890
DAV:   4    -0.141817889567E+03   -0.21189E-05   -0.10785E-05   168   0.136E-02
Total vdW correction in eV:      9.3334907
  25 F= -.14181789E+03 E0= -.14181789E+03  d E =-.123481E-02  mag=     1.0000
 BRION: g(F)=  0.190E-02 g(S)=  0.000E+00 retain N=  3 mean eig= 2.18
 eig:   5.926  0.313  0.313
 bond charge predicted
       N       E                     dE             d eps       ncg     rms          rms(c)
Total vdW correction in eV:      9.3344572
DAV:   1    -0.141818906102E+03   -0.10187E-02   -0.33013E-02   208   0.669E-01    0.507E-02
Total vdW correction in eV:      9.3345579
DAV:   2    -0.141818975020E+03   -0.68918E-04   -0.59317E-04   220   0.829E-02    0.336E-02
Total vdW correction in eV:      9.3346168
DAV:   3    -0.141818975584E+03   -0.56314E-06   -0.28799E-05   224   0.236E-02
Total vdW correction in eV:      9.3346594
  26 F= -.14181898E+03 E0= -.14181898E+03  d E =-.108602E-02  mag=     1.0000
 BRION: g(F)=  0.171E-02 g(S)=  0.000E+00 retain N=  3 mean eig= 1.35
 eig:   3.670  0.389  0.005
 bond charge predicted
       N       E                     dE             d eps       ncg     rms          rms(c)
Total vdW correction in eV:      9.3350579
DAV:   1    -0.141821157647E+03   -0.21826E-02   -0.12597E-01   208   0.130E+00    0.103E-01
Total vdW correction in eV:      9.3348915
DAV:   2    -0.141821312040E+03   -0.15439E-03   -0.19540E-03   208   0.147E-01    0.666E-02
Total vdW correction in eV:      9.3347569
DAV:   3    -0.141821291854E+03    0.20186E-04   -0.10407E-04   228   0.423E-02    0.263E-02
Total vdW correction in eV:      9.3346776
DAV:   4    -0.141821296762E+03   -0.49081E-05   -0.45444E-05   220   0.277E-02
Total vdW correction in eV:      9.3346779
  27 F= -.14182130E+03 E0= -.14182130E+03  d E =-.232118E-02  mag=     1.0000
 BRION: g(F)=  0.165E-02 g(S)=  0.000E+00 retain N=  3 mean eig= 1.85
 eig:   5.129  0.351  0.061
 bond charge predicted
       N       E                     dE             d eps       ncg     rms          rms(c)
Total vdW correction in eV:      9.3345990
DAV:   1    -0.141820147049E+03    0.11448E-02   -0.44572E-02   216   0.781E-01    0.531E-02
Total vdW correction in eV:      9.3346648
DAV:   2    -0.141820214916E+03   -0.67867E-04   -0.79173E-04   228   0.964E-02    0.372E-02
Total vdW correction in eV:      9.3347230
DAV:   3    -0.141820209405E+03    0.55112E-05   -0.46449E-05   236   0.286E-02
Total vdW correction in eV:      9.3347530
  28 F= -.14182021E+03 E0= -.14182021E+03  d E =0.108736E-02  mag=     1.0000
 BRION: g(F)=  0.179E-02 g(S)=  0.000E+00 retain N=  3 mean eig= 1.63
 eig:   4.207  0.348  0.348
 bond charge predicted
       N       E                     dE             d eps       ncg     rms          rms(c)
Total vdW correction in eV:      9.3353999
DAV:   1    -0.141822074285E+03   -0.18594E-02   -0.94009E-02   208   0.112E+00    0.891E-02
Total vdW correction in eV:      9.3353200
DAV:   2    -0.141822198471E+03   -0.12419E-03   -0.15162E-03   216   0.130E-01    0.575E-02
Total vdW correction in eV:      9.3352505
DAV:   3    -0.141822185889E+03    0.12582E-04   -0.79528E-05   212   0.390E-02    0.259E-02
Total vdW correction in eV:      9.3351923
DAV:   4    -0.141822187340E+03   -0.14511E-05   -0.46525E-05   212   0.284E-02
Total vdW correction in eV:      9.3351872
  29 F= -.14182219E+03 E0= -.14182219E+03  d E =-.197793E-02  mag=     1.0000
 BRION: g(F)=  0.132E-02 g(S)=  0.000E+00 retain N=  3 mean eig= 1.48
 eig:   3.766  0.099  0.568
 bond charge predicted
       N       E                     dE             d eps       ncg     rms          rms(c)
Total vdW correction in eV:      9.3357583
DAV:   1    -0.141822749262E+03   -0.56337E-03   -0.16644E-02   212   0.477E-01    0.352E-02
Total vdW correction in eV:      9.3358201
DAV:   2    -0.141822785450E+03   -0.36188E-04   -0.30720E-04   208   0.598E-02    0.243E-02
Total vdW correction in eV:      9.3358602
DAV:   3    -0.141822784274E+03    0.11756E-05   -0.13937E-05   176   0.172E-02
Total vdW correction in eV:      9.3358904
  30 F= -.14182278E+03 E0= -.14182278E+03  d E =-.596935E-03  mag=     1.0000
 BRION: g(F)=  0.142E-02 g(S)=  0.000E+00 retain N=  3 mean eig= 1.75
 eig:   4.653  0.304  0.304
 bond charge predicted
       N       E                     dE             d eps       ncg     rms          rms(c)
Total vdW correction in eV:      9.3357752
DAV:   1    -0.141823860411E+03   -0.10750E-02   -0.39791E-02   208   0.740E-01    0.563E-02
Total vdW correction in eV:      9.3356096
DAV:   2    -0.141823901079E+03   -0.40668E-04   -0.63609E-04   208   0.842E-02    0.369E-02
Total vdW correction in eV:      9.3354670
DAV:   3    -0.141823881426E+03    0.19654E-04   -0.33505E-05   228   0.244E-02    0.145E-02
Total vdW correction in eV:      9.3353884
DAV:   4    -0.141823878924E+03    0.25019E-05   -0.14374E-05   176   0.159E-02
Total vdW correction in eV:      9.3353917
  31 F= -.14182388E+03 E0= -.14182388E+03  d E =-.109465E-02  mag=     1.0000
 BRION: g(F)=  0.138E-02 g(S)=  0.000E+00 retain N=  3 mean eig= 1.34
 eig:   3.516  0.460  0.039
 bond charge predicted
       N       E                     dE             d eps       ncg     rms          rms(c)
Total vdW correction in eV:      9.3366607
DAV:   1    -0.141825544255E+03   -0.16628E-02   -0.10148E-01   208   0.116E+00    0.955E-02
Total vdW correction in eV:      9.3366906
DAV:   2    -0.141825703155E+03   -0.15890E-03   -0.16621E-03   208   0.136E-01    0.608E-02
Total vdW correction in eV:      9.3366940
DAV:   3    -0.141825703580E+03   -0.42464E-06   -0.85519E-05   228   0.399E-02
Total vdW correction in eV:      9.3366804
  32 F= -.14182570E+03 E0= -.14182570E+03  d E =-.182466E-02  mag=     1.0000
 BRION: g(F)=  0.113E-02 g(S)=  0.000E+00 retain N=  3 mean eig= 2.28
 eig:   6.500  0.325  0.021
 bond charge predicted
       N       E                     dE             d eps       ncg     rms          rms(c)
Total vdW correction in eV:      9.3361337
DAV:   1    -0.141825102251E+03    0.60090E-03   -0.24217E-02   220   0.571E-01    0.403E-02
Total vdW correction in eV:      9.3360840
DAV:   2    -0.141825172053E+03   -0.69802E-04   -0.58402E-04   208   0.835E-02    0.289E-02
Total vdW correction in eV:      9.3360711
DAV:   3    -0.141825148008E+03    0.24045E-04   -0.28618E-05   232   0.234E-02    0.164E-02
Total vdW correction in eV:      9.3360605
DAV:   4    -0.141825145250E+03    0.27579E-05   -0.23341E-05   220   0.209E-02
Total vdW correction in eV:      9.3360680
  33 F= -.14182515E+03 E0= -.14182515E+03  d E =0.558329E-03  mag=     1.0000
 BRION: g(F)=  0.165E-02 g(S)=  0.000E+00 retain N=  3 mean eig= 1.55
 eig:   4.005  0.318  0.318
 bond charge predicted
       N       E                     dE             d eps       ncg     rms          rms(c)
Total vdW correction in eV:      9.3369609
DAV:   1    -0.141826772171E+03   -0.16242E-02   -0.98142E-02   208   0.115E+00    0.932E-02
Total vdW correction in eV:      9.3369246
DAV:   2    -0.141826909963E+03   -0.13779E-03   -0.15636E-03   208   0.132E-01    0.596E-02
Total vdW correction in eV:      9.3368890
DAV:   3    -0.141826902428E+03    0.75345E-05   -0.78906E-05   232   0.385E-02
Total vdW correction in eV:      9.3368516
  34 F= -.14182690E+03 E0= -.14182690E+03  d E =-.175718E-02  mag=     1.0000
 BRION: g(F)=  0.101E-02 g(S)=  0.000E+00 retain N=  3 mean eig= 1.82
 eig:   4.919  0.509  0.040
 bond charge predicted
       N       E                     dE             d eps       ncg     rms          rms(c)
Total vdW correction in eV:      9.3367002
DAV:   1    -0.141827236362E+03   -0.32640E-03   -0.11188E-02   216   0.393E-01    0.267E-02
Total vdW correction in eV:      9.3365981
DAV:   2    -0.141827235633E+03    0.72901E-06   -0.19739E-04   208   0.480E-02    0.193E-02
Total vdW correction in eV:      9.3365003
DAV:   3    -0.141827225297E+03    0.10337E-04   -0.14776E-05   200   0.164E-02    0.651E-03
Total vdW correction in eV:      9.3364573
DAV:   4    -0.141827224067E+03    0.12292E-05   -0.54801E-06   168   0.990E-03
Total vdW correction in eV:      9.3364609
  35 F= -.14182722E+03 E0= -.14182722E+03  d E =-.321639E-03  mag=     1.0000
 BRION: g(F)=  0.117E-02 g(S)=  0.000E+00 retain N=  3 mean eig= 2.86
 eig:   7.996  0.294  0.294
 bond charge predicted
       N       E                     dE             d eps       ncg     rms          rms(c)
Total vdW correction in eV:      9.3370258
DAV:   1    -0.141827400268E+03   -0.17497E-03   -0.55025E-03   212   0.275E-01    0.176E-02
Total vdW correction in eV:      9.3371251
DAV:   2    -0.141827419699E+03   -0.19431E-04   -0.11334E-04   224   0.358E-02    0.129E-02
Total vdW correction in eV:      9.3371837
DAV:   3    -0.141827422638E+03   -0.29394E-05   -0.51848E-06   192   0.979E-03
Total vdW correction in eV:      9.3372372
  36 F= -.14182742E+03 E0= -.14182742E+03  d E =-.198571E-03  mag=     1.0000
 BRION: g(F)=  0.909E-03 g(S)=  0.000E+00 retain N=  3 mean eig= 1.20
 eig:   2.924  0.337  0.337
 bond charge predicted
       N       E                     dE             d eps       ncg     rms          rms(c)
Total vdW correction in eV:      9.3375121
DAV:   1    -0.141828422586E+03   -0.10029E-02   -0.40711E-02   208   0.739E-01    0.595E-02
Total vdW correction in eV:      9.3374237
DAV:   2    -0.141828476138E+03   -0.53552E-04   -0.62467E-04   212   0.833E-02    0.381E-02
Total vdW correction in eV:      9.3373533
DAV:   3    -0.141828466425E+03    0.97129E-05   -0.32574E-05   208   0.245E-02
Total vdW correction in eV:      9.3373063
  37 F= -.14182847E+03 E0= -.14182847E+03  d E =-.104379E-02  mag=     1.0000
 BRION: g(F)=  0.752E-03 g(S)=  0.000E+00 retain N=  2 mean eig= 0.27
 eig:   0.217  0.326
 bond charge predicted
       N       E                     dE             d eps       ncg     rms          rms(c)
Total vdW correction in eV:      9.3379510
DAV:   1    -0.141829174697E+03   -0.69856E-03   -0.36475E-02   208   0.703E-01    0.548E-02
Total vdW correction in eV:      9.3379480
DAV:   2    -0.141829231633E+03   -0.56936E-04   -0.65777E-04   216   0.869E-02    0.360E-02
Total vdW correction in eV:      9.3379325
DAV:   3    -0.141829224673E+03    0.69598E-05   -0.31906E-05   232   0.242E-02
Total vdW correction in eV:      9.3379091
  38 F= -.14182922E+03 E0= -.14182922E+03  d E =-.758248E-03  mag=     1.0000
 BRION: g(F)=  0.115E-02 g(S)=  0.000E+00 retain N=  3 mean eig= 0.72
 eig:   1.620  0.270  0.270
 bond charge predicted
       N       E                     dE             d eps       ncg     rms          rms(c)
Total vdW correction in eV:      9.3382910
DAV:   1    -0.141830194232E+03   -0.96260E-03   -0.50441E-02   212   0.827E-01    0.630E-02
Total vdW correction in eV:      9.3382216
DAV:   2    -0.141830261339E+03   -0.67107E-04   -0.82040E-04   208   0.966E-02    0.417E-02
Total vdW correction in eV:      9.3381585
DAV:   3    -0.141830249160E+03    0.12178E-04   -0.47030E-05   216   0.285E-02    0.160E-02
Total vdW correction in eV:      9.3381186
DAV:   4    -0.141830250814E+03   -0.16541E-05   -0.18816E-05   176   0.182E-02
Total vdW correction in eV:      9.3381158
  39 F= -.14183025E+03 E0= -.14183025E+03  d E =-.102614E-02  mag=     1.0000
 BRION: g(F)=  0.874E-03 g(S)=  0.000E+00 retain N=  2 mean eig= 2.70
 eig:   0.278  5.129
 bond charge predicted
       N       E                     dE             d eps       ncg     rms          rms(c)
Total vdW correction in eV:      9.3377268
DAV:   1    -0.141829530047E+03    0.71911E-03   -0.26808E-02   216   0.599E-01    0.458E-02
Total vdW correction in eV:      9.3377531
DAV:   2    -0.141829581884E+03   -0.51837E-04   -0.42842E-04   220   0.698E-02    0.301E-02
Total vdW correction in eV:      9.3377931
DAV:   3    -0.141829576311E+03    0.55722E-05   -0.23468E-05   216   0.211E-02
Total vdW correction in eV:      9.3378262
  40 F= -.14182958E+03 E0= -.14182958E+03  d E =0.674503E-03  mag=     1.0000
 BRION: g(F)=  0.731E-03 g(S)=  0.000E+00 retain N=  2 mean eig= 0.26
 eig:   0.368  0.143
 bond charge predicted
       N       E                     dE             d eps       ncg     rms          rms(c)
Total vdW correction in eV:      9.3382267
DAV:   1    -0.141830375162E+03   -0.79328E-03   -0.32228E-02   220   0.650E-01    0.539E-02
Total vdW correction in eV:      9.3381836
DAV:   2    -0.141830417125E+03   -0.41963E-04   -0.52497E-04   216   0.770E-02    0.342E-02
Total vdW correction in eV:      9.3381464
DAV:   3    -0.141830411084E+03    0.60412E-05   -0.27845E-05   208   0.238E-02
Total vdW correction in eV:      9.3381096
  41 F= -.14183041E+03 E0= -.14183041E+03  d E =-.834772E-03  mag=     1.0000
 BRION: g(F)=  0.612E-03 g(S)=  0.000E+00 retain N=  3 mean eig= 0.41
 eig:   1.041  0.051  0.138
 bond charge predicted
       N       E                     dE             d eps       ncg     rms          rms(c)
Total vdW correction in eV:      9.3391985
DAV:   1    -0.141831579624E+03   -0.11625E-02   -0.10358E-01   208   0.118E+00    0.913E-02
Total vdW correction in eV:      9.3392022
DAV:   2    -0.141831728550E+03   -0.14893E-03   -0.15771E-03   212   0.134E-01    0.592E-02
Total vdW correction in eV:      9.3391878
DAV:   3    -0.141831720709E+03    0.78408E-05   -0.77892E-05   220   0.386E-02
Total vdW correction in eV:      9.3391645
  42 F= -.14183172E+03 E0= -.14183172E+03  d E =-.130962E-02  mag=     1.0000
 BRION: g(F)=  0.934E-03 g(S)=  0.000E+00 retain N=  4 mean eig= 1.31
 eig:   4.206  0.536  0.256  0.256
 bond charge predicted
       N       E                     dE             d eps       ncg     rms          rms(c)
Total vdW correction in eV:      9.3417891
DAV:   1    -0.141834255917E+03   -0.25274E-02   -0.13543E+00   208   0.426E+00    0.344E-01
Total vdW correction in eV:      9.3414260
DAV:   2    -0.141836065398E+03   -0.18095E-02   -0.20608E-02   212   0.476E-01    0.219E-01
Total vdW correction in eV:      9.3411806
DAV:   3    -0.141835953460E+03    0.11194E-03   -0.10229E-03   232   0.139E-01    0.968E-02
Total vdW correction in eV:      9.3409820
DAV:   4    -0.141836072673E+03   -0.11921E-03   -0.58243E-04   228   0.100E-01    0.221E-02
Total vdW correction in eV:      9.3409595
DAV:   5    -0.141836038031E+03    0.34641E-04   -0.85250E-05   224   0.407E-02    0.127E-02
Total vdW correction in eV:      9.3409413
DAV:   6    -0.141836038175E+03   -0.14333E-06   -0.15333E-05   188   0.166E-02
Total vdW correction in eV:      9.3409272
  43 F= -.14183604E+03 E0= -.14183604E+03  d E =-.431747E-02  mag=     1.0000
 BRION: g(F)=  0.690E-03 g(S)=  0.000E+00 retain N=  5 mean eig= 2.98
 eig:   6.884  6.884  0.125  0.125  0.903
 bond charge predicted
       N       E                     dE             d eps       ncg     rms          rms(c)
Total vdW correction in eV:      9.3424423
DAV:   1    -0.141837331526E+03   -0.12935E-02   -0.38375E-01   208   0.226E+00    0.186E-01
Total vdW correction in eV:      9.3422943
DAV:   2    -0.141837857999E+03   -0.52647E-03   -0.59951E-03   212   0.257E-01    0.118E-01
Total vdW correction in eV:      9.3421862
DAV:   3    -0.141837833126E+03    0.24873E-04   -0.31346E-04   220   0.768E-02    0.541E-02
Total vdW correction in eV:      9.3420905
DAV:   4    -0.141837860670E+03   -0.27543E-04   -0.17854E-04   216   0.565E-02    0.121E-02
Total vdW correction in eV:      9.3420757
DAV:   5    -0.141837842412E+03    0.18258E-04   -0.28907E-05   216   0.241E-02    0.677E-03
Total vdW correction in eV:      9.3420635
DAV:   6    -0.141837844732E+03   -0.23198E-05   -0.48631E-06   172   0.100E-02
Total vdW correction in eV:      9.3420522
  44 F= -.14183784E+03 E0= -.14183784E+03  d E =-.180656E-02  mag=     1.0000
 BRION: g(F)=  0.315E-03 g(S)=  0.000E+00 retain N=  3 mean eig= 1.97
 eig:   5.382  0.179  0.338
 bond charge predicted
       N       E                     dE             d eps       ncg     rms          rms(c)
Total vdW correction in eV:      9.3428054
DAV:   1    -0.141838228775E+03   -0.38636E-03   -0.51233E-02   208   0.824E-01    0.663E-02
Total vdW correction in eV:      9.3428127
DAV:   2    -0.141838330303E+03   -0.10153E-03   -0.92248E-04   216   0.104E-01    0.427E-02
Total vdW correction in eV:      9.3428114
DAV:   3    -0.141838321172E+03    0.91307E-05   -0.51441E-05   220   0.315E-02
Total vdW correction in eV:      9.3428014
  45 F= -.14183832E+03 E0= -.14183832E+03  d E =-.476441E-03  mag=     1.0000
 BRION: g(F)=  0.721E-03 g(S)=  0.000E+00 retain N=  3 mean eig= 1.33
 eig:   1.575  1.575  0.833
 bond charge predicted
       N       E                     dE             d eps       ncg     rms          rms(c)
Total vdW correction in eV:      9.3434987
DAV:   1    -0.141839023537E+03   -0.69323E-03   -0.15266E-01   208   0.144E+00    0.112E-01
Total vdW correction in eV:      9.3433790
DAV:   2    -0.141839224484E+03   -0.20095E-03   -0.23490E-03   212   0.162E-01    0.724E-02
Total vdW correction in eV:      9.3432830
DAV:   3    -0.141839198462E+03    0.26022E-04   -0.12064E-04   208   0.467E-02    0.300E-02
Total vdW correction in eV:      9.3432145
DAV:   4    -0.141839210554E+03   -0.12092E-04   -0.61813E-05   212   0.320E-02    0.739E-03
Total vdW correction in eV:      9.3432105
DAV:   5    -0.141839203224E+03    0.73295E-05   -0.81719E-06   180   0.126E-02
Total vdW correction in eV:      9.3432045
  46 F= -.14183920E+03 E0= -.14183920E+03  d E =-.882052E-03  mag=     1.0000
 BRION: g(F)=  0.246E-03 g(S)=  0.000E+00 retain N=  1 mean eig= 0.22
 eig:   0.219
 bond charge predicted
       N       E                     dE             d eps       ncg     rms          rms(c)
Total vdW correction in eV:      9.3429871
DAV:   1    -0.141839156852E+03    0.53702E-04   -0.73392E-03   228   0.320E-01    0.190E-02
Total vdW correction in eV:      9.3429556
DAV:   2    -0.141839161266E+03   -0.44142E-05   -0.16120E-04   232   0.438E-02    0.151E-02
Total vdW correction in eV:      9.3429235
DAV:   3    -0.141839161325E+03   -0.59261E-07   -0.88010E-06   184   0.138E-02
Total vdW correction in eV:      9.3429001
  47 F= -.14183916E+03 E0= -.14183916E+03  d E =0.418988E-04  mag=     1.0000
 BRION: g(F)=  0.498E-03 g(S)=  0.000E+00 retain N=  2 mean eig= 0.22
 eig:   0.217  0.217
 bond charge predicted
       N       E                     dE             d eps       ncg     rms          rms(c)
Total vdW correction in eV:      9.3431021
DAV:   1    -0.141839259571E+03   -0.98305E-04   -0.38775E-03   240   0.230E-01    0.138E-02
Total vdW correction in eV:      9.3431331
DAV:   2    -0.141839275566E+03   -0.15995E-04   -0.92576E-05   224   0.332E-02    0.111E-02
Total vdW correction in eV:      9.3431518
DAV:   3    -0.141839275206E+03    0.35981E-06   -0.43331E-06   192   0.101E-02
Total vdW correction in eV:      9.3431666
  48 F= -.14183928E+03 E0= -.14183928E+03  d E =-.113881E-03  mag=     1.0000
 BRION: g(F)=  0.162E-03 g(S)=  0.000E+00 retain N=  1 mean eig= 0.29
 eig:   0.289
 bond charge predicted
       N       E                     dE             d eps       ncg     rms          rms(c)
Total vdW correction in eV:      9.3432633
DAV:   1    -0.141839424775E+03   -0.14921E-03   -0.67242E-03   228   0.299E-01    0.215E-02
Total vdW correction in eV:      9.3432448
DAV:   2    -0.141839435785E+03   -0.11011E-04   -0.10274E-04   228   0.353E-02    0.141E-02
Total vdW correction in eV:      9.3432276
DAV:   3    -0.141839431367E+03    0.44178E-05   -0.52326E-06   176   0.115E-02
Total vdW correction in eV:      9.3432102
  49 F= -.14183943E+03 E0= -.14183943E+03  d E =-.156161E-03  mag=     1.0000
 BRION: g(F)=  0.175E-03 g(S)=  0.000E+00 retain N=  2 mean eig= 0.32
 eig:   0.303  0.330
 bond charge predicted
       N       E                     dE             d eps       ncg     rms          rms(c)
Total vdW correction in eV:      9.3432875
DAV:   1    -0.141839490323E+03   -0.54537E-04   -0.87821E-04   228   0.111E-01    0.887E-03
Total vdW correction in eV:      9.3432917
DAV:   2    -0.141839488648E+03    0.16748E-05   -0.18251E-05   208   0.156E-02
Total vdW correction in eV:      9.3432943
  50 F= -.14183949E+03 E0= -.14183949E+03  d E =-.572805E-04  mag=     1.0000
 BRION: g(F)=  0.148E-03 g(S)=  0.000E+00 retain N=  1 mean eig= 0.31
 eig:   0.311
 bond charge predicted
       N       E                     dE             d eps       ncg     rms          rms(c)
Total vdW correction in eV:      9.3433557
DAV:   1    -0.141839621072E+03   -0.13075E-03   -0.39831E-03   216   0.230E-01    0.208E-02
Total vdW correction in eV:      9.3433402
DAV:   2    -0.141839628595E+03   -0.75228E-05   -0.64858E-05   216   0.280E-02
Total vdW correction in eV:      9.3433253
  51 F= -.14183963E+03 E0= -.14183963E+03  d E =-.139947E-03  mag=     1.0000
 BRION: g(F)=  0.143E-03 g(S)=  0.000E+00 retain N=  2 mean eig= 0.12
 eig:   0.119  0.119
 bond charge predicted
       N       E                     dE             d eps       ncg     rms          rms(c)
Total vdW correction in eV:      9.3434633
DAV:   1    -0.141839722950E+03   -0.10188E-03   -0.31020E-03   208   0.203E-01    0.205E-02
Total vdW correction in eV:      9.3434631
DAV:   2    -0.141839730933E+03   -0.79828E-05   -0.50099E-05   208   0.264E-02
Total vdW correction in eV:      9.3434584
  52 F= -.14183973E+03 E0= -.14183973E+03  d E =-.102338E-03  mag=     1.0000
 BRION: g(F)=  0.140E-03 g(S)=  0.000E+00 retain N=  2 mean eig= 3.58
 eig:   0.093  7.062
 bond charge predicted
       N       E                     dE             d eps       ncg     rms          rms(c)
Total vdW correction in eV:      9.3436749
DAV:   1    -0.141839970389E+03   -0.24744E-03   -0.18619E-02   208   0.494E-01    0.459E-02
Total vdW correction in eV:      9.3436547
DAV:   2    -0.141840002039E+03   -0.31650E-04   -0.28594E-04   216   0.599E-02    0.285E-02
Total vdW correction in eV:      9.3436369
DAV:   3    -0.141840000664E+03    0.13750E-05   -0.21500E-05   184   0.226E-02
Total vdW correction in eV:      9.3436179
  53 F= -.14184000E+03 E0= -.14184000E+03  d E =-.269731E-03  mag=     1.0000
 BRION: g(F)=  0.158E-03 g(S)=  0.000E+00 retain N=  2 mean eig= 0.12
 eig:   0.144  0.087
 bond charge predicted
       N       E                     dE             d eps       ncg     rms          rms(c)
Total vdW correction in eV:      9.3434940
DAV:   1    -0.141839890288E+03    0.11175E-03   -0.34727E-03   208   0.210E-01    0.168E-02
Total vdW correction in eV:      9.3434864
DAV:   2    -0.141839908575E+03   -0.18287E-04   -0.69119E-05   216   0.300E-02    0.111E-02
Total vdW correction in eV:      9.3434844
DAV:   3    -0.141839897911E+03    0.10664E-04   -0.42701E-06   172   0.107E-02    0.628E-03
Total vdW correction in eV:      9.3434823
DAV:   4    -0.141839896323E+03    0.15879E-05   -0.43212E-06   184   0.861E-03
Total vdW correction in eV:      9.3434836
  54 F= -.14183990E+03 E0= -.14183990E+03  d E =0.104342E-03  mag=     1.0000
 BRION: g(F)=  0.144E-03 g(S)=  0.000E+00 retain N=  2 mean eig= 1.16
 eig:   0.525  1.786
 bond charge predicted
       N       E                     dE             d eps       ncg     rms          rms(c)
Total vdW correction in eV:      9.3435806
DAV:   1    -0.141840005419E+03   -0.10751E-03   -0.30750E-03   212   0.202E-01    0.161E-02
Total vdW correction in eV:      9.3435772
DAV:   2    -0.141840010613E+03   -0.51939E-05   -0.44650E-05   216   0.229E-02
Total vdW correction in eV:      9.3435713
  55 F= -.14184001E+03 E0= -.14184001E+03  d E =-.114291E-03  mag=     1.0000
 BRION: g(F)=  0.128E-03 g(S)=  0.000E+00 retain N=  3 mean eig= 1.72
 eig:   3.202  0.411  1.532
 bond charge predicted
       N       E                     dE             d eps       ncg     rms          rms(c)
Total vdW correction in eV:      9.3441226
DAV:   1    -0.141840476033E+03   -0.47061E-03   -0.12266E-01   208   0.127E+00    0.103E-01
Total vdW correction in eV:      9.3440749
DAV:   2    -0.141840664112E+03   -0.18808E-03   -0.18413E-03   216   0.149E-01    0.652E-02
Total vdW correction in eV:      9.3440341
DAV:   3    -0.141840650938E+03    0.13174E-04   -0.10471E-04   228   0.487E-02    0.330E-02
Total vdW correction in eV:      9.3439913
DAV:   4    -0.141840649000E+03    0.19384E-05   -0.75926E-05   220   0.372E-02
Total vdW correction in eV:      9.3439852
  56 F= -.14184065E+03 E0= -.14184065E+03  d E =-.638387E-03  mag=     1.0000
 BRION: g(F)=  0.175E-03 g(S)=  0.000E+00 retain N=  4 mean eig= 2.49
 eig:   4.153  4.153  1.242  0.415
 bond charge predicted
       N       E                     dE             d eps       ncg     rms          rms(c)
Total vdW correction in eV:      9.3455068
DAV:   1    -0.141840925780E+03   -0.27484E-03   -0.88345E-01   208   0.341E+00    0.275E-01
Total vdW correction in eV:      9.3453358
DAV:   2    -0.141842182452E+03   -0.12567E-02   -0.13426E-02   220   0.397E-01    0.173E-01
Total vdW correction in eV:      9.3452444
DAV:   3    -0.141842090236E+03    0.92216E-04   -0.74128E-04   232   0.125E-01    0.859E-02
Total vdW correction in eV:      9.3451562
DAV:   4    -0.141842167762E+03   -0.77527E-04   -0.42747E-04   224   0.894E-02    0.182E-02
Total vdW correction in eV:      9.3451370
DAV:   5    -0.141842130064E+03    0.37699E-04   -0.69813E-05   216   0.362E-02    0.104E-02
Total vdW correction in eV:      9.3451249
DAV:   6    -0.141842126722E+03    0.33414E-05   -0.77711E-06   176   0.137E-02
Total vdW correction in eV:      9.3451125
  57 F= -.14184213E+03 E0= -.14184213E+03  d E =-.147772E-02  mag=     1.0000
 BRION: g(F)=  0.966E-04 g(S)=  0.000E+00 retain N=  2 mean eig= 2.95
 eig:   2.947  2.947
 bond charge predicted
       N       E                     dE             d eps       ncg     rms          rms(c)
Total vdW correction in eV:      9.3451491
DAV:   1    -0.141842076517E+03    0.53547E-04   -0.31943E-03   216   0.202E-01    0.149E-02
Total vdW correction in eV:      9.3451725
DAV:   2    -0.141842092753E+03   -0.16235E-04   -0.74256E-05   236   0.305E-02    0.102E-02
Total vdW correction in eV:      9.3451808
DAV:   3    -0.141842086856E+03    0.58970E-05   -0.37990E-06   180   0.870E-03
Total vdW correction in eV:      9.3451909
  58 F= -.14184209E+03 E0= -.14184209E+03  d E =0.398669E-04  mag=     1.0000
 BRION: g(F)=  0.170E-03 g(S)=  0.000E+00 retain N=  3 mean eig= 2.60
 eig:   3.865  3.865  0.084
 bond charge predicted
       N       E                     dE             d eps       ncg     rms          rms(c)
Total vdW correction in eV:      9.3463564
DAV:   1    -0.141842178154E+03   -0.85401E-04   -0.67219E-01   208   0.298E+00    0.235E-01
Total vdW correction in eV:      9.3461930
DAV:   2    -0.141843121787E+03   -0.94363E-03   -0.10158E-02   208   0.346E-01    0.149E-01
Total vdW correction in eV:      9.3460943
DAV:   3    -0.141843033064E+03    0.88723E-04   -0.53740E-04   224   0.107E-01    0.734E-02
Total vdW correction in eV:      9.3460024
DAV:   4    -0.141843077367E+03   -0.44302E-04   -0.33907E-04   216   0.789E-02    0.159E-02
Total vdW correction in eV:      9.3459890
DAV:   5    -0.141843044149E+03    0.33218E-04   -0.54432E-05   216   0.315E-02    0.941E-03
Total vdW correction in eV:      9.3459796
DAV:   6    -0.141843042961E+03    0.11880E-05   -0.59115E-06   168   0.113E-02
Total vdW correction in eV:      9.3459689
  59 F= -.14184304E+03 E0= -.14184304E+03  d E =-.956105E-03  mag=     1.0000
 BRION: g(F)=  0.676E-04 g(S)=  0.000E+00 retain N=  3 mean eig= 3.18
 eig:   4.445  4.445  0.655
 bond charge predicted
       N       E                     dE             d eps       ncg     rms          rms(c)
Total vdW correction in eV:      9.3457793
DAV:   1    -0.141842791409E+03    0.25274E-03   -0.37996E-02   212   0.707E-01    0.577E-02
Total vdW correction in eV:      9.3458225
DAV:   2    -0.141842873048E+03   -0.81639E-04   -0.58369E-04   220   0.830E-02    0.361E-02
Total vdW correction in eV:      9.3458669
DAV:   3    -0.141842864863E+03    0.81847E-05   -0.37026E-05   240   0.260E-02
Total vdW correction in eV:      9.3459044
  60 F= -.14184286E+03 E0= -.14184286E+03  d E =0.178097E-03  mag=     1.0000
 BRION: g(F)=  0.103E-03 g(S)=  0.000E+00 retain N=  4 mean eig= 4.05
 eig:   7.626  7.626  0.632  0.311
 bond charge predicted
       N       E                     dE             d eps       ncg     rms          rms(c)
Total vdW correction in eV:      9.3473048
DAV:   1    -0.141842473055E+03    0.39999E-03   -0.94752E-01   208   0.354E+00    0.281E-01
Total vdW correction in eV:      9.3471108
DAV:   2    -0.141843745455E+03   -0.12724E-02   -0.14405E-02   212   0.411E-01    0.178E-01
Total vdW correction in eV:      9.3470121
DAV:   3    -0.141843631810E+03    0.11365E-03   -0.77779E-04   224   0.128E-01    0.877E-02
Total vdW correction in eV:      9.3469206
DAV:   4    -0.141843704120E+03   -0.72310E-04   -0.47205E-04   216   0.930E-02    0.189E-02
Total vdW correction in eV:      9.3469034
DAV:   5    -0.141843665261E+03    0.38859E-04   -0.76283E-05   216   0.376E-02    0.110E-02
Total vdW correction in eV:      9.3468921
DAV:   6    -0.141843662438E+03    0.28225E-05   -0.80639E-06   164   0.135E-02
Total vdW correction in eV:      9.3468799
  61 F= -.14184366E+03 E0= -.14184366E+03  d E =-.797575E-03  mag=     1.0000
 BRION: g(F)=  0.383E-04 g(S)=  0.000E+00 retain N=  3 mean eig= 4.16
 eig:   6.101  6.101  0.285
 bond charge predicted
       N       E                     dE             d eps       ncg     rms          rms(c)
Total vdW correction in eV:      9.3464783
DAV:   1    -0.141843400512E+03    0.26475E-03   -0.68867E-02   208   0.953E-01    0.756E-02
Total vdW correction in eV:      9.3465012
DAV:   2    -0.141843529163E+03   -0.12865E-03   -0.10252E-03   220   0.110E-01    0.476E-02
Total vdW correction in eV:      9.3465341
DAV:   3    -0.141843513380E+03    0.15783E-04   -0.54261E-05   240   0.333E-02    0.239E-02
Total vdW correction in eV:      9.3465660
DAV:   4    -0.141843515986E+03   -0.26067E-05   -0.34018E-05   232   0.245E-02
Total vdW correction in eV:      9.3465674
  62 F= -.14184352E+03 E0= -.14184352E+03  d E =0.146452E-03  mag=     1.0000
 BRION: g(F)=  0.608E-04 g(S)=  0.000E+00 retain N=  2 mean eig= 2.47
 eig:   4.601  0.336
 bond charge predicted
       N       E                     dE             d eps       ncg     rms          rms(c)
Total vdW correction in eV:      9.3469228
DAV:   1    -0.141843612640E+03   -0.99261E-04   -0.72628E-02   216   0.984E-01    0.761E-02
Total vdW correction in eV:      9.3468892
DAV:   2    -0.141843713882E+03   -0.10124E-03   -0.10803E-03   212   0.113E-01    0.487E-02
Total vdW correction in eV:      9.3468605
DAV:   3    -0.141843700354E+03    0.13528E-04   -0.57411E-05   216   0.347E-02    0.232E-02
Total vdW correction in eV:      9.3468344
DAV:   4    -0.141843698874E+03    0.14794E-05   -0.38004E-05   208   0.260E-02
Total vdW correction in eV:      9.3468310
  63 F= -.14184370E+03 E0= -.14184370E+03  d E =-.182888E-03  mag=     1.0000
 BRION: g(F)=  0.281E-04 g(S)=  0.000E+00 retain N=  3 mean eig= 2.28
 eig:   1.798  2.514  2.514
 reached required accuracy - stopping structural energy minimisation
--------------------------------------------------------
>>>  Job finished at Fri May  1 19:39:10 EDT 2020
