>>>  VASP 5.4.4 with BEEF-vdw and vtst
--------------------------------------------------------
>>>  Job information
     SLURM_JOBID=3069326
     SLURM_JOB_NODELIST=cpn-u25-38
     SLURM_NNODES=1
     SLURMTMPDIR=/scratch/3069326
     working directory = /projects/academic/ericwalk/kevingie/decane_nox_gas_phase/C7H16/vtst
--------------------------------------------------------
>>>  Module information
The Intel compilers are in your path. This is adequate for compiling and
running most codes. Source
/util/academic/intel/17.0/compilers_and_libraries_2017/linux/bin/compilervars.sh
for more features. 
 The MKL Libraries are in your library path. This is adequate for compiling and
running most codes. Source $MKL/bin/mklvars.sh" for more features. 
 Intel-MPI is in your path. This is adequate for compiling and running most
codes. Source the
/util/academic/intel/17.0/compilers_and_libraries_2017/linux/mpi/intel64/bin/mpivars.sh
file for more features. 

Currently Loaded Modules:
  1) python/py36-anaconda-5.3.1   3) mkl/2017.0.1
  2) intel/17.0                   4) intel-mpi/2017.0.1

 

--------------------------------------------------------
>>>  Running Configuration
NPROCS=16
--------------------------------------------------------
>>>  Job started at Wed May 13 10:36:47 EDT 2020
--------------------------------------------------------
 running on   16 total cores
 distrk:  each k-point on   16 cores,    1 groups
 distr:  one band on    4 cores,    4 groups
 using from now: INCAR     
 vasp.5.4.4.18Apr17-6-g9f103f2a35 (build Dec 31 2018 11:41:54) complex          
  
 POSCAR found type information on POSCAR  C  H 
 POSCAR found :  2 types and      23 ions
 scaLAPACK will be used
 LDA part: xc-table for Pade appr. of Perdew
 POSCAR found type information on POSCAR  C  H 
 POSCAR found :  2 types and      23 ions
 POSCAR, INCAR and KPOINTS ok, starting setup
 FFT: planning ...
 WAVECAR not read
 entering main loop
       N       E                     dE             d eps       ncg     rms          rms(c)
DAV:   1     0.269551221236E+03    0.26955E+03   -0.12219E+04   216   0.494E+02
DAV:   2    -0.382436649023E+02   -0.30779E+03   -0.28662E+03   288   0.126E+02
DAV:   3    -0.102566445190E+03   -0.64323E+02   -0.63952E+02   256   0.614E+01
DAV:   4    -0.105430620036E+03   -0.28642E+01   -0.28551E+01   304   0.168E+01
DAV:   5    -0.105479351825E+03   -0.48732E-01   -0.48695E-01   296   0.194E+00    0.311E+01
DAV:   6    -0.500587007755E+02    0.55421E+02   -0.15191E+02   224   0.356E+01    0.143E+01
DAV:   7    -0.934212714470E+02   -0.43363E+02   -0.41496E+01   264   0.181E+01    0.820E+00
DAV:   8    -0.100101062101E+03   -0.66798E+01   -0.42715E+00   264   0.631E+00    0.529E+00
DAV:   9    -0.114274621606E+03   -0.14174E+02   -0.74571E+00   216   0.717E+00    0.260E+00
DAV:  10    -0.117928164663E+03   -0.36535E+01   -0.12413E+00   224   0.308E+00    0.176E+00
DAV:  11    -0.121201141326E+03   -0.32730E+01   -0.17595E+00   208   0.322E+00    0.920E-01
DAV:  12    -0.122187216879E+03   -0.98608E+00   -0.40263E-01   216   0.173E+00    0.369E-01
DAV:  13    -0.122881140617E+03   -0.69392E+00   -0.89962E-02   192   0.773E-01    0.181E-01
DAV:  14    -0.123036941341E+03   -0.15580E+00   -0.21712E-02   232   0.376E-01    0.103E-01
DAV:  15    -0.123060190985E+03   -0.23250E-01   -0.35466E-03   232   0.176E-01    0.492E-02
DAV:  16    -0.123077864778E+03   -0.17674E-01   -0.21151E-03   200   0.127E-01    0.243E-02
DAV:  17    -0.123082954019E+03   -0.50892E-02   -0.41824E-04   232   0.571E-02    0.149E-02
DAV:  18    -0.123085266794E+03   -0.23128E-02   -0.33391E-04   208   0.506E-02    0.104E-02
DAV:  19    -0.123086016350E+03   -0.74956E-03   -0.12006E-04   232   0.296E-02    0.682E-03
DAV:  20    -0.123086587102E+03   -0.57075E-03   -0.96011E-05   208   0.225E-02    0.503E-03
DAV:  21    -0.123086954242E+03   -0.36714E-03   -0.58742E-05   240   0.175E-02    0.376E-03
DAV:  22    -0.123087014379E+03   -0.60137E-04   -0.65642E-06   240   0.971E-03    0.186E-03
DAV:  23    -0.123087095948E+03   -0.81570E-04   -0.12209E-05   232   0.902E-03    0.158E-03
DAV:  24    -0.123087115983E+03   -0.20034E-04   -0.24620E-06   232   0.516E-03    0.932E-04
DAV:  25    -0.123087131351E+03   -0.15368E-04   -0.12478E-06   240   0.332E-03    0.562E-04
DAV:  26    -0.123087136401E+03   -0.50503E-05   -0.38921E-07   224   0.212E-03    0.369E-04
DAV:  27    -0.123087137989E+03   -0.15881E-05   -0.10727E-07   232   0.114E-03    0.235E-04
DAV:  28    -0.123087139756E+03   -0.17663E-05   -0.53538E-08   224   0.743E-04    0.147E-04
DAV:  29    -0.123087140297E+03   -0.54162E-06   -0.15757E-08   224   0.390E-04    0.124E-04
DAV:  30    -0.123087140504E+03   -0.20710E-06   -0.57530E-09   216   0.230E-04    0.101E-04
DAV:  31    -0.123087140630E+03   -0.12606E-06   -0.23116E-09   208   0.141E-04    0.983E-05
DAV:  32    -0.123087140693E+03   -0.62828E-07   -0.11498E-09   200   0.933E-05    0.957E-05
DAV:  33    -0.123087140712E+03   -0.18213E-07   -0.36622E-10   192   0.554E-05    0.950E-05
DAV:  34    -0.123087140718E+03   -0.59999E-08   -0.11431E-10   192   0.349E-05
   1 F= -.12308714E+03 E0= -.12308714E+03  d E =-.123087E+03  mag=     0.0000
quench:  g(F)=  0.000E+00 g(S)=  0.000E+00 dE (1.order)= 0.000E+00
 bond charge predicted
       N       E                     dE             d eps       ncg     rms          rms(c)
DAV:   1    -0.123087056523E+03    0.84188E-04   -0.24474E-03   208   0.176E-01    0.902E-03
DAV:   2    -0.123087057126E+03   -0.60274E-06   -0.21909E-05   224   0.176E-02    0.672E-03
DAV:   3    -0.123087056650E+03    0.47531E-06   -0.62811E-06   256   0.950E-03    0.186E-03
DAV:   4    -0.123087056522E+03    0.12835E-06   -0.10333E-06   224   0.391E-03    0.539E-04
DAV:   5    -0.123087056542E+03   -0.20003E-07   -0.11794E-07   224   0.114E-03    0.206E-04
DAV:   6    -0.123087056550E+03   -0.75149E-08   -0.35559E-09   240   0.234E-04
   2 F= -.12308706E+03 E0= -.12308706E+03  d E =0.841679E-04  mag=     0.0000
quench:  g(F)=  0.000E+00 g(S)=  0.000E+00 dE (1.order)= 0.000E+00
 bond charge predicted
       N       E                     dE             d eps       ncg     rms          rms(c)
DAV:   1    -0.123087275440E+03   -0.21890E-03   -0.48628E-03   208   0.253E-01    0.124E-02
DAV:   2    -0.123087276659E+03   -0.12192E-05   -0.44386E-05   224   0.249E-02    0.939E-03
DAV:   3    -0.123087275074E+03    0.15856E-05   -0.10196E-05   224   0.128E-02    0.187E-03
DAV:   4    -0.123087275065E+03    0.89080E-08   -0.21137E-06   224   0.508E-03    0.998E-04
DAV:   5    -0.123087275052E+03    0.12756E-07   -0.27085E-07   224   0.172E-03    0.358E-04
DAV:   6    -0.123087275060E+03   -0.76930E-08   -0.17688E-08   240   0.506E-04
   3 F= -.12308728E+03 E0= -.12308728E+03  d E =-.218510E-03  mag=     0.0000
quench:  g(F)=  0.000E+00 g(S)=  0.000E+00 dE (1.order)= 0.000E+00
 bond charge predicted
       N       E                     dE             d eps       ncg     rms          rms(c)
DAV:   1    -0.123086926001E+03    0.34905E-03   -0.48060E-03   208   0.248E-01    0.123E-02
DAV:   2    -0.123086927731E+03   -0.17300E-05   -0.47749E-05   224   0.253E-02    0.903E-03
DAV:   3    -0.123086926713E+03    0.10178E-05   -0.72656E-06   224   0.110E-02    0.228E-03
DAV:   4    -0.123086926921E+03   -0.20819E-06   -0.17342E-06   240   0.462E-03    0.127E-03
DAV:   5    -0.123086926933E+03   -0.11602E-07   -0.21031E-07   224   0.158E-03    0.396E-04
DAV:   6    -0.123086926941E+03   -0.83485E-08   -0.41187E-08   224   0.804E-04
   4 F= -.12308693E+03 E0= -.12308693E+03  d E =0.348119E-03  mag=     0.0000
quench:  g(F)=  0.000E+00 g(S)=  0.000E+00 dE (1.order)= 0.000E+00
 bond charge predicted
       N       E                     dE             d eps       ncg     rms          rms(c)
DAV:   1    -0.123087093800E+03   -0.16687E-03   -0.49984E-03   192   0.264E-01    0.122E-02
DAV:   2    -0.123087096971E+03   -0.31715E-05   -0.64678E-05   224   0.298E-02    0.968E-03
DAV:   3    -0.123087095430E+03    0.15412E-05   -0.92080E-06   224   0.122E-02    0.167E-03
DAV:   4    -0.123087095502E+03   -0.71586E-07   -0.19000E-06   224   0.469E-03    0.914E-04
DAV:   5    -0.123087095488E+03    0.14000E-07   -0.16063E-07   240   0.138E-03    0.348E-04
DAV:   6    -0.123087095496E+03   -0.80172E-08   -0.15461E-08   240   0.553E-04
   5 F= -.12308710E+03 E0= -.12308710E+03  d E =-.168555E-03  mag=     0.0000
quench:  g(F)=  0.000E+00 g(S)=  0.000E+00 dE (1.order)= 0.000E+00
 bond charge predicted
       N       E                     dE             d eps       ncg     rms          rms(c)
DAV:   1    -0.123086844688E+03    0.25080E-03   -0.48189E-03   192   0.257E-01    0.119E-02
DAV:   2    -0.123086847880E+03   -0.31922E-05   -0.53533E-05   224   0.268E-02    0.913E-03
DAV:   3    -0.123086846967E+03    0.91322E-06   -0.75844E-06   224   0.113E-02    0.153E-03
DAV:   4    -0.123086847041E+03   -0.74049E-07   -0.16588E-06   240   0.441E-03    0.970E-04
DAV:   5    -0.123086847056E+03   -0.14826E-07   -0.22598E-07   240   0.164E-03    0.358E-04
DAV:   6    -0.123086847068E+03   -0.12419E-07   -0.29073E-08   224   0.812E-04    0.223E-04
DAV:   7    -0.123086847092E+03   -0.24116E-07   -0.13860E-08   224   0.605E-04    0.138E-04
DAV:   8    -0.123086847099E+03   -0.66129E-08   -0.47482E-09   224   0.380E-04
   6 F= -.12308685E+03 E0= -.12308685E+03  d E =0.248397E-03  mag=     0.0000
quench:  g(F)=  0.000E+00 g(S)=  0.000E+00 dE (1.order)= 0.000E+00
 bond charge predicted
       N       E                     dE             d eps       ncg     rms          rms(c)
DAV:   1    -0.123087101333E+03   -0.25424E-03   -0.47592E-03   192   0.249E-01    0.114E-02
DAV:   2    -0.123087104749E+03   -0.34161E-05   -0.61297E-05   224   0.273E-02    0.890E-03
DAV:   3    -0.123087103389E+03    0.13601E-05   -0.57334E-06   224   0.957E-03    0.268E-03
DAV:   4    -0.123087103417E+03   -0.27827E-07   -0.12975E-06   224   0.395E-03    0.107E-03
DAV:   5    -0.123087103384E+03    0.33055E-07   -0.15459E-07   224   0.149E-03    0.341E-04
DAV:   6    -0.123087103394E+03   -0.97793E-08   -0.32832E-08   224   0.687E-04
   7 F= -.12308710E+03 E0= -.12308710E+03  d E =-.256295E-03  mag=     0.0000
quench:  g(F)=  0.000E+00 g(S)=  0.000E+00 dE (1.order)= 0.000E+00
 bond charge predicted
       N       E                     dE             d eps       ncg     rms          rms(c)
DAV:   1    -0.123087128188E+03   -0.24804E-04   -0.50333E-03   192   0.268E-01    0.118E-02
DAV:   2    -0.123087132893E+03   -0.47048E-05   -0.76367E-05   224   0.319E-02    0.953E-03
DAV:   3    -0.123087131513E+03    0.13798E-05   -0.72109E-06   224   0.106E-02    0.264E-03
DAV:   4    -0.123087131664E+03   -0.15111E-06   -0.16389E-06   240   0.423E-03    0.103E-03
DAV:   5    -0.123087131664E+03    0.76398E-10   -0.14177E-07   240   0.136E-03    0.364E-04
DAV:   6    -0.123087131670E+03   -0.54829E-08   -0.24579E-08   224   0.688E-04
   8 F= -.12308713E+03 E0= -.12308713E+03  d E =-.282759E-04  mag=     0.0000
quench:  g(F)=  0.000E+00 g(S)=  0.000E+00 dE (1.order)= 0.000E+00
 bond charge predicted
       N       E                     dE             d eps       ncg     rms          rms(c)
DAV:   1    -0.123087384594E+03   -0.25293E-03   -0.48212E-03   192   0.259E-01    0.119E-02
DAV:   2    -0.123087386985E+03   -0.23907E-05   -0.50932E-05   240   0.263E-02    0.911E-03
DAV:   3    -0.123087385592E+03    0.13936E-05   -0.82137E-06   224   0.115E-02    0.162E-03
DAV:   4    -0.123087385608E+03   -0.16010E-07   -0.17713E-06   232   0.458E-03    0.102E-03
DAV:   5    -0.123087385588E+03    0.20131E-07   -0.26329E-07   248   0.171E-03    0.368E-04
DAV:   6    -0.123087385594E+03   -0.65697E-08   -0.35905E-08   224   0.928E-04
   9 F= -.12308739E+03 E0= -.12308739E+03  d E =-.253925E-03  mag=     0.0000
quench:  g(F)=  0.000E+00 g(S)=  0.000E+00 dE (1.order)= 0.000E+00
 bond charge predicted
       N       E                     dE             d eps       ncg     rms          rms(c)
DAV:   1    -0.123087134487E+03    0.25110E-03   -0.47806E-03   192   0.254E-01    0.115E-02
DAV:   2    -0.123087137791E+03   -0.33040E-05   -0.57341E-05   224   0.271E-02    0.876E-03
DAV:   3    -0.123087136882E+03    0.90875E-06   -0.63492E-06   224   0.987E-03    0.248E-03
DAV:   4    -0.123087137068E+03   -0.18619E-06   -0.14706E-06   240   0.422E-03    0.116E-03
DAV:   5    -0.123087137097E+03   -0.29162E-07   -0.21956E-07   224   0.185E-03    0.371E-04
DAV:   6    -0.123087137097E+03    0.87880E-09   -0.83357E-08   224   0.145E-03
  10 F= -.12308714E+03 E0= -.12308714E+03  d E =0.248497E-03  mag=    -0.0000
quench:  g(F)=  0.000E+00 g(S)=  0.000E+00 dE (1.order)= 0.000E+00
 bond charge predicted
       N       E                     dE             d eps       ncg     rms          rms(c)
DAV:   1    -0.123087094664E+03    0.42433E-04   -0.49589E-03   192   0.260E-01    0.116E-02
DAV:   2    -0.123087099228E+03   -0.45640E-05   -0.72875E-05   240   0.308E-02    0.935E-03
DAV:   3    -0.123087097944E+03    0.12841E-05   -0.71088E-06   224   0.104E-02    0.248E-03
DAV:   4    -0.123087098115E+03   -0.17090E-06   -0.16936E-06   224   0.418E-03    0.102E-03
DAV:   5    -0.123087098125E+03   -0.98130E-08   -0.15082E-07   240   0.145E-03    0.362E-04
DAV:   6    -0.123087098124E+03    0.15152E-08   -0.39341E-08   224   0.102E-03
  11 F= -.12308710E+03 E0= -.12308710E+03  d E =0.389730E-04  mag=     0.0000
quench:  g(F)=  0.000E+00 g(S)=  0.000E+00 dE (1.order)= 0.000E+00
 bond charge predicted
       N       E                     dE             d eps       ncg     rms          rms(c)
DAV:   1    -0.123086850979E+03    0.24715E-03   -0.48216E-03   192   0.236E-01    0.121E-02
DAV:   2    -0.123086853784E+03   -0.28057E-05   -0.51055E-05   240   0.251E-02    0.905E-03
DAV:   3    -0.123086852939E+03    0.84588E-06   -0.81344E-06   224   0.110E-02    0.162E-03
DAV:   4    -0.123086852975E+03   -0.36698E-07   -0.18621E-06   224   0.454E-03    0.103E-03
DAV:   5    -0.123086852995E+03   -0.19908E-07   -0.27997E-07   240   0.186E-03    0.386E-04
DAV:   6    -0.123086853001E+03   -0.60727E-08   -0.62020E-08   224   0.131E-03
  12 F= -.12308685E+03 E0= -.12308685E+03  d E =0.245122E-03  mag=     0.0000
quench:  g(F)=  0.000E+00 g(S)=  0.000E+00 dE (1.order)= 0.000E+00
 bond charge predicted
       N       E                     dE             d eps       ncg     rms          rms(c)
DAV:   1    -0.123087096074E+03   -0.24308E-03   -0.47756E-03   192   0.239E-01    0.115E-02
DAV:   2    -0.123087099175E+03   -0.31006E-05   -0.59607E-05   272   0.267E-02    0.879E-03
DAV:   3    -0.123087097821E+03    0.13535E-05   -0.64121E-06   224   0.982E-03    0.247E-03
DAV:   4    -0.123087097854E+03   -0.32363E-07   -0.14369E-06   240   0.414E-03    0.114E-03
DAV:   5    -0.123087097842E+03    0.12191E-07   -0.21293E-07   224   0.186E-03    0.357E-04
DAV:   6    -0.123087097847E+03   -0.50522E-08   -0.80902E-08   224   0.144E-03
  13 F= -.12308710E+03 E0= -.12308710E+03  d E =-.244845E-03  mag=     0.0000
quench:  g(F)=  0.000E+00 g(S)=  0.000E+00 dE (1.order)= 0.000E+00
 bond charge predicted
       N       E                     dE             d eps       ncg     rms          rms(c)
DAV:   1    -0.123087183409E+03   -0.85567E-04   -0.48105E-03   192   0.262E-01    0.115E-02
DAV:   2    -0.123087187781E+03   -0.43726E-05   -0.71190E-05   240   0.307E-02    0.942E-03
DAV:   3    -0.123087186304E+03    0.14772E-05   -0.55182E-06   232   0.995E-03    0.305E-03
DAV:   4    -0.123087186432E+03   -0.12784E-06   -0.17952E-06   232   0.472E-03    0.101E-03
DAV:   5    -0.123087186423E+03    0.91984E-08   -0.13675E-07   232   0.166E-03    0.365E-04
DAV:   6    -0.123087186431E+03   -0.86129E-08   -0.66672E-08   224   0.121E-03
  14 F= -.12308719E+03 E0= -.12308719E+03  d E =-.885846E-04  mag=    -0.0000
quench:  g(F)=  0.000E+00 g(S)=  0.000E+00 dE (1.order)= 0.000E+00
 bond charge predicted
       N       E                     dE             d eps       ncg     rms          rms(c)
DAV:   1    -0.123087225979E+03   -0.39557E-04   -0.49038E-03   208   0.252E-01    0.127E-02
DAV:   2    -0.123087227165E+03   -0.11857E-05   -0.43376E-05   240   0.249E-02    0.953E-03
DAV:   3    -0.123087225953E+03    0.12119E-05   -0.12859E-05   256   0.138E-02    0.279E-03
DAV:   4    -0.123087225680E+03    0.27288E-06   -0.20566E-06   240   0.578E-03    0.727E-04
DAV:   5    -0.123087225706E+03   -0.25387E-07   -0.25615E-07   240   0.189E-03    0.252E-04
DAV:   6    -0.123087225696E+03    0.97507E-08   -0.26532E-08   224   0.886E-04
  15 F= -.12308723E+03 E0= -.12308723E+03  d E =-.392647E-04  mag=    -0.0000
quench:  g(F)=  0.000E+00 g(S)=  0.000E+00 dE (1.order)= 0.000E+00
 bond charge predicted
       N       E                     dE             d eps       ncg     rms          rms(c)
DAV:   1    -0.123087337037E+03   -0.11133E-03   -0.48931E-03   192   0.244E-01    0.125E-02
DAV:   2    -0.123087338402E+03   -0.13648E-05   -0.45440E-05   224   0.244E-02    0.956E-03
DAV:   3    -0.123087337141E+03    0.12613E-05   -0.12823E-05   240   0.135E-02    0.273E-03
DAV:   4    -0.123087336895E+03    0.24613E-06   -0.22161E-06   224   0.567E-03    0.768E-04
DAV:   5    -0.123087336908E+03   -0.13405E-07   -0.27940E-07   224   0.195E-03    0.328E-04
DAV:   6    -0.123087336903E+03    0.47673E-08   -0.31500E-08   224   0.936E-04
  16 F= -.12308734E+03 E0= -.12308734E+03  d E =-.111207E-03  mag=    -0.0000
quench:  g(F)=  0.000E+00 g(S)=  0.000E+00 dE (1.order)= 0.000E+00
 bond charge predicted
       N       E                     dE             d eps       ncg     rms          rms(c)
DAV:   1    -0.123087126712E+03    0.21020E-03   -0.48229E-03   192   0.263E-01    0.116E-02
DAV:   2    -0.123087130785E+03   -0.40734E-05   -0.65821E-05   240   0.304E-02    0.952E-03
DAV:   3    -0.123087129615E+03    0.11698E-05   -0.71140E-06   224   0.111E-02    0.234E-03
DAV:   4    -0.123087129793E+03   -0.17751E-06   -0.17336E-06   240   0.460E-03    0.100E-03
DAV:   5    -0.123087129829E+03   -0.36370E-07   -0.16281E-07   240   0.168E-03    0.406E-04
DAV:   6    -0.123087129827E+03    0.22619E-08   -0.65985E-08   224   0.137E-03
  17 F= -.12308713E+03 E0= -.12308713E+03  d E =0.207076E-03  mag=    -0.0000
quench:  g(F)=  0.000E+00 g(S)=  0.000E+00 dE (1.order)= 0.000E+00
 bond charge predicted
       N       E                     dE             d eps       ncg     rms          rms(c)
DAV:   1    -0.123087382223E+03   -0.25239E-03   -0.48219E-03   192   0.260E-01    0.120E-02
DAV:   2    -0.123087384635E+03   -0.24127E-05   -0.51533E-05   240   0.265E-02    0.904E-03
DAV:   3    -0.123087383316E+03    0.13191E-05   -0.82243E-06   224   0.116E-02    0.163E-03
DAV:   4    -0.123087383306E+03    0.10763E-07   -0.17464E-06   224   0.466E-03    0.981E-04
DAV:   5    -0.123087383306E+03    0.97316E-10   -0.28803E-07   240   0.192E-03    0.379E-04
DAV:   6    -0.123087383301E+03    0.41859E-08   -0.60437E-08   224   0.130E-03
  18 F= -.12308738E+03 E0= -.12308738E+03  d E =-.253474E-03  mag=     0.0000
quench:  g(F)=  0.000E+00 g(S)=  0.000E+00 dE (1.order)= 0.000E+00
 bond charge predicted
       N       E                     dE             d eps       ncg     rms          rms(c)
DAV:   1    -0.123087142256E+03    0.24105E-03   -0.47782E-03   192   0.256E-01    0.113E-02
DAV:   2    -0.123087145901E+03   -0.36445E-05   -0.59295E-05   224   0.276E-02    0.879E-03
DAV:   3    -0.123087144936E+03    0.96518E-06   -0.63000E-06   224   0.999E-03    0.250E-03
DAV:   4    -0.123087145119E+03   -0.18386E-06   -0.14183E-06   240   0.420E-03    0.114E-03
DAV:   5    -0.123087145156E+03   -0.36879E-07   -0.22650E-07   224   0.197E-03    0.358E-04
DAV:   6    -0.123087145149E+03    0.69056E-08   -0.88643E-08   224   0.153E-03
  19 F= -.12308715E+03 E0= -.12308715E+03  d E =0.238152E-03  mag=     0.0000
quench:  g(F)=  0.000E+00 g(S)=  0.000E+00 dE (1.order)= 0.000E+00
 bond charge predicted
       N       E                     dE             d eps       ncg     rms          rms(c)
DAV:   1    -0.123087092570E+03    0.52586E-04   -0.49414E-03   192   0.267E-01    0.115E-02
DAV:   2    -0.123087097158E+03   -0.45883E-05   -0.72871E-05   224   0.315E-02    0.933E-03
DAV:   3    -0.123087095917E+03    0.12409E-05   -0.70297E-06   224   0.105E-02    0.254E-03
DAV:   4    -0.123087096082E+03   -0.16500E-06   -0.16337E-06   240   0.427E-03    0.102E-03
DAV:   5    -0.123087096106E+03   -0.23398E-07   -0.14663E-07   224   0.154E-03    0.364E-04
DAV:   6    -0.123087096110E+03   -0.42339E-08   -0.51875E-08   224   0.118E-03
  20 F= -.12308710E+03 E0= -.12308710E+03  d E =0.490394E-04  mag=    -0.0000
quench:  g(F)=  0.000E+00 g(S)=  0.000E+00 dE (1.order)= 0.000E+00
 bond charge predicted
       N       E                     dE             d eps       ncg     rms          rms(c)
DAV:   1    -0.123086855120E+03    0.24099E-03   -0.48297E-03   192   0.260E-01    0.120E-02
DAV:   2    -0.123086857897E+03   -0.27773E-05   -0.50283E-05   224   0.264E-02    0.906E-03
DAV:   3    -0.123086857098E+03    0.79918E-06   -0.84176E-06   240   0.117E-02    0.163E-03
DAV:   4    -0.123086857094E+03    0.41418E-08   -0.17925E-06   240   0.480E-03    0.986E-04
DAV:   5    -0.123086857134E+03   -0.40372E-07   -0.27941E-07   240   0.190E-03    0.368E-04
DAV:   6    -0.123086857133E+03    0.40700E-09   -0.57373E-08   224   0.127E-03
  21 F= -.12308686E+03 E0= -.12308686E+03  d E =0.238977E-03  mag=    -0.0000
quench:  g(F)=  0.000E+00 g(S)=  0.000E+00 dE (1.order)= 0.000E+00
 bond charge predicted
       N       E                     dE             d eps       ncg     rms          rms(c)
DAV:   1    -0.123087085783E+03   -0.22865E-03   -0.47745E-03   192   0.256E-01    0.114E-02
DAV:   2    -0.123087089056E+03   -0.32734E-05   -0.60059E-05   240   0.276E-02    0.881E-03
DAV:   3    -0.123087087724E+03    0.13330E-05   -0.55052E-06   224   0.935E-03    0.292E-03
DAV:   4    -0.123087087753E+03   -0.29549E-07   -0.14025E-06   240   0.438E-03    0.118E-03
DAV:   5    -0.123087087745E+03    0.77569E-08   -0.21432E-07   224   0.199E-03    0.383E-04
DAV:   6    -0.123087087748E+03   -0.26139E-08   -0.96433E-08   224   0.150E-03
  22 F= -.12308709E+03 E0= -.12308709E+03  d E =-.230614E-03  mag=     0.0000
quench:  g(F)=  0.000E+00 g(S)=  0.000E+00 dE (1.order)= 0.000E+00
 bond charge predicted
       N       E                     dE             d eps       ncg     rms          rms(c)
DAV:   1    -0.123087279473E+03   -0.19173E-03   -0.27379E-03   192   0.196E-01    0.108E-02
DAV:   2    -0.123087281450E+03   -0.19773E-05   -0.44681E-05   224   0.235E-02    0.814E-03
DAV:   3    -0.123087280402E+03    0.10476E-05   -0.58330E-06   224   0.954E-03    0.246E-03
DAV:   4    -0.123087280422E+03   -0.19643E-07   -0.11332E-06   224   0.392E-03    0.123E-03
DAV:   5    -0.123087280391E+03    0.31280E-07   -0.20363E-07   224   0.176E-03    0.331E-04
DAV:   6    -0.123087280390E+03    0.61323E-09   -0.56245E-08   224   0.120E-03
  23 F= -.12308728E+03 E0= -.12308728E+03  d E =-.192642E-03  mag=    -0.0000
quench:  g(F)=  0.000E+00 g(S)=  0.000E+00 dE (1.order)= 0.000E+00
 bond charge predicted
       N       E                     dE             d eps       ncg     rms          rms(c)
DAV:   1    -0.123086998622E+03    0.28177E-03   -0.75934E-04   256   0.101E-01    0.135E-02
DAV:   2    -0.123086996658E+03    0.19638E-05   -0.15928E-05   224   0.155E-02    0.826E-03
DAV:   3    -0.123086996794E+03   -0.13587E-06   -0.11206E-05   224   0.118E-02    0.339E-03
DAV:   4    -0.123086996340E+03    0.45419E-06   -0.19572E-06   208   0.544E-03    0.159E-03
DAV:   5    -0.123086996491E+03   -0.15073E-06   -0.67680E-07   224   0.275E-03    0.369E-04
DAV:   6    -0.123086996467E+03    0.23428E-07   -0.68999E-08   200   0.136E-03    0.232E-04
DAV:   7    -0.123086996462E+03    0.49458E-08   -0.19321E-08   224   0.726E-04
  24 F= -.12308700E+03 E0= -.12308700E+03  d E =0.283928E-03  mag=     0.0000
quench:  g(F)=  0.000E+00 g(S)=  0.000E+00 dE (1.order)= 0.000E+00
 bond charge predicted
       N       E                     dE             d eps       ncg     rms          rms(c)
DAV:   1    -0.123087090017E+03   -0.93550E-04   -0.70935E-04   208   0.947E-02    0.819E-03
DAV:   2    -0.123087089768E+03    0.24955E-06   -0.52321E-06   192   0.795E-03    0.498E-03
DAV:   3    -0.123087089734E+03    0.33883E-07   -0.13623E-06   208   0.418E-03    0.101E-03
DAV:   4    -0.123087089715E+03    0.19109E-07   -0.19694E-07   240   0.166E-03    0.601E-04
DAV:   5    -0.123087089713E+03    0.21200E-08   -0.93515E-08   224   0.106E-03
  25 F= -.12308709E+03 E0= -.12308709E+03  d E =-.932503E-04  mag=    -0.0000
quench:  g(F)=  0.000E+00 g(S)=  0.000E+00 dE (1.order)= 0.000E+00
 bond charge predicted
       N       E                     dE             d eps       ncg     rms          rms(c)
DAV:   1    -0.123086970779E+03    0.11894E-03   -0.71332E-04   240   0.968E-02    0.948E-03
DAV:   2    -0.123086971112E+03   -0.33310E-06   -0.12166E-05   208   0.118E-02    0.650E-03
DAV:   3    -0.123086971169E+03   -0.57359E-07   -0.25002E-06   224   0.581E-03    0.148E-03
DAV:   4    -0.123086971089E+03    0.80217E-07   -0.41176E-07   224   0.248E-03    0.757E-04
DAV:   5    -0.123086971102E+03   -0.12725E-07   -0.20488E-07   224   0.146E-03    0.314E-04
DAV:   6    -0.123086971105E+03   -0.36760E-08   -0.23601E-08   224   0.594E-04
  26 F= -.12308697E+03 E0= -.12308697E+03  d E =0.118607E-03  mag=     0.0000
quench:  g(F)=  0.000E+00 g(S)=  0.000E+00 dE (1.order)= 0.000E+00
 bond charge predicted
       N       E                     dE             d eps       ncg     rms          rms(c)
DAV:   1    -0.123087011302E+03   -0.40201E-04   -0.70665E-04   192   0.945E-02    0.774E-03
DAV:   2    -0.123087011389E+03   -0.86835E-07   -0.49124E-06   224   0.753E-03    0.484E-03
DAV:   3    -0.123087011308E+03    0.81761E-07   -0.97304E-07   224   0.363E-03    0.723E-04
DAV:   4    -0.123087011296E+03    0.11218E-07   -0.15042E-07   240   0.145E-03    0.502E-04
DAV:   5    -0.123087011309E+03   -0.12670E-07   -0.73624E-08   224   0.103E-03    0.213E-04
DAV:   6    -0.123087011299E+03    0.98269E-08   -0.16923E-08   224   0.664E-04
  27 F= -.12308701E+03 E0= -.12308701E+03  d E =-.401938E-04  mag=    -0.0000
quench:  g(F)=  0.000E+00 g(S)=  0.000E+00 dE (1.order)= 0.000E+00
 bond charge predicted
       N       E                     dE             d eps       ncg     rms          rms(c)
DAV:   1    -0.123087197977E+03   -0.18667E-03   -0.71646E-04   272   0.971E-02    0.103E-02
DAV:   2    -0.123087196757E+03    0.12198E-05   -0.82579E-06   208   0.109E-02    0.616E-03
DAV:   3    -0.123087196452E+03    0.30479E-06   -0.38164E-06   224   0.695E-03    0.189E-03
DAV:   4    -0.123087196362E+03    0.90869E-07   -0.71912E-07   224   0.325E-03    0.891E-04
DAV:   5    -0.123087196361E+03    0.73805E-09   -0.17915E-07   224   0.153E-03    0.254E-04
DAV:   6    -0.123087196346E+03    0.14905E-07   -0.23685E-08   224   0.802E-04    0.153E-04
DAV:   7    -0.123087196348E+03   -0.24336E-08   -0.88274E-09   224   0.474E-04
  28 F= -.12308720E+03 E0= -.12308720E+03  d E =-.185049E-03  mag=     0.0000
quench:  g(F)=  0.000E+00 g(S)=  0.000E+00 dE (1.order)= 0.000E+00
 bond charge predicted
       N       E                     dE             d eps       ncg     rms          rms(c)
DAV:   1    -0.123087201607E+03   -0.52615E-05   -0.69280E-04   208   0.979E-02    0.768E-03
DAV:   2    -0.123087201713E+03   -0.10585E-06   -0.64904E-06   208   0.906E-03    0.482E-03
DAV:   3    -0.123087201808E+03   -0.94502E-07   -0.81888E-07   240   0.328E-03    0.485E-04
DAV:   4    -0.123087201813E+03   -0.53296E-08   -0.12133E-07   256   0.110E-03    0.374E-04
DAV:   5    -0.123087201820E+03   -0.69331E-08   -0.20545E-08   224   0.554E-04
  29 F= -.12308720E+03 E0= -.12308720E+03  d E =-.547171E-05  mag=     0.0000
quench:  g(F)=  0.000E+00 g(S)=  0.000E+00 dE (1.order)= 0.000E+00
 bond charge predicted
       N       E                     dE             d eps       ncg     rms          rms(c)
DAV:   1    -0.123087225654E+03   -0.23841E-04   -0.70104E-04   192   0.815E-02    0.771E-03
DAV:   2    -0.123087225681E+03   -0.26934E-07   -0.47913E-06   224   0.722E-03    0.475E-03
DAV:   3    -0.123087225679E+03    0.15659E-08   -0.80464E-07   224   0.326E-03    0.628E-04
DAV:   4    -0.123087225679E+03    0.35720E-09   -0.11464E-07   240   0.126E-03    0.444E-04
DAV:   5    -0.123087225695E+03   -0.16457E-07   -0.55213E-08   224   0.875E-04    0.197E-04
DAV:   6    -0.123087225695E+03    0.55934E-10   -0.11727E-08   240   0.524E-04
  30 F= -.12308723E+03 E0= -.12308723E+03  d E =-.238754E-04  mag=     0.0000
quench:  g(F)=  0.000E+00 g(S)=  0.000E+00 dE (1.order)= 0.000E+00
 bond charge predicted
       N       E                     dE             d eps       ncg     rms          rms(c)
DAV:   1    -0.123087304923E+03   -0.79228E-04   -0.70538E-04   192   0.803E-02    0.791E-03
DAV:   2    -0.123087304880E+03    0.43688E-07   -0.53633E-06   224   0.709E-03    0.490E-03
DAV:   3    -0.123087304837E+03    0.42745E-07   -0.11696E-06   224   0.373E-03    0.884E-04
DAV:   4    -0.123087304813E+03    0.23912E-07   -0.15908E-07   256   0.157E-03    0.540E-04
DAV:   5    -0.123087304829E+03   -0.15739E-07   -0.85815E-08   224   0.121E-03    0.201E-04
DAV:   6    -0.123087304814E+03    0.15189E-07   -0.24514E-08   224   0.776E-04    0.137E-04
DAV:   7    -0.123087304813E+03    0.63392E-09   -0.41135E-09   224   0.317E-04
  31 F= -.12308730E+03 E0= -.12308730E+03  d E =-.791177E-04  mag=    -0.0000
quench:  g(F)=  0.000E+00 g(S)=  0.000E+00 dE (1.order)= 0.000E+00
 bond charge predicted
       N       E                     dE             d eps       ncg     rms          rms(c)
DAV:   1    -0.123087276184E+03    0.28630E-04   -0.74157E-04   256   0.105E-01    0.118E-02
DAV:   2    -0.123087275004E+03    0.11801E-05   -0.16019E-05   208   0.152E-02    0.759E-03
DAV:   3    -0.123087274848E+03    0.15553E-06   -0.97753E-06   224   0.107E-02    0.329E-03
DAV:   4    -0.123087274485E+03    0.36308E-06   -0.18679E-06   224   0.517E-03    0.150E-03
DAV:   5    -0.123087274507E+03   -0.21280E-07   -0.68424E-07   224   0.251E-03    0.457E-04
DAV:   6    -0.123087274506E+03    0.87789E-09   -0.40248E-08   224   0.740E-04
  32 F= -.12308727E+03 E0= -.12308727E+03  d E =0.303073E-04  mag=     0.0000
quench:  g(F)=  0.000E+00 g(S)=  0.000E+00 dE (1.order)= 0.000E+00
 bond charge predicted
       N       E                     dE             d eps       ncg     rms          rms(c)
DAV:   1    -0.123087254628E+03    0.19879E-04   -0.71701E-04   192   0.928E-02    0.784E-03
DAV:   2    -0.123087254861E+03   -0.23288E-06   -0.51772E-06   224   0.758E-03    0.487E-03
DAV:   3    -0.123087254902E+03   -0.41339E-07   -0.10252E-06   224   0.362E-03    0.734E-04
DAV:   4    -0.123087254888E+03    0.14117E-07   -0.13631E-07   240   0.137E-03    0.484E-04
DAV:   5    -0.123087254887E+03    0.73942E-09   -0.73210E-08   224   0.922E-04
  33 F= -.12308725E+03 E0= -.12308725E+03  d E =0.196184E-04  mag=    -0.0000
quench:  g(F)=  0.000E+00 g(S)=  0.000E+00 dE (1.order)= 0.000E+00
 bond charge predicted
       N       E                     dE             d eps       ncg     rms          rms(c)
DAV:   1    -0.123087092415E+03    0.16247E-03   -0.72814E-04   240   0.951E-02    0.101E-02
DAV:   2    -0.123087091914E+03    0.50112E-06   -0.86710E-06   208   0.107E-02    0.618E-03
DAV:   3    -0.123087092086E+03   -0.17284E-06   -0.42179E-06   224   0.722E-03    0.200E-03
DAV:   4    -0.123087091941E+03    0.14521E-06   -0.75095E-07   208   0.324E-03    0.985E-04
DAV:   5    -0.123087091994E+03   -0.52353E-07   -0.23851E-07   224   0.159E-03    0.257E-04
DAV:   6    -0.123087091992E+03    0.13997E-08   -0.19607E-08   240   0.601E-04
  34 F= -.12308709E+03 E0= -.12308709E+03  d E =0.162895E-03  mag=     0.0000
quench:  g(F)=  0.000E+00 g(S)=  0.000E+00 dE (1.order)= 0.000E+00
 bond charge predicted
       N       E                     dE             d eps       ncg     rms          rms(c)
DAV:   1    -0.123086999666E+03    0.92328E-04   -0.72291E-04   240   0.950E-02    0.950E-03
DAV:   2    -0.123086999820E+03   -0.15429E-06   -0.94122E-06   192   0.105E-02    0.624E-03
DAV:   3    -0.123086999892E+03   -0.72071E-07   -0.24046E-06   224   0.562E-03    0.147E-03
DAV:   4    -0.123086999796E+03    0.96077E-07   -0.38733E-07   224   0.255E-03    0.791E-04
DAV:   5    -0.123086999817E+03   -0.21287E-07   -0.23071E-07   224   0.165E-03    0.293E-04
DAV:   6    -0.123086999802E+03    0.15222E-07   -0.43450E-08   224   0.101E-03    0.147E-04
DAV:   7    -0.123086999801E+03    0.10307E-08   -0.96309E-09   224   0.467E-04
  35 F= -.12308700E+03 E0= -.12308700E+03  d E =0.921910E-04  mag=    -0.0000
quench:  g(F)=  0.000E+00 g(S)=  0.000E+00 dE (1.order)= 0.000E+00
 bond charge predicted
       N       E                     dE             d eps       ncg     rms          rms(c)
DAV:   1    -0.123087270999E+03   -0.27120E-03   -0.76979E-04   256   0.993E-02    0.135E-02
DAV:   2    -0.123087268289E+03    0.27094E-05   -0.17342E-05   224   0.155E-02    0.832E-03
DAV:   3    -0.123087267411E+03    0.87813E-06   -0.11278E-05   224   0.115E-02    0.330E-03
DAV:   4    -0.123087267112E+03    0.29879E-06   -0.20662E-06   224   0.539E-03    0.148E-03
DAV:   5    -0.123087267072E+03    0.40331E-07   -0.62292E-07   224   0.246E-03    0.393E-04
DAV:   6    -0.123087267071E+03    0.10175E-08   -0.32021E-08   240   0.655E-04
  36 F= -.12308727E+03 E0= -.12308727E+03  d E =-.267270E-03  mag=    -0.0000
quench:  g(F)=  0.000E+00 g(S)=  0.000E+00 dE (1.order)= 0.000E+00
 bond charge predicted
       N       E                     dE             d eps       ncg     rms          rms(c)
DAV:   1    -0.123087187469E+03    0.79603E-04   -0.71472E-04   224   0.933E-02    0.813E-03
DAV:   2    -0.123087187579E+03   -0.10990E-06   -0.54435E-06   208   0.798E-03    0.501E-03
DAV:   3    -0.123087187728E+03   -0.14979E-06   -0.12917E-06   224   0.415E-03    0.971E-04
DAV:   4    -0.123087187704E+03    0.24161E-07   -0.20151E-07   240   0.167E-03    0.586E-04
DAV:   5    -0.123087187704E+03   -0.17599E-09   -0.89300E-08   224   0.102E-03
  37 F= -.12308719E+03 E0= -.12308719E+03  d E =0.793666E-04  mag=     0.0000
quench:  g(F)=  0.000E+00 g(S)=  0.000E+00 dE (1.order)= 0.000E+00
 bond charge predicted
       N       E                     dE             d eps       ncg     rms          rms(c)
DAV:   1    -0.123087259897E+03   -0.72193E-04   -0.72903E-04   256   0.999E-02    0.976E-03
DAV:   2    -0.123087259254E+03    0.64322E-06   -0.97133E-06   208   0.114E-02    0.614E-03
DAV:   3    -0.123087259070E+03    0.18432E-06   -0.45244E-06   224   0.713E-03    0.216E-03
DAV:   4    -0.123087258932E+03    0.13763E-06   -0.75232E-07   240   0.323E-03    0.105E-03
DAV:   5    -0.123087258932E+03   -0.16098E-09   -0.31428E-07   224   0.175E-03    0.331E-04
DAV:   6    -0.123087258931E+03    0.77580E-09   -0.26926E-08   224   0.631E-04
  38 F= -.12308726E+03 E0= -.12308726E+03  d E =-.712270E-04  mag=     0.0000
quench:  g(F)=  0.000E+00 g(S)=  0.000E+00 dE (1.order)= 0.000E+00
 bond charge predicted
       N       E                     dE             d eps       ncg     rms          rms(c)
DAV:   1    -0.123087004053E+03    0.25488E-03   -0.77016E-04   256   0.985E-02    0.136E-02
DAV:   2    -0.123087002005E+03    0.20487E-05   -0.16280E-05   224   0.150E-02    0.823E-03
DAV:   3    -0.123087002058E+03   -0.52956E-07   -0.11107E-05   224   0.114E-02    0.325E-03
DAV:   4    -0.123087001653E+03    0.40464E-06   -0.21586E-06   224   0.555E-03    0.145E-03
DAV:   5    -0.123087001778E+03   -0.12487E-06   -0.51400E-07   224   0.231E-03    0.300E-04
DAV:   6    -0.123087001772E+03    0.62419E-08   -0.33564E-08   216   0.900E-04
  39 F= -.12308700E+03 E0= -.12308700E+03  d E =0.257160E-03  mag=     0.0000
quench:  g(F)=  0.000E+00 g(S)=  0.000E+00 dE (1.order)= 0.000E+00
 bond charge predicted
       N       E                     dE             d eps       ncg     rms          rms(c)
DAV:   1    -0.123087081757E+03   -0.79979E-04   -0.71480E-04   208   0.926E-02    0.815E-03
DAV:   2    -0.123087081632E+03    0.12531E-06   -0.55035E-06   192   0.802E-03    0.497E-03
DAV:   3    -0.123087081556E+03    0.76118E-07   -0.13401E-06   192   0.418E-03    0.952E-04
DAV:   4    -0.123087081513E+03    0.42888E-07   -0.21499E-07   224   0.198E-03    0.575E-04
DAV:   5    -0.123087081549E+03   -0.36551E-07   -0.12026E-07   208   0.145E-03    0.235E-04
DAV:   6    -0.123087081507E+03    0.42826E-07   -0.45212E-08   192   0.113E-03    0.146E-04
DAV:   7    -0.123087081503E+03    0.36009E-08   -0.53148E-09   224   0.344E-04
  40 F= -.12308708E+03 E0= -.12308708E+03  d E =-.797313E-04  mag=    -0.0000
quench:  g(F)=  0.000E+00 g(S)=  0.000E+00 dE (1.order)= 0.000E+00
 bond charge predicted
       N       E                     dE             d eps       ncg     rms          rms(c)
DAV:   1    -0.123086984494E+03    0.97012E-04   -0.72304E-04   224   0.946E-02    0.995E-03
DAV:   2    -0.123086984576E+03   -0.81555E-07   -0.10276E-05   224   0.110E-02    0.652E-03
DAV:   3    -0.123086984576E+03   -0.21555E-09   -0.26532E-06   224   0.597E-03    0.154E-03
DAV:   4    -0.123086984490E+03    0.86304E-07   -0.44258E-07   224   0.262E-03    0.812E-04
DAV:   5    -0.123086984489E+03    0.82855E-09   -0.24013E-07   240   0.159E-03    0.307E-04
DAV:   6    -0.123086984489E+03   -0.25807E-09   -0.29704E-08   224   0.638E-04
  41 F= -.12308698E+03 E0= -.12308698E+03  d E =0.970138E-04  mag=    -0.0000
quench:  g(F)=  0.000E+00 g(S)=  0.000E+00 dE (1.order)= 0.000E+00
 bond charge predicted
       N       E                     dE             d eps       ncg     rms          rms(c)
DAV:   1    -0.123087018730E+03   -0.34241E-04   -0.71539E-04   192   0.921E-02    0.790E-03
DAV:   2    -0.123087018807E+03   -0.76623E-07   -0.50539E-06   224   0.756E-03    0.487E-03
DAV:   3    -0.123087018674E+03    0.13295E-06   -0.99310E-07   224   0.357E-03    0.727E-04
DAV:   4    -0.123087018670E+03    0.40764E-08   -0.14203E-07   240   0.138E-03    0.480E-04
DAV:   5    -0.123087018674E+03   -0.43776E-08   -0.66710E-08   224   0.873E-04
  42 F= -.12308702E+03 E0= -.12308702E+03  d E =-.341849E-04  mag=     0.0000
quench:  g(F)=  0.000E+00 g(S)=  0.000E+00 dE (1.order)= 0.000E+00
 bond charge predicted
       N       E                     dE             d eps       ncg     rms          rms(c)
DAV:   1    -0.123087177674E+03   -0.15900E-03   -0.72811E-04   224   0.943E-02    0.101E-02
DAV:   2    -0.123087176563E+03    0.11110E-05   -0.78755E-06   224   0.103E-02    0.606E-03
DAV:   3    -0.123087176230E+03    0.33317E-06   -0.39814E-06   224   0.685E-03    0.189E-03
DAV:   4    -0.123087176135E+03    0.95311E-07   -0.69342E-07   224   0.313E-03    0.935E-04
DAV:   5    -0.123087176115E+03    0.19573E-07   -0.20610E-07   224   0.148E-03    0.258E-04
DAV:   6    -0.123087176114E+03    0.10471E-08   -0.16399E-08   224   0.543E-04
  43 F= -.12308718E+03 E0= -.12308718E+03  d E =-.157440E-03  mag=     0.0000
quench:  g(F)=  0.000E+00 g(S)=  0.000E+00 dE (1.order)= 0.000E+00
 bond charge predicted
       N       E                     dE             d eps       ncg     rms          rms(c)
DAV:   1    -0.123087279569E+03   -0.10345E-03   -0.72723E-04   240   0.986E-02    0.101E-02
DAV:   2    -0.123087278784E+03    0.78480E-06   -0.10331E-05   192   0.113E-02    0.637E-03
DAV:   3    -0.123087278514E+03    0.27004E-06   -0.52449E-06   224   0.734E-03    0.236E-03
DAV:   4    -0.123087278346E+03    0.16784E-06   -0.83817E-07   224   0.331E-03    0.117E-03
DAV:   5    -0.123087278346E+03   -0.23647E-09   -0.40557E-07   224   0.195E-03    0.337E-04
DAV:   6    -0.123087278335E+03    0.10646E-07   -0.46150E-08   192   0.970E-04    0.166E-04
DAV:   7    -0.123087278340E+03   -0.47739E-08   -0.11117E-08   192   0.505E-04
  44 F= -.12308728E+03 E0= -.12308728E+03  d E =-.102226E-03  mag=     0.0000
quench:  g(F)=  0.000E+00 g(S)=  0.000E+00 dE (1.order)= 0.000E+00
 bond charge predicted
       N       E                     dE             d eps       ncg     rms          rms(c)
DAV:   1    -0.123087257011E+03    0.21324E-04   -0.71316E-04   224   0.780E-02    0.789E-03
DAV:   2    -0.123087257238E+03   -0.22724E-06   -0.51818E-06   224   0.672E-03    0.486E-03
DAV:   3    -0.123087257274E+03   -0.35895E-07   -0.97268E-07   224   0.331E-03    0.721E-04
DAV:   4    -0.123087257263E+03    0.11439E-07   -0.13646E-07   240   0.124E-03    0.475E-04
DAV:   5    -0.123087257262E+03    0.12253E-08   -0.67298E-08   224   0.825E-04
  45 F= -.12308726E+03 E0= -.12308726E+03  d E =0.210785E-04  mag=     0.0000
quench:  g(F)=  0.000E+00 g(S)=  0.000E+00 dE (1.order)= 0.000E+00
 bond charge predicted
       N       E                     dE             d eps       ncg     rms          rms(c)
DAV:   1    -0.123087101474E+03    0.15579E-03   -0.73109E-04   240   0.812E-02    0.101E-02
DAV:   2    -0.123087100879E+03    0.59571E-06   -0.80275E-06   208   0.947E-03    0.598E-03
DAV:   3    -0.123087101046E+03   -0.16714E-06   -0.36466E-06   224   0.610E-03    0.180E-03
DAV:   4    -0.123087100936E+03    0.11008E-06   -0.62048E-07   224   0.277E-03    0.882E-04
DAV:   5    -0.123087100987E+03   -0.50987E-07   -0.17545E-07   256   0.129E-03    0.262E-04
DAV:   6    -0.123087100987E+03   -0.67143E-09   -0.14516E-08   240   0.441E-04
  46 F= -.12308710E+03 E0= -.12308710E+03  d E =0.156274E-03  mag=     0.0000
quench:  g(F)=  0.000E+00 g(S)=  0.000E+00 dE (1.order)= 0.000E+00
 bond charge predicted
       N       E                     dE             d eps       ncg     rms          rms(c)
DAV:   1    -0.123086959568E+03    0.14142E-03   -0.72949E-04   224   0.101E-01    0.102E-02
DAV:   2    -0.123086959228E+03    0.33951E-06   -0.11737E-05   224   0.130E-02    0.656E-03
DAV:   3    -0.123086959337E+03   -0.10918E-06   -0.55730E-06   224   0.897E-03    0.241E-03
DAV:   4    -0.123086959132E+03    0.20511E-06   -0.10613E-06   208   0.407E-03    0.127E-03
DAV:   5    -0.123086959175E+03   -0.42920E-07   -0.41889E-07   240   0.212E-03    0.279E-04
DAV:   6    -0.123086959174E+03    0.14018E-08   -0.36843E-08   224   0.864E-04
  47 F= -.12308696E+03 E0= -.12308696E+03  d E =0.141814E-03  mag=    -0.0000
quench:  g(F)=  0.000E+00 g(S)=  0.000E+00 dE (1.order)= 0.000E+00
 bond charge predicted
       N       E                     dE             d eps       ncg     rms          rms(c)
DAV:   1    -0.123087019169E+03   -0.59994E-04   -0.71169E-04   208   0.943E-02    0.802E-03
DAV:   2    -0.123087019130E+03    0.38662E-07   -0.53175E-06   224   0.807E-03    0.495E-03
DAV:   3    -0.123087019002E+03    0.12851E-06   -0.11797E-06   224   0.402E-03    0.903E-04
DAV:   4    -0.123087018975E+03    0.26958E-07   -0.19566E-07   240   0.180E-03    0.548E-04
DAV:   5    -0.123087019006E+03   -0.31045E-07   -0.10247E-07   224   0.132E-03    0.245E-04
DAV:   6    -0.123087018972E+03    0.34153E-07   -0.31613E-08   224   0.923E-04    0.136E-04
DAV:   7    -0.123087018972E+03   -0.52205E-09   -0.62369E-09   224   0.372E-04
  48 F= -.12308702E+03 E0= -.12308702E+03  d E =-.597984E-04  mag=     0.0000
quench:  g(F)=  0.000E+00 g(S)=  0.000E+00 dE (1.order)= 0.000E+00
 bond charge predicted
       N       E                     dE             d eps       ncg     rms          rms(c)
DAV:   1    -0.123087165522E+03   -0.14655E-03   -0.71484E-04   208   0.954E-02    0.919E-03
DAV:   2    -0.123087164809E+03    0.71327E-06   -0.65477E-06   224   0.947E-03    0.573E-03
DAV:   3    -0.123087164556E+03    0.25273E-06   -0.31683E-06   224   0.636E-03    0.181E-03
DAV:   4    -0.123087164490E+03    0.65875E-07   -0.55892E-07   224   0.284E-03    0.935E-04
DAV:   5    -0.123087164485E+03    0.51202E-08   -0.24010E-07   224   0.151E-03    0.301E-04
DAV:   6    -0.123087164488E+03   -0.32023E-08   -0.17580E-08   240   0.483E-04
  49 F= -.12308716E+03 E0= -.12308716E+03  d E =-.145516E-03  mag=     0.0000
quench:  g(F)=  0.000E+00 g(S)=  0.000E+00 dE (1.order)= 0.000E+00
 bond charge predicted
       N       E                     dE             d eps       ncg     rms          rms(c)
DAV:   1    -0.123087001850E+03    0.16263E-03   -0.71958E-04   240   0.991E-02    0.950E-03
DAV:   2    -0.123087001738E+03    0.11198E-06   -0.94282E-06   224   0.109E-02    0.601E-03
DAV:   3    -0.123087002017E+03   -0.27842E-06   -0.42545E-06   224   0.695E-03    0.208E-03
DAV:   4    -0.123087001856E+03    0.16081E-06   -0.70308E-07   256   0.304E-03    0.114E-03
DAV:   5    -0.123087001875E+03   -0.19043E-07   -0.37286E-07   224   0.182E-03    0.306E-04
DAV:   6    -0.123087001875E+03   -0.60209E-09   -0.31116E-08   240   0.629E-04
  50 F= -.12308700E+03 E0= -.12308700E+03  d E =0.162613E-03  mag=     0.0000
quench:  g(F)=  0.000E+00 g(S)=  0.000E+00 dE (1.order)= 0.000E+00
 bond charge predicted
       N       E                     dE             d eps       ncg     rms          rms(c)
DAV:   1    -0.123087276418E+03   -0.27454E-03   -0.75831E-04   256   0.842E-02    0.135E-02
DAV:   2    -0.123087273720E+03    0.26976E-05   -0.17420E-05   224   0.138E-02    0.823E-03
DAV:   3    -0.123087272862E+03    0.85796E-06   -0.10739E-05   224   0.104E-02    0.322E-03
DAV:   4    -0.123087272572E+03    0.29040E-06   -0.20072E-06   208   0.496E-03    0.146E-03
DAV:   5    -0.123087272530E+03    0.41837E-07   -0.56370E-07   248   0.221E-03    0.363E-04
DAV:   6    -0.123087272526E+03    0.42126E-08   -0.30569E-08   224   0.701E-04
  51 F= -.12308727E+03 E0= -.12308727E+03  d E =-.270650E-03  mag=     0.0000
quench:  g(F)=  0.000E+00 g(S)=  0.000E+00 dE (1.order)= 0.000E+00
 bond charge predicted
       N       E                     dE             d eps       ncg     rms          rms(c)
DAV:   1    -0.123087195347E+03    0.77183E-04   -0.70967E-04   208   0.796E-02    0.814E-03
DAV:   2    -0.123087195443E+03   -0.95582E-07   -0.53827E-06   208   0.742E-03    0.495E-03
DAV:   3    -0.123087195597E+03   -0.15425E-06   -0.12798E-06   208   0.389E-03    0.939E-04
DAV:   4    -0.123087195559E+03    0.38327E-07   -0.19274E-07   216   0.174E-03    0.564E-04
DAV:   5    -0.123087195589E+03   -0.29807E-07   -0.10306E-07   224   0.123E-03    0.219E-04
DAV:   6    -0.123087195564E+03    0.24602E-07   -0.32868E-08   192   0.927E-04    0.139E-04
DAV:   7    -0.123087195560E+03    0.38431E-08   -0.50805E-09   224   0.337E-04
  52 F= -.12308720E+03 E0= -.12308720E+03  d E =0.769655E-04  mag=     0.0000
quench:  g(F)=  0.000E+00 g(S)=  0.000E+00 dE (1.order)= 0.000E+00
 bond charge predicted
       N       E                     dE             d eps       ncg     rms          rms(c)
DAV:   1    -0.123087271416E+03   -0.75851E-04   -0.72189E-04   256   0.100E-01    0.943E-03
DAV:   2    -0.123087271023E+03    0.39280E-06   -0.10326E-05   224   0.122E-02    0.618E-03
DAV:   3    -0.123087270799E+03    0.22351E-06   -0.47519E-06   240   0.841E-03    0.227E-03
DAV:   4    -0.123087270671E+03    0.12822E-06   -0.92201E-07   208   0.383E-03    0.127E-03
DAV:   5    -0.123087270650E+03    0.21138E-07   -0.44515E-07   224   0.217E-03    0.282E-04
DAV:   6    -0.123087270655E+03   -0.49258E-08   -0.37847E-08   240   0.750E-04
  53 F= -.12308727E+03 E0= -.12308727E+03  d E =-.750946E-04  mag=    -0.0000
quench:  g(F)=  0.000E+00 g(S)=  0.000E+00 dE (1.order)= 0.000E+00
 bond charge predicted
       N       E                     dE             d eps       ncg     rms          rms(c)
DAV:   1    -0.123086996978E+03    0.27367E-03   -0.75042E-04   272   0.101E-01    0.133E-02
DAV:   2    -0.123086995035E+03    0.19429E-05   -0.14768E-05   240   0.149E-02    0.811E-03
DAV:   3    -0.123086995116E+03   -0.81003E-07   -0.10024E-05   240   0.112E-02    0.323E-03
DAV:   4    -0.123086994728E+03    0.38755E-06   -0.18286E-06   208   0.519E-03    0.147E-03
DAV:   5    -0.123086994831E+03   -0.10246E-06   -0.54788E-07   224   0.226E-03    0.360E-04
DAV:   6    -0.123086994836E+03   -0.58258E-08   -0.20239E-08   240   0.555E-04
  54 F= -.12308699E+03 E0= -.12308699E+03  d E =0.275818E-03  mag=    -0.0000
quench:  g(F)=  0.000E+00 g(S)=  0.000E+00 dE (1.order)= 0.000E+00
 bond charge predicted
       N       E                     dE             d eps       ncg     rms          rms(c)
DAV:   1    -0.123087062617E+03   -0.67786E-04   -0.70000E-04   224   0.953E-02    0.786E-03
DAV:   2    -0.123087062555E+03    0.62269E-07   -0.52344E-06   224   0.796E-03    0.494E-03
DAV:   3    -0.123087062518E+03    0.36559E-07   -0.11754E-06   224   0.396E-03    0.925E-04
DAV:   4    -0.123087062502E+03    0.15511E-07   -0.18089E-07   240   0.162E-03    0.582E-04
DAV:   5    -0.123087062508E+03   -0.53481E-08   -0.10497E-07   224   0.115E-03    0.252E-04
DAV:   6    -0.123087062502E+03    0.58417E-08   -0.18071E-08   224   0.619E-04
  55 F= -.12308706E+03 E0= -.12308706E+03  d E =-.676656E-04  mag=    -0.0000
quench:  g(F)=  0.000E+00 g(S)=  0.000E+00 dE (1.order)= 0.000E+00
 bond charge predicted
       N       E                     dE             d eps       ncg     rms          rms(c)
DAV:   1    -0.123087260086E+03   -0.19758E-03   -0.72167E-04   240   0.102E-01    0.970E-03
DAV:   2    -0.123087259374E+03    0.71142E-06   -0.10046E-05   224   0.117E-02    0.617E-03
DAV:   3    -0.123087258927E+03    0.44689E-06   -0.43164E-06   224   0.754E-03    0.209E-03
DAV:   4    -0.123087258827E+03    0.10001E-06   -0.78399E-07   224   0.336E-03    0.112E-03
DAV:   5    -0.123087258815E+03    0.12556E-07   -0.33436E-07   240   0.191E-03    0.284E-04
DAV:   6    -0.123087258808E+03    0.64454E-08   -0.38694E-08   224   0.898E-04
  56 F= -.12308726E+03 E0= -.12308726E+03  d E =-.196306E-03  mag=     0.0000
quench:  g(F)=  0.000E+00 g(S)=  0.000E+00 dE (1.order)= 0.000E+00
 bond charge predicted
       N       E                     dE             d eps       ncg     rms          rms(c)
DAV:   1    -0.123087003771E+03    0.25504E-03   -0.75140E-04   256   0.987E-02    0.135E-02
DAV:   2    -0.123087001830E+03    0.19408E-05   -0.16651E-05   224   0.154E-02    0.821E-03
DAV:   3    -0.123087001874E+03   -0.44035E-07   -0.10523E-05   240   0.113E-02    0.318E-03
DAV:   4    -0.123087001475E+03    0.39900E-06   -0.20545E-06   208   0.547E-03    0.144E-03
DAV:   5    -0.123087001604E+03   -0.12879E-06   -0.54324E-07   224   0.239E-03    0.347E-04
DAV:   6    -0.123087001592E+03    0.11275E-07   -0.46762E-08   208   0.108E-03    0.201E-04
DAV:   7    -0.123087001593E+03   -0.16644E-09   -0.15937E-08   224   0.621E-04
  57 F= -.12308700E+03 E0= -.12308700E+03  d E =0.257216E-03  mag=     0.0000
quench:  g(F)=  0.000E+00 g(S)=  0.000E+00 dE (1.order)= 0.000E+00
 bond charge predicted
       N       E                     dE             d eps       ncg     rms          rms(c)
DAV:   1    -0.123087079205E+03   -0.77613E-04   -0.71296E-04   208   0.929E-02    0.820E-03
DAV:   2    -0.123087079046E+03    0.15957E-06   -0.52868E-06   208   0.794E-03    0.497E-03
DAV:   3    -0.123087078944E+03    0.10118E-06   -0.12262E-06   224   0.400E-03    0.926E-04
DAV:   4    -0.123087078926E+03    0.18717E-07   -0.17959E-07   240   0.160E-03    0.534E-04
DAV:   5    -0.123087078922E+03    0.38324E-08   -0.77577E-08   224   0.948E-04
  58 F= -.12308708E+03 E0= -.12308708E+03  d E =-.773292E-04  mag=     0.0000
quench:  g(F)=  0.000E+00 g(S)=  0.000E+00 dE (1.order)= 0.000E+00
 bond charge predicted
       N       E                     dE             d eps       ncg     rms          rms(c)
DAV:   1    -0.123087008167E+03    0.70759E-04   -0.72599E-04   224   0.100E-01    0.976E-03
DAV:   2    -0.123087007722E+03    0.44498E-06   -0.10086E-05   224   0.118E-02    0.615E-03
DAV:   3    -0.123087007797E+03   -0.75332E-07   -0.49489E-06   224   0.801E-03    0.223E-03
DAV:   4    -0.123087007630E+03    0.16731E-06   -0.90549E-07   208   0.360E-03    0.117E-03
DAV:   5    -0.123087007655E+03   -0.24521E-07   -0.38428E-07   224   0.192E-03    0.311E-04
DAV:   6    -0.123087007657E+03   -0.20864E-08   -0.27625E-08   240   0.613E-04
  59 F= -.12308701E+03 E0= -.12308701E+03  d E =0.712652E-04  mag=     0.0000
quench:  g(F)=  0.000E+00 g(S)=  0.000E+00 dE (1.order)= 0.000E+00
 bond charge predicted
       N       E                     dE             d eps       ncg     rms          rms(c)
DAV:   1    -0.123087275057E+03   -0.26740E-03   -0.75951E-04   256   0.995E-02    0.136E-02
DAV:   2    -0.123087272273E+03    0.27833E-05   -0.16852E-05   224   0.154E-02    0.828E-03
DAV:   3    -0.123087271430E+03    0.84307E-06   -0.10784E-05   240   0.113E-02    0.323E-03
DAV:   4    -0.123087271142E+03    0.28861E-06   -0.20125E-06   224   0.539E-03    0.145E-03
DAV:   5    -0.123087271101E+03    0.40704E-07   -0.57349E-07   240   0.237E-03    0.385E-04
DAV:   6    -0.123087271098E+03    0.33417E-08   -0.30329E-08   240   0.692E-04
  60 F= -.12308727E+03 E0= -.12308727E+03  d E =-.263441E-03  mag=     0.0000
quench:  g(F)=  0.000E+00 g(S)=  0.000E+00 dE (1.order)= 0.000E+00
 bond charge predicted
       N       E                     dE             d eps       ncg     rms          rms(c)
DAV:   1    -0.123087199836E+03    0.71265E-04   -0.71247E-04   256   0.937E-02    0.818E-03
DAV:   2    -0.123087199884E+03   -0.48490E-07   -0.53959E-06   192   0.808E-03    0.498E-03
DAV:   3    -0.123087200069E+03   -0.18479E-06   -0.13133E-06   224   0.419E-03    0.941E-04
DAV:   4    -0.123087200035E+03    0.33425E-07   -0.20008E-07   224   0.183E-03    0.575E-04
DAV:   5    -0.123087200058E+03   -0.23082E-07   -0.10213E-07   224   0.125E-03    0.223E-04
DAV:   6    -0.123087200043E+03    0.15397E-07   -0.29902E-08   224   0.878E-04    0.140E-04
DAV:   7    -0.123087200041E+03    0.16335E-08   -0.49710E-09   224   0.336E-04
  61 F= -.12308720E+03 E0= -.12308720E+03  d E =0.710561E-04  mag=     0.0000
quench:  g(F)=  0.000E+00 g(S)=  0.000E+00 dE (1.order)= 0.000E+00
 bond charge predicted
       N       E                     dE             d eps       ncg     rms          rms(c)
DAV:   1    -0.123086987426E+03    0.21262E-03   -0.73045E-04   272   0.100E-01    0.104E-02
DAV:   2    -0.123086987113E+03    0.31237E-06   -0.10410E-05   224   0.119E-02    0.652E-03
DAV:   3    -0.123086987382E+03   -0.26869E-06   -0.49474E-06   240   0.806E-03    0.215E-03
DAV:   4    -0.123086987201E+03    0.18110E-06   -0.79352E-07   224   0.352E-03    0.117E-03
DAV:   5    -0.123086987234E+03   -0.33065E-07   -0.38512E-07   224   0.207E-03    0.292E-04
DAV:   6    -0.123086987233E+03    0.69213E-09   -0.39685E-08   240   0.743E-04
  62 F= -.12308699E+03 E0= -.12308699E+03  d E =0.212808E-03  mag=    -0.0000
quench:  g(F)=  0.000E+00 g(S)=  0.000E+00 dE (1.order)= 0.000E+00
 bond charge predicted
       N       E                     dE             d eps       ncg     rms          rms(c)
DAV:   1    -0.123087026381E+03   -0.39147E-04   -0.71522E-04   224   0.919E-02    0.795E-03
DAV:   2    -0.123087026413E+03   -0.31812E-07   -0.50223E-06   224   0.752E-03    0.490E-03
DAV:   3    -0.123087026278E+03    0.13479E-06   -0.10760E-06   208   0.372E-03    0.793E-04
DAV:   4    -0.123087026271E+03    0.71464E-08   -0.15681E-07   240   0.145E-03    0.509E-04
DAV:   5    -0.123087026274E+03   -0.29422E-08   -0.77845E-08   224   0.935E-04
  63 F= -.12308703E+03 E0= -.12308703E+03  d E =-.390408E-04  mag=    -0.0000
quench:  g(F)=  0.000E+00 g(S)=  0.000E+00 dE (1.order)= 0.000E+00
 bond charge predicted
       N       E                     dE             d eps       ncg     rms          rms(c)
DAV:   1    -0.123087170589E+03   -0.14432E-03   -0.72843E-04   224   0.939E-02    0.995E-03
DAV:   2    -0.123087169600E+03    0.98892E-06   -0.77547E-06   224   0.101E-02    0.593E-03
DAV:   3    -0.123087169270E+03    0.32977E-06   -0.35079E-06   224   0.647E-03    0.177E-03
DAV:   4    -0.123087169189E+03    0.81805E-07   -0.61969E-07   224   0.296E-03    0.866E-04
DAV:   5    -0.123087169171E+03    0.17990E-07   -0.17059E-07   224   0.135E-03    0.252E-04
DAV:   6    -0.123087169168E+03    0.21989E-08   -0.13343E-08   240   0.486E-04
  64 F= -.12308717E+03 E0= -.12308717E+03  d E =-.142894E-03  mag=    -0.0000
quench:  g(F)=  0.000E+00 g(S)=  0.000E+00 dE (1.order)= 0.000E+00
 bond charge predicted
       N       E                     dE             d eps       ncg     rms          rms(c)
DAV:   1    -0.123087282045E+03   -0.11287E-03   -0.72553E-04   240   0.100E-01    0.101E-02
DAV:   2    -0.123087281359E+03    0.68655E-06   -0.11298E-05   208   0.124E-02    0.645E-03
DAV:   3    -0.123087281046E+03    0.31298E-06   -0.51545E-06   224   0.773E-03    0.235E-03
DAV:   4    -0.123087280884E+03    0.16132E-06   -0.83446E-07   224   0.347E-03    0.115E-03
DAV:   5    -0.123087280878E+03    0.62646E-08   -0.37499E-07   224   0.197E-03    0.321E-04
DAV:   6    -0.123087280872E+03    0.65550E-08   -0.38295E-08   224   0.876E-04
  65 F= -.12308728E+03 E0= -.12308728E+03  d E =-.111703E-03  mag=    -0.0000
quench:  g(F)=  0.000E+00 g(S)=  0.000E+00 dE (1.order)= 0.000E+00
 bond charge predicted
       N       E                     dE             d eps       ncg     rms          rms(c)
DAV:   1    -0.123087250280E+03    0.30598E-04   -0.71606E-04   224   0.930E-02    0.793E-03
DAV:   2    -0.123087250506E+03   -0.22629E-06   -0.53167E-06   224   0.792E-03    0.493E-03
DAV:   3    -0.123087250581E+03   -0.74270E-07   -0.11198E-06   224   0.390E-03    0.810E-04
DAV:   4    -0.123087250538E+03    0.42708E-07   -0.17379E-07   224   0.169E-03    0.528E-04
DAV:   5    -0.123087250572E+03   -0.33704E-07   -0.94890E-08   224   0.125E-03    0.228E-04
DAV:   6    -0.123087250535E+03    0.36047E-07   -0.31894E-08   224   0.955E-04    0.138E-04
DAV:   7    -0.123087250533E+03    0.20827E-08   -0.54343E-09   224   0.348E-04
  66 F= -.12308725E+03 E0= -.12308725E+03  d E =0.303383E-04  mag=    -0.0000
quench:  g(F)=  0.000E+00 g(S)=  0.000E+00 dE (1.order)= 0.000E+00
 bond charge predicted
       N       E                     dE             d eps       ncg     rms          rms(c)
DAV:   1    -0.123087110112E+03    0.14042E-03   -0.72928E-04   256   0.951E-02    0.988E-03
DAV:   2    -0.123087109616E+03    0.49593E-06   -0.77699E-06   224   0.102E-02    0.597E-03
DAV:   3    -0.123087109822E+03   -0.20590E-06   -0.35940E-06   224   0.660E-03    0.180E-03
DAV:   4    -0.123087109702E+03    0.11974E-06   -0.63565E-07   224   0.302E-03    0.892E-04
DAV:   5    -0.123087109750E+03   -0.48527E-07   -0.19284E-07   224   0.142E-03    0.264E-04
DAV:   6    -0.123087109751E+03   -0.17212E-09   -0.14959E-08   240   0.451E-04
  67 F= -.12308711E+03 E0= -.12308711E+03  d E =0.140783E-03  mag=     0.0000
quench:  g(F)=  0.000E+00 g(S)=  0.000E+00 dE (1.order)= 0.000E+00
 bond charge predicted
       N       E                     dE             d eps       ncg     rms          rms(c)
DAV:   1    -0.123087092825E+03    0.16925E-04   -0.70965E-04   208   0.101E-01    0.782E-03
DAV:   2    -0.123087093008E+03   -0.18236E-06   -0.66142E-06   224   0.913E-03    0.490E-03
DAV:   3    -0.123087093119E+03   -0.11146E-06   -0.11187E-06   224   0.400E-03    0.853E-04
DAV:   4    -0.123087093105E+03    0.14352E-07   -0.17458E-07   240   0.159E-03    0.566E-04
DAV:   5    -0.123087093105E+03   -0.17508E-10   -0.10090E-07   224   0.107E-03    0.240E-04
DAV:   6    -0.123087093107E+03   -0.20941E-08   -0.14760E-08   208   0.494E-04
  68 F= -.12308709E+03 E0= -.12308709E+03  d E =0.166436E-04  mag=    -0.0000
quench:  g(F)=  0.000E+00 g(S)=  0.000E+00 dE (1.order)= 0.000E+00
 bond charge predicted
       N       E                     dE             d eps       ncg     rms          rms(c)
DAV:   1    -0.123087259094E+03   -0.16599E-03   -0.71334E-04   208   0.846E-02    0.102E-02
DAV:   2    -0.123087257994E+03    0.10993E-05   -0.87234E-06   240   0.104E-02    0.622E-03
DAV:   3    -0.123087257605E+03    0.38919E-06   -0.40406E-06   224   0.712E-03    0.204E-03
DAV:   4    -0.123087257509E+03    0.96479E-07   -0.73539E-07   240   0.325E-03    0.101E-03
DAV:   5    -0.123087257492E+03    0.16867E-07   -0.27513E-07   224   0.168E-03    0.362E-04
DAV:   6    -0.123087257483E+03    0.88169E-08   -0.27561E-08   240   0.752E-04
  69 F= -.12308726E+03 E0= -.12308726E+03  d E =-.164376E-03  mag=     0.0000
quench:  g(F)=  0.000E+00 g(S)=  0.000E+00 dE (1.order)= 0.000E+00
 bond charge predicted
       N       E                     dE             d eps       ncg     rms          rms(c)
DAV:   1    -0.123086973531E+03    0.28396E-03   -0.74637E-04   240   0.874E-02    0.136E-02
DAV:   2    -0.123086971621E+03    0.19104E-05   -0.17977E-05   240   0.151E-02    0.842E-03
DAV:   3    -0.123086971726E+03   -0.10483E-06   -0.11141E-05   240   0.116E-02    0.345E-03
DAV:   4    -0.123086971286E+03    0.43990E-06   -0.19600E-06   208   0.533E-03    0.164E-03
DAV:   5    -0.123086971396E+03   -0.11017E-06   -0.78869E-07   240   0.280E-03    0.484E-04
DAV:   6    -0.123086971388E+03    0.81168E-08   -0.55854E-08   224   0.109E-03
  70 F= -.12308697E+03 E0= -.12308697E+03  d E =0.286095E-03  mag=    -0.0000
quench:  g(F)=  0.000E+00 g(S)=  0.000E+00 dE (1.order)= 0.000E+00
--------------------------------------------------------
>>>  Job finished at Wed May 13 10:50:07 EDT 2020
