rxn1a;6.3846281982909545;0.09459540337874396;
rxn1b;6.199765958267761;0.08147191221518273;
rxn1c;6.207871223796502;0.08179099708314444;
rxn1d;6.205872044740403;0.08198798330321568;
rxn1e;6.208736039766848;0.08205282447079208;
rxn2;7.562151961599767;0.22870362825957835;
rxn3a;6.741487122467774;0.17309519423488867;
rxn3b;6.556624882444581;0.15801308628047184;
rxn3c;6.5647301479733216;0.15730170464788876;
rxn3d;6.562730968917222;0.15766967167118925;
rxn3e;6.565594963943667;0.15759968720258621;
rxn4a;4.2939217038573165;0.10880692669598671;
rxn4b;4.109059463834123;0.10342289050939033;
rxn4c;4.117164729362864;0.10590035711260896;
rxn4d;4.115165550306765;0.10529162335903401;
rxn4e;4.11802954533321;0.10532444273583218;
rxn5a;3.8563780485673806;0.06461725068683007;
rxn5b;3.6715158085441875;0.07253650541765778;
rxn5c;3.6796210740729283;0.07334467051423461;
rxn5d;3.677621895016829;0.07316846623210824;
rxn5e;3.6804858900432738;0.07323270219171936;
rxn6a;-0.703901934692098;0.17227775468304563;
rxn6b;-0.6836162099203449;0.1822413987140391;
rxn6c;-0.6785926524024575;0.18978815848280584;
rxn6d;-0.6816144945923241;0.18985259662416185;
rxn6e;-0.6770881013190575;0.1901643944503097;
rxn8;1.2345881987843639;0.1814747017426239;
rxn9;-4.181412988867273;0.18369572143250218;
rxn10;-0.4913474342516988;0.145989066604764;
rxn11a;-0.9153937942317452;0.18407719634770803;
rxn11b;-0.8986176381134907;0.17092731191884886;
rxn11c;-0.9250022679408527;0.17112166379878851;
rxn11d;-0.9233247896600982;0.1708175384346585;
rxn11e;-0.8992439635827463;0.1853449465437709;
rxn12;-1.3209053489411708;0.2392236652842688;
