>>>  VASP 5.4.4 with BEEF-vdw and vtst
--------------------------------------------------------
>>>  Job information
     SLURM_JOBID=2040152
     SLURM_JOB_NODELIST=cpn-u25-27
     SLURM_NNODES=1
     SLURMTMPDIR=/scratch/2040152
     working directory = /projects/academic/ericwalk/cahorvat/DecaneReaction/O2
--------------------------------------------------------
>>>  Module information
The Intel compilers are in your path. This is adequate for compiling and
running most codes. Source
/util/academic/intel/17.0/compilers_and_libraries_2017/linux/bin/compilervars.sh
for more features. 
 The MKL Libraries are in your library path. This is adequate for compiling and
running most codes. Source $MKL/bin/mklvars.sh" for more features. 
 Intel-MPI is in your path. This is adequate for compiling and running most
codes. Source the
/util/academic/intel/17.0/compilers_and_libraries_2017/linux/mpi/intel64/bin/mpivars.sh
file for more features. 

Currently Loaded Modules:
  1) python/anaconda   2) intel/17.0   3) mkl/2017.0.1   4) intel-mpi/2017.0.1

 

--------------------------------------------------------
>>>  Running Configuration
NPROCS=16
--------------------------------------------------------
>>>  Job started at Tue Mar 24 10:57:31 EDT 2020
--------------------------------------------------------
 running on   16 total cores
 distrk:  each k-point on   16 cores,    1 groups
 distr:  one band on    4 cores,    4 groups
 using from now: INCAR     
 vasp.5.4.4.18Apr17-6-g9f103f2a35 (build Dec 31 2018 11:41:54) complex          
  
 POSCAR found type information on POSCAR  O 
 POSCAR found :  1 types and       2 ions
 scaLAPACK will be used

     **************************************************************************
     Initializing libbeef V0.1.3 with the BEEF-vdW functional.
     Citation: Wellendorff et al., PRB 85, 235149 (2012).
     **************************************************************************


 ----------------------------------------------------------------------------- 
|                                                                             |
|  ADVICE TO THIS USER RUNNING 'VASP/VAMP'   (HEAR YOUR MASTER'S VOICE ...):  |
|                                                                             |
|      You have switched on vdW-DFT.                                          |
|      This routine was written and supplied by Jiri Klimes.                  |
|      We recommed that you carefully read and cite the following             |
|      publication                                                            |
|      J. Klimes, D.R. Bowler, A. Michelides                                  |
|        J. Phys.: Cond Matt. 22 022201 (2010)                                |
|      J. Klimes, D.R. Bowler, A. Michelides                                  |
|        Phys. Rev. B. 83, 195131 (2011)                                      |
|      and references therein.                                                |
|                                                                             |
 ----------------------------------------------------------------------------- 


 ----------------------------------------------------------------------------- 
|                                                                             |
|  ADVICE TO THIS USER RUNNING 'VASP/VAMP'   (HEAR YOUR MASTER'S VOICE ...):  |
|                                                                             |
|      You have a (more or less) 'small supercell' and for smaller cells      |
|      it is recommended  to use the reciprocal-space projection scheme!      |
|      The real space optimization is not  efficient for small cells and it   |
|      is also less accurate ...                                              |
|      Therefore set LREAL=.FALSE. in the  INCAR file                         |
|                                                                             |
 ----------------------------------------------------------------------------- 


 ----------------------------------------------------------------------------- 
|                                                                             |
|  ADVICE TO THIS USER RUNNING 'VASP/VAMP'   (HEAR YOUR MASTER'S VOICE ...):  |
|                                                                             |
|      You enforced a specific xc-type in the INCAR file,                     |
|      a different type was found on the POTCAR file                          |
|          I HOPE YOU KNOW, WHAT YOU ARE  DOING                               |
|                                                                             |
 ----------------------------------------------------------------------------- 

 LDA part: xc-table for Pade appr. of Perdew
 POSCAR found type information on POSCAR  O 
 POSCAR found :  1 types and       2 ions
 POSCAR, INCAR and KPOINTS ok, starting setup
 FFT: planning ...
 WAVECAR not read
 WARNING: random wavefunctions but no delay for mixing, default for NELMDL
 entering main loop
       N       E                     dE             d eps       ncg     rms          rms(c)
Total vdW correction in eV:      2.7475783
DAV:   1     0.870422508091E+02    0.87042E+02   -0.25055E+03    80   0.370E+02
DAV:   2     0.140623924462E+02   -0.72980E+02   -0.72544E+02    68   0.124E+02
DAV:   3    -0.455587890849E+01   -0.18618E+02   -0.14951E+02    72   0.503E+01
DAV:   4    -0.959913357705E+01   -0.50433E+01   -0.50327E+01    80   0.165E+01
DAV:   5    -0.974047806211E+01   -0.14134E+00   -0.14134E+00    56   0.301E+00    0.654E+00
Total vdW correction in eV:      2.7628045
DAV:   6    -0.951900411897E+01    0.22147E+00   -0.14005E+00    56   0.984E+00    0.295E+00
Total vdW correction in eV:      2.7689935
DAV:   7    -0.977101558939E+01   -0.25201E+00   -0.22572E-01    56   0.450E+00    0.142E+00
Total vdW correction in eV:      2.7753776
DAV:   8    -0.977460846959E+01   -0.35929E-02   -0.84869E-02    48   0.228E+00    0.432E-01
Total vdW correction in eV:      2.7759455
DAV:   9    -0.978045492069E+01   -0.58465E-02   -0.72963E-03    52   0.814E-01    0.203E-01
Total vdW correction in eV:      2.7762356
DAV:  10    -0.978137521542E+01   -0.92029E-03   -0.12798E-03    56   0.351E-01    0.553E-02
Total vdW correction in eV:      2.7764104
DAV:  11    -0.978151589540E+01   -0.14068E-03   -0.19445E-04    48   0.142E-01    0.202E-02
Total vdW correction in eV:      2.7765287
DAV:  12    -0.978144332385E+01    0.72572E-04   -0.70759E-05    56   0.845E-02    0.956E-03
Total vdW correction in eV:      2.7765455
DAV:  13    -0.978136828502E+01    0.75039E-04   -0.18580E-05    56   0.450E-02    0.462E-03
Total vdW correction in eV:      2.7765355
DAV:  14    -0.978130750521E+01    0.60780E-04   -0.39999E-06    52   0.186E-02    0.292E-03
Total vdW correction in eV:      2.7765105
DAV:  15    -0.978122185853E+01    0.85647E-04   -0.94728E-06    48   0.193E-02    0.230E-03
Total vdW correction in eV:      2.7764947
DAV:  16    -0.978122380439E+01   -0.19459E-05   -0.21010E-06    64   0.114E-02
Total vdW correction in eV:      2.7764386
   1 F= -.97812238E+01 E0= -.97812238E+01  d E =-.978122E+01  mag=     2.0000
 BRION: g(F)=  0.126E+00 g(S)=  0.000E+00
 bond charge predicted
       N       E                     dE             d eps       ncg     rms          rms(c)
Total vdW correction in eV:      2.7537749
DAV:   1    -0.936005121418E+01    0.42117E+00   -0.38885E+01    60   0.522E+01    0.220E+00
Total vdW correction in eV:      2.7577064
DAV:   2    -0.939554128561E+01   -0.35490E-01   -0.62234E-01    48   0.685E+00    0.113E+00
Total vdW correction in eV:      2.7597258
DAV:   3    -0.940185441486E+01   -0.63131E-02   -0.34855E-02    52   0.167E+00    0.503E-01
Total vdW correction in eV:      2.7616852
DAV:   4    -0.940166102338E+01    0.19339E-03   -0.23761E-02    48   0.114E+00    0.156E-01
Total vdW correction in eV:      2.7613150
DAV:   5    -0.940232571748E+01   -0.66469E-03   -0.24028E-03    48   0.429E-01    0.873E-02
Total vdW correction in eV:      2.7613266
DAV:   6    -0.940280809147E+01   -0.48237E-03   -0.34853E-04    48   0.196E-01    0.296E-02
Total vdW correction in eV:      2.7613929
DAV:   7    -0.940298872534E+01   -0.18063E-03   -0.82029E-05    52   0.968E-02    0.685E-03
Total vdW correction in eV:      2.7613887
DAV:   8    -0.940304342317E+01   -0.54698E-04   -0.88090E-06    52   0.244E-02    0.468E-03
Total vdW correction in eV:      2.7613459
DAV:   9    -0.940311994899E+01   -0.76526E-04   -0.20388E-05    48   0.244E-02    0.211E-03
Total vdW correction in eV:      2.7613328
DAV:  10    -0.940313579986E+01   -0.15851E-04   -0.61217E-06    56   0.132E-02    0.134E-03
Total vdW correction in eV:      2.7613284
DAV:  11    -0.940314499792E+01   -0.91981E-05   -0.24687E-06    52   0.780E-03
Total vdW correction in eV:      2.7613237
   2 F= -.94031450E+01 E0= -.94031450E+01  d E =0.378079E+00  mag=     2.0000
 BRION: g(F)=  0.846E+01 g(S)=  0.000E+00 retain N=  1 mean eig= 0.11
 eig:   0.109
 bond charge predicted
       N       E                     dE             d eps       ncg     rms          rms(c)
Total vdW correction in eV:      2.7818248
DAV:   1    -0.978159860643E+01   -0.37846E+00   -0.31373E+01    64   0.461E+01    0.213E+00
Total vdW correction in eV:      2.7775322
DAV:   2    -0.977789829418E+01    0.37003E-02   -0.35336E-01    52   0.549E+00    0.883E-01
Total vdW correction in eV:      2.7758922
DAV:   3    -0.978781277936E+01   -0.99145E-02   -0.24538E-02    64   0.149E+00    0.373E-01
Total vdW correction in eV:      2.7747455
DAV:   4    -0.978892728212E+01   -0.11145E-02   -0.57746E-03    48   0.644E-01    0.132E-01
Total vdW correction in eV:      2.7747320
DAV:   5    -0.978971589327E+01   -0.78861E-03   -0.56913E-04    56   0.245E-01    0.627E-02
Total vdW correction in eV:      2.7747448
DAV:   6    -0.979021009262E+01   -0.49420E-03   -0.18573E-04    52   0.139E-01    0.146E-02
Total vdW correction in eV:      2.7747328
DAV:   7    -0.979030968270E+01   -0.99590E-04   -0.23387E-05    56   0.523E-02    0.564E-03
Total vdW correction in eV:      2.7747305
DAV:   8    -0.979035269051E+01   -0.43008E-04   -0.64446E-06    56   0.216E-02    0.360E-03
Total vdW correction in eV:      2.7747440
DAV:   9    -0.979040730299E+01   -0.54612E-04   -0.14236E-05    52   0.204E-02    0.165E-03
Total vdW correction in eV:      2.7747527
DAV:  10    -0.979040515821E+01    0.21448E-05   -0.23950E-06    56   0.945E-03
Total vdW correction in eV:      2.7747591
   3 F= -.97904052E+01 E0= -.97904052E+01  d E =-.387260E+00  mag=     2.0000
 BRION: g(F)=  0.129E-01 g(S)=  0.000E+00 retain N=  1 mean eig= 0.10
 eig:   0.105
 bond charge predicted
       N       E                     dE             d eps       ncg     rms          rms(c)
Total vdW correction in eV:      2.7739997
DAV:   1    -0.979121281046E+01   -0.80551E-03   -0.42820E-02    60   0.170E+00    0.749E-02
Total vdW correction in eV:      2.7741354
DAV:   2    -0.979114209423E+01    0.70716E-04   -0.57480E-04    48   0.213E-01    0.335E-02
Total vdW correction in eV:      2.7741972
DAV:   3    -0.979121650428E+01   -0.74410E-04   -0.32364E-05    48   0.542E-02    0.142E-02
Total vdW correction in eV:      2.7742543
DAV:   4    -0.979123682618E+01   -0.20322E-04   -0.12787E-05    48   0.279E-02    0.461E-03
Total vdW correction in eV:      2.7742514
DAV:   5    -0.979123091594E+01    0.59102E-05   -0.11704E-06    56   0.103E-02
Total vdW correction in eV:      2.7742531
   4 F= -.97912309E+01 E0= -.97912309E+01  d E =-.825758E-03  mag=     2.0000
 BRION: g(F)=  0.121E-02 g(S)=  0.000E+00 retain N=  1 mean eig= 0.15
 eig:   0.151
 bond charge predicted
       N       E                     dE             d eps       ncg     rms          rms(c)
Total vdW correction in eV:      2.7739161
DAV:   1    -0.979130454802E+01   -0.67722E-04   -0.84783E-03    64   0.757E-01    0.337E-02
Total vdW correction in eV:      2.7739782
DAV:   2    -0.979128571342E+01    0.18835E-04   -0.11249E-04    48   0.943E-02    0.152E-02
Total vdW correction in eV:      2.7740064
DAV:   3    -0.979130125212E+01   -0.15539E-04   -0.66561E-06    48   0.242E-02    0.648E-03
Total vdW correction in eV:      2.7740318
DAV:   4    -0.979130538927E+01   -0.41372E-05   -0.25768E-06    52   0.125E-02
Total vdW correction in eV:      2.7740302
   5 F= -.97913054E+01 E0= -.97913054E+01  d E =-.744733E-04  mag=     2.0000
 BRION: g(F)=  0.654E-06 g(S)=  0.000E+00 retain N=  1 mean eig= 0.15
 eig:   0.148
 reached required accuracy - stopping structural energy minimisation
--------------------------------------------------------
>>>  Job finished at Tue Mar 24 11:10:39 EDT 2020
