>>>  VASP 5.4.4 with BEEF-vdw and vtst
--------------------------------------------------------
>>>  Job information
     SLURM_JOBID=2125575
     SLURM_JOB_NODELIST=cpn-u24-27
     SLURM_NNODES=1
     SLURMTMPDIR=/scratch/2125575
     working directory = /projects/academic/ericwalk/cahorvat/DecaneReaction/1-C10H21/vtst
--------------------------------------------------------
>>>  Module information
The Intel compilers are in your path. This is adequate for compiling and
running most codes. Source
/util/academic/intel/17.0/compilers_and_libraries_2017/linux/bin/compilervars.sh
for more features. 
 The MKL Libraries are in your library path. This is adequate for compiling and
running most codes. Source $MKL/bin/mklvars.sh" for more features. 
 Intel-MPI is in your path. This is adequate for compiling and running most
codes. Source the
/util/academic/intel/17.0/compilers_and_libraries_2017/linux/mpi/intel64/bin/mpivars.sh
file for more features. 

Currently Loaded Modules:
  1) intel/17.0   2) mkl/2017.0.1   3) intel-mpi/2017.0.1

 

--------------------------------------------------------
>>>  Running Configuration
NPROCS=16
--------------------------------------------------------
>>>  Job started at Sun Mar 29 15:55:33 EDT 2020
--------------------------------------------------------
 running on   16 total cores
 distrk:  each k-point on   16 cores,    1 groups
 distr:  one band on    4 cores,    4 groups
 using from now: INCAR     
 vasp.5.4.4.18Apr17-6-g9f103f2a35 (build Dec 31 2018 11:41:54) complex          
  
 POSCAR found type information on POSCAR  C  H 
 POSCAR found :  2 types and      31 ions
 scaLAPACK will be used
 LDA part: xc-table for Pade appr. of Perdew
 POSCAR found type information on POSCAR  C  H 
 POSCAR found :  2 types and      31 ions
 POSCAR, INCAR and KPOINTS ok, starting setup
 FFT: planning ...
 WAVECAR not read
 WARNING: random wavefunctions but no delay for mixing, default for NELMDL
 entering main loop
       N       E                     dE             d eps       ncg     rms          rms(c)
DAV:   1     0.369447214492E+03    0.36945E+03   -0.17631E+04   112   0.705E+02
DAV:   2    -0.861158295324E+02   -0.45556E+03   -0.43974E+03   144   0.177E+02
DAV:   3    -0.180852645887E+03   -0.94737E+02   -0.94381E+02   120   0.886E+01
DAV:   4    -0.185170154037E+03   -0.43175E+01   -0.43104E+01   128   0.244E+01
DAV:   5    -0.185287071226E+03   -0.11692E+00   -0.11676E+00   136   0.328E+00    0.199E+01
DAV:   6    -0.170615904147E+03    0.14671E+02   -0.23568E+01   128   0.150E+01    0.956E+00
DAV:   7    -0.167134712483E+03    0.34812E+01   -0.99975E+00   120   0.946E+00    0.407E+00
DAV:   8    -0.166491585779E+03    0.64313E+00   -0.10101E+00   120   0.363E+00    0.771E-01
DAV:   9    -0.166446272119E+03    0.45314E-01   -0.16562E-01   128   0.135E+00    0.430E-01
DAV:  10    -0.166441225424E+03    0.50467E-02   -0.53993E-02   112   0.800E-01    0.217E-01
DAV:  11    -0.166448335108E+03   -0.71097E-02   -0.77037E-03   112   0.357E-01    0.165E-01
DAV:  12    -0.166462254387E+03   -0.13919E-01   -0.73018E-03    96   0.353E-01    0.757E-02
DAV:  13    -0.166469867067E+03   -0.76127E-02   -0.23248E-03   120   0.192E-01    0.449E-02
DAV:  14    -0.166473818831E+03   -0.39518E-02   -0.51551E-04   128   0.883E-02    0.245E-02
DAV:  15    -0.166475823255E+03   -0.20044E-02   -0.14462E-04   120   0.465E-02    0.135E-02
DAV:  16    -0.166477763000E+03   -0.19397E-02   -0.24786E-04   112   0.424E-02    0.743E-03
DAV:  17    -0.166478372210E+03   -0.60921E-03   -0.12383E-04   112   0.273E-02    0.610E-03
DAV:  18    -0.166478548531E+03   -0.17632E-03   -0.36613E-05   112   0.153E-02    0.162E-03
DAV:  19    -0.166478591194E+03   -0.42663E-04   -0.53770E-06   112   0.643E-03    0.146E-03
DAV:  20    -0.166478614912E+03   -0.23717E-04   -0.31827E-06   112   0.441E-03    0.648E-04
DAV:  21    -0.166478619140E+03   -0.42280E-05   -0.33778E-07   112   0.168E-03    0.313E-04
DAV:  22    -0.166478621686E+03   -0.25462E-05   -0.25151E-07   112   0.115E-03    0.217E-04
DAV:  23    -0.166478622016E+03   -0.32948E-06   -0.20371E-08   112   0.468E-04    0.151E-04
DAV:  24    -0.166478622172E+03   -0.15598E-06   -0.21450E-08   112   0.477E-04    0.125E-04
DAV:  25    -0.166478622182E+03   -0.10468E-07   -0.23439E-09   112   0.194E-04    0.111E-04
DAV:  26    -0.166478622189E+03   -0.73123E-08   -0.11664E-09    88   0.108E-04
   1 F= -.16647862E+03 E0= -.16646452E+03  d E =-.166479E+03
quench:  g(F)=  0.000E+00 g(S)=  0.000E+00 dE (1.order)= 0.000E+00
 bond charge predicted
       N       E                     dE             d eps       ncg     rms          rms(c)
DAV:   1    -0.166478441974E+03    0.18021E-03   -0.24551E-03    96   0.187E-01    0.836E-03
DAV:   2    -0.166478443585E+03   -0.16112E-05   -0.26900E-05   104   0.201E-02    0.665E-03
DAV:   3    -0.166478442906E+03    0.67923E-06   -0.39643E-06   112   0.880E-03    0.885E-04
DAV:   4    -0.166478442915E+03   -0.87850E-08   -0.71374E-07   112   0.326E-03    0.466E-04
DAV:   5    -0.166478442926E+03   -0.10744E-07   -0.50636E-08   120   0.863E-04    0.181E-04
DAV:   6    -0.166478442932E+03   -0.61377E-08   -0.30009E-09    96   0.238E-04
   2 F= -.16647844E+03 E0= -.16646434E+03  d E =0.179258E-03
quench:  g(F)=  0.000E+00 g(S)=  0.000E+00 dE (1.order)= 0.000E+00
 bond charge predicted
       N       E                     dE             d eps       ncg     rms          rms(c)
DAV:   1    -0.166478968392E+03   -0.52547E-03   -0.48750E-03    96   0.273E-01    0.116E-02
DAV:   2    -0.166478971854E+03   -0.34627E-05   -0.59339E-05   128   0.298E-02    0.933E-03
DAV:   3    -0.166478970088E+03    0.17669E-05   -0.79844E-06   112   0.125E-02    0.174E-03
DAV:   4    -0.166478970149E+03   -0.61058E-07   -0.16989E-06   112   0.483E-03    0.979E-04
DAV:   5    -0.166478970105E+03    0.43689E-07   -0.19816E-07   112   0.164E-03    0.365E-04
DAV:   6    -0.166478970110E+03   -0.49220E-08   -0.20454E-08   112   0.636E-04
   3 F= -.16647897E+03 E0= -.16646487E+03  d E =-.527178E-03
quench:  g(F)=  0.000E+00 g(S)=  0.000E+00 dE (1.order)= 0.000E+00
 bond charge predicted
       N       E                     dE             d eps       ncg     rms          rms(c)
DAV:   1    -0.166478120609E+03    0.84950E-03   -0.48796E-03    96   0.275E-01    0.117E-02
DAV:   2    -0.166478125178E+03   -0.45690E-05   -0.71583E-05   128   0.328E-02    0.952E-03
DAV:   3    -0.166478123826E+03    0.13514E-05   -0.57815E-06   112   0.104E-02    0.373E-03
DAV:   4    -0.166478123964E+03   -0.13770E-06   -0.16659E-06   112   0.516E-03    0.111E-03
DAV:   5    -0.166478123995E+03   -0.31519E-07   -0.16817E-07   112   0.181E-03    0.407E-04
DAV:   6    -0.166478124000E+03   -0.45134E-08   -0.43064E-08   112   0.872E-04
   4 F= -.16647812E+03 E0= -.16646402E+03  d E =0.846110E-03
quench:  g(F)=  0.000E+00 g(S)=  0.000E+00 dE (1.order)= 0.000E+00
 bond charge predicted
       N       E                     dE             d eps       ncg     rms          rms(c)
DAV:   1    -0.166478652974E+03   -0.52898E-03   -0.48423E-03    96   0.288E-01    0.115E-02
DAV:   2    -0.166478656546E+03   -0.35721E-05   -0.61712E-05   120   0.325E-02    0.924E-03
DAV:   3    -0.166478654764E+03    0.17822E-05   -0.63738E-06   112   0.114E-02    0.219E-03
DAV:   4    -0.166478654826E+03   -0.62883E-07   -0.14451E-06   112   0.451E-03    0.880E-04
DAV:   5    -0.166478654802E+03    0.24196E-07   -0.10920E-07   112   0.137E-03    0.325E-04
DAV:   6    -0.166478654806E+03   -0.41384E-08   -0.13854E-08   120   0.531E-04
   5 F= -.16647865E+03 E0= -.16646455E+03  d E =-.530806E-03
quench:  g(F)=  0.000E+00 g(S)=  0.000E+00 dE (1.order)= 0.000E+00
 bond charge predicted
       N       E                     dE             d eps       ncg     rms          rms(c)
DAV:   1    -0.166478433357E+03    0.22145E-03   -0.49045E-03    96   0.294E-01    0.123E-02
DAV:   2    -0.166478435295E+03   -0.19384E-05   -0.46108E-05   120   0.287E-02    0.940E-03
DAV:   3    -0.166478434173E+03    0.11225E-05   -0.11316E-05   112   0.152E-02    0.205E-03
DAV:   4    -0.166478434099E+03    0.73779E-07   -0.22324E-06   112   0.598E-03    0.104E-03
DAV:   5    -0.166478434125E+03   -0.25374E-07   -0.30656E-07   112   0.206E-03    0.362E-04
DAV:   6    -0.166478434126E+03   -0.15652E-08   -0.18631E-08   112   0.618E-04
   6 F= -.16647843E+03 E0= -.16646433E+03  d E =0.220680E-03
quench:  g(F)=  0.000E+00 g(S)=  0.000E+00 dE (1.order)= 0.000E+00
 bond charge predicted
       N       E                     dE             d eps       ncg     rms          rms(c)
DAV:   1    -0.166478788834E+03   -0.35471E-03   -0.48540E-03    96   0.286E-01    0.121E-02
DAV:   2    -0.166478790699E+03   -0.18651E-05   -0.51467E-05   120   0.298E-02    0.910E-03
DAV:   3    -0.166478788886E+03    0.18130E-05   -0.75971E-06   112   0.125E-02    0.243E-03
DAV:   4    -0.166478788901E+03   -0.15770E-07   -0.17647E-06   120   0.526E-03    0.127E-03
DAV:   5    -0.166478788849E+03    0.52105E-07   -0.22026E-07   112   0.182E-03    0.413E-04
DAV:   6    -0.166478788862E+03   -0.12697E-07   -0.40591E-08   112   0.901E-04    0.208E-04
DAV:   7    -0.166478788865E+03   -0.26175E-08   -0.41797E-09    96   0.274E-04
   7 F= -.16647879E+03 E0= -.16646468E+03  d E =-.354739E-03
quench:  g(F)=  0.000E+00 g(S)=  0.000E+00 dE (1.order)= 0.000E+00
 bond charge predicted
       N       E                     dE             d eps       ncg     rms          rms(c)
DAV:   1    -0.166478734301E+03    0.54561E-04   -0.48776E-03    96   0.299E-01    0.119E-02
DAV:   2    -0.166478738290E+03   -0.39890E-05   -0.64491E-05   120   0.347E-02    0.972E-03
DAV:   3    -0.166478736826E+03    0.14644E-05   -0.80324E-06   112   0.133E-02    0.200E-03
DAV:   4    -0.166478736998E+03   -0.17166E-06   -0.18996E-06   112   0.523E-03    0.977E-04
DAV:   5    -0.166478737011E+03   -0.13155E-07   -0.15233E-07   112   0.158E-03    0.399E-04
DAV:   6    -0.166478737009E+03    0.14952E-08   -0.21104E-08   112   0.695E-04
   8 F= -.16647874E+03 E0= -.16646463E+03  d E =0.518555E-04
quench:  g(F)=  0.000E+00 g(S)=  0.000E+00 dE (1.order)= 0.000E+00
 bond charge predicted
       N       E                     dE             d eps       ncg     rms          rms(c)
DAV:   1    -0.166478238845E+03    0.49817E-03   -0.48559E-03    96   0.291E-01    0.123E-02
DAV:   2    -0.166478241795E+03   -0.29496E-05   -0.57397E-05   112   0.316E-02    0.949E-03
DAV:   3    -0.166478240767E+03    0.10278E-05   -0.10768E-05   112   0.149E-02    0.200E-03
DAV:   4    -0.166478240704E+03    0.62846E-07   -0.24352E-06   112   0.623E-03    0.991E-04
DAV:   5    -0.166478240750E+03   -0.45699E-07   -0.36036E-07   120   0.213E-03    0.407E-04
DAV:   6    -0.166478240752E+03   -0.26912E-08   -0.21636E-08   112   0.601E-04
   9 F= -.16647824E+03 E0= -.16646414E+03  d E =0.496257E-03
quench:  g(F)=  0.000E+00 g(S)=  0.000E+00 dE (1.order)= 0.000E+00
 bond charge predicted
       N       E                     dE             d eps       ncg     rms          rms(c)
DAV:   1    -0.166479072850E+03   -0.83210E-03   -0.48026E-03    96   0.286E-01    0.123E-02
DAV:   2    -0.166479075379E+03   -0.25296E-05   -0.67848E-05   112   0.330E-02    0.923E-03
DAV:   3    -0.166479073766E+03    0.16134E-05   -0.10756E-05   120   0.143E-02    0.260E-03
DAV:   4    -0.166479073728E+03    0.37494E-07   -0.21699E-06   112   0.595E-03    0.137E-03
DAV:   5    -0.166479073695E+03    0.33311E-07   -0.42528E-07   112   0.227E-03    0.506E-04
DAV:   6    -0.166479073697E+03   -0.23358E-08   -0.40160E-08   112   0.862E-04
  10 F= -.16647907E+03 E0= -.16646497E+03  d E =-.832945E-03
quench:  g(F)=  0.000E+00 g(S)=  0.000E+00 dE (1.order)= 0.000E+00
 bond charge predicted
       N       E                     dE             d eps       ncg     rms          rms(c)
DAV:   1    -0.166478610458E+03    0.46324E-03   -0.47955E-03    96   0.305E-01    0.117E-02
DAV:   2    -0.166478614813E+03   -0.43553E-05   -0.74073E-05   120   0.370E-02    0.945E-03
DAV:   3    -0.166478613349E+03    0.14637E-05   -0.81002E-06   112   0.132E-02    0.284E-03
DAV:   4    -0.166478613413E+03   -0.63397E-07   -0.19105E-06   112   0.542E-03    0.123E-03
DAV:   5    -0.166478613416E+03   -0.31077E-08   -0.22012E-07   112   0.175E-03    0.413E-04
DAV:   6    -0.166478613420E+03   -0.37630E-08   -0.29003E-08   104   0.754E-04
  11 F= -.16647861E+03 E0= -.16646451E+03  d E =0.460278E-03
quench:  g(F)=  0.000E+00 g(S)=  0.000E+00 dE (1.order)= 0.000E+00
 bond charge predicted
       N       E                     dE             d eps       ncg     rms          rms(c)
DAV:   1    -0.166478858583E+03   -0.24517E-03   -0.48480E-03    96   0.298E-01    0.117E-02
DAV:   2    -0.166478861644E+03   -0.30612E-05   -0.54593E-05   120   0.308E-02    0.924E-03
DAV:   3    -0.166478860018E+03    0.16259E-05   -0.78012E-06   112   0.129E-02    0.156E-03
DAV:   4    -0.166478860074E+03   -0.56310E-07   -0.16887E-06   112   0.488E-03    0.970E-04
DAV:   5    -0.166478860035E+03    0.38881E-07   -0.20497E-07   120   0.171E-03    0.366E-04
DAV:   6    -0.166478860046E+03   -0.10433E-07   -0.18416E-08   104   0.618E-04    0.222E-04
DAV:   7    -0.166478860053E+03   -0.71404E-08   -0.67825E-09   112   0.346E-04
  12 F= -.16647886E+03 E0= -.16646476E+03  d E =-.246633E-03
quench:  g(F)=  0.000E+00 g(S)=  0.000E+00 dE (1.order)= 0.000E+00
 bond charge predicted
       N       E                     dE             d eps       ncg     rms          rms(c)
DAV:   1    -0.166478616455E+03    0.24359E-03   -0.47911E-03    96   0.288E-01    0.112E-02
DAV:   2    -0.166478620935E+03   -0.44801E-05   -0.64824E-05   120   0.316E-02    0.899E-03
DAV:   3    -0.166478619786E+03    0.11488E-05   -0.52741E-06   120   0.104E-02    0.319E-03
DAV:   4    -0.166478619956E+03   -0.16952E-06   -0.14524E-06   112   0.488E-03    0.110E-03
DAV:   5    -0.166478619970E+03   -0.14371E-07   -0.16917E-07   112   0.180E-03    0.376E-04
DAV:   6    -0.166478619977E+03   -0.70165E-08   -0.40914E-08   112   0.861E-04
  13 F= -.16647862E+03 E0= -.16646452E+03  d E =0.240076E-03
quench:  g(F)=  0.000E+00 g(S)=  0.000E+00 dE (1.order)= 0.000E+00
 bond charge predicted
       N       E                     dE             d eps       ncg     rms          rms(c)
DAV:   1    -0.166478539321E+03    0.80649E-04   -0.48186E-03    96   0.308E-01    0.112E-02
DAV:   2    -0.166478544201E+03   -0.48798E-05   -0.69542E-05   120   0.356E-02    0.919E-03
DAV:   3    -0.166478542909E+03    0.12922E-05   -0.50619E-06   112   0.106E-02    0.333E-03
DAV:   4    -0.166478542986E+03   -0.77194E-07   -0.16854E-06   112   0.518E-03    0.102E-03
DAV:   5    -0.166478542968E+03    0.17724E-07   -0.16255E-07   120   0.179E-03    0.326E-04
DAV:   6    -0.166478542974E+03   -0.61150E-08   -0.30619E-08   112   0.753E-04
  14 F= -.16647854E+03 E0= -.16646444E+03  d E =0.770029E-04
quench:  g(F)=  0.000E+00 g(S)=  0.000E+00 dE (1.order)= 0.000E+00
 bond charge predicted
       N       E                     dE             d eps       ncg     rms          rms(c)
DAV:   1    -0.166478714182E+03   -0.17121E-03   -0.48484E-03    96   0.296E-01    0.117E-02
DAV:   2    -0.166478716742E+03   -0.25597E-05   -0.49509E-05   112   0.299E-02    0.899E-03
DAV:   3    -0.166478715334E+03    0.14075E-05   -0.81932E-06   104   0.132E-02    0.162E-03
DAV:   4    -0.166478715364E+03   -0.30083E-07   -0.18277E-06   120   0.522E-03    0.104E-03
DAV:   5    -0.166478715330E+03    0.34271E-07   -0.26642E-07   112   0.192E-03    0.366E-04
DAV:   6    -0.166478715335E+03   -0.50909E-08   -0.24563E-08   112   0.678E-04
  15 F= -.16647872E+03 E0= -.16646461E+03  d E =-.172361E-03
quench:  g(F)=  0.000E+00 g(S)=  0.000E+00 dE (1.order)= 0.000E+00
 bond charge predicted
       N       E                     dE             d eps       ncg     rms          rms(c)
DAV:   1    -0.166478421330E+03    0.29400E-03   -0.47880E-03    96   0.289E-01    0.114E-02
DAV:   2    -0.166478425010E+03   -0.36805E-05   -0.57684E-05   120   0.310E-02    0.870E-03
DAV:   3    -0.166478424013E+03    0.99777E-06   -0.61288E-06   112   0.111E-02    0.256E-03
DAV:   4    -0.166478424190E+03   -0.17719E-06   -0.13928E-06   120   0.466E-03    0.112E-03
DAV:   5    -0.166478424190E+03   -0.35084E-09   -0.18370E-07   112   0.175E-03    0.346E-04
DAV:   6    -0.166478424192E+03   -0.21907E-08   -0.34609E-08   120   0.815E-04
  16 F= -.16647842E+03 E0= -.16646432E+03  d E =0.291143E-03
quench:  g(F)=  0.000E+00 g(S)=  0.000E+00 dE (1.order)= 0.000E+00
 bond charge predicted
       N       E                     dE             d eps       ncg     rms          rms(c)
DAV:   1    -0.166478573157E+03   -0.14897E-03   -0.47936E-03    96   0.306E-01    0.112E-02
DAV:   2    -0.166478578208E+03   -0.50511E-05   -0.72203E-05   112   0.361E-02    0.931E-03
DAV:   3    -0.166478576927E+03    0.12804E-05   -0.52667E-06   112   0.106E-02    0.337E-03
DAV:   4    -0.166478577030E+03   -0.10257E-06   -0.16716E-06   112   0.504E-03    0.970E-04
DAV:   5    -0.166478577031E+03   -0.11819E-08   -0.12768E-07   120   0.161E-03    0.356E-04
DAV:   6    -0.166478577040E+03   -0.94417E-08   -0.30973E-08   112   0.759E-04
  17 F= -.16647858E+03 E0= -.16646447E+03  d E =-.152848E-03
quench:  g(F)=  0.000E+00 g(S)=  0.000E+00 dE (1.order)= 0.000E+00
 bond charge predicted
       N       E                     dE             d eps       ncg     rms          rms(c)
DAV:   1    -0.166478337161E+03    0.23987E-03   -0.48507E-03    96   0.289E-01    0.119E-02
DAV:   2    -0.166478340033E+03   -0.28716E-05   -0.49499E-05   120   0.295E-02    0.911E-03
DAV:   3    -0.166478339124E+03    0.90920E-06   -0.91757E-06   112   0.136E-02    0.174E-03
DAV:   4    -0.166478339139E+03   -0.14934E-07   -0.19675E-06   120   0.541E-03    0.109E-03
DAV:   5    -0.166478339139E+03   -0.34584E-09   -0.29928E-07   120   0.202E-03    0.387E-04
DAV:   6    -0.166478339146E+03   -0.72266E-08   -0.24541E-08   104   0.679E-04
  18 F= -.16647834E+03 E0= -.16646423E+03  d E =0.237894E-03
quench:  g(F)=  0.000E+00 g(S)=  0.000E+00 dE (1.order)= 0.000E+00
 bond charge predicted
       N       E                     dE             d eps       ncg     rms          rms(c)
DAV:   1    -0.166478583107E+03   -0.24397E-03   -0.48070E-03    96   0.286E-01    0.116E-02
DAV:   2    -0.166478586242E+03   -0.31356E-05   -0.58237E-05   120   0.308E-02    0.880E-03
DAV:   3    -0.166478584761E+03    0.14813E-05   -0.64842E-06   120   0.112E-02    0.258E-03
DAV:   4    -0.166478584785E+03   -0.23358E-07   -0.14583E-06   112   0.469E-03    0.114E-03
DAV:   5    -0.166478584741E+03    0.43327E-07   -0.18658E-07   120   0.175E-03    0.363E-04
DAV:   6    -0.166478584750E+03   -0.85715E-08   -0.38134E-08   104   0.847E-04
  19 F= -.16647858E+03 E0= -.16646448E+03  d E =-.245604E-03
quench:  g(F)=  0.000E+00 g(S)=  0.000E+00 dE (1.order)= 0.000E+00
 bond charge predicted
       N       E                     dE             d eps       ncg     rms          rms(c)
DAV:   1    -0.166478574774E+03    0.99670E-05   -0.48299E-03    96   0.308E-01    0.112E-02
DAV:   2    -0.166478579728E+03   -0.49533E-05   -0.71408E-05   112   0.359E-02    0.925E-03
DAV:   3    -0.166478578381E+03    0.13462E-05   -0.53331E-06   112   0.109E-02    0.328E-03
DAV:   4    -0.166478578484E+03   -0.10309E-06   -0.18239E-06   112   0.533E-03    0.104E-03
DAV:   5    -0.166478578468E+03    0.16024E-07   -0.16443E-07   112   0.181E-03    0.345E-04
DAV:   6    -0.166478578475E+03   -0.68869E-08   -0.34660E-08   112   0.793E-04
  20 F= -.16647858E+03 E0= -.16646447E+03  d E =0.627453E-05
quench:  g(F)=  0.000E+00 g(S)=  0.000E+00 dE (1.order)= 0.000E+00
 bond charge predicted
       N       E                     dE             d eps       ncg     rms          rms(c)
DAV:   1    -0.166478415352E+03    0.16312E-03   -0.48527E-03    96   0.295E-01    0.120E-02
DAV:   2    -0.166478418216E+03   -0.28645E-05   -0.50642E-05   104   0.301E-02    0.906E-03
DAV:   3    -0.166478417368E+03    0.84843E-06   -0.91888E-06   104   0.138E-02    0.179E-03
DAV:   4    -0.166478417352E+03    0.16213E-07   -0.19186E-06   112   0.555E-03    0.105E-03
DAV:   5    -0.166478417369E+03   -0.17071E-07   -0.32312E-07   120   0.209E-03    0.374E-04
DAV:   6    -0.166478417374E+03   -0.55079E-08   -0.24656E-08   112   0.683E-04
  21 F= -.16647842E+03 E0= -.16646431E+03  d E =0.161101E-03
quench:  g(F)=  0.000E+00 g(S)=  0.000E+00 dE (1.order)= 0.000E+00
 bond charge predicted
       N       E                     dE             d eps       ncg     rms          rms(c)
DAV:   1    -0.166478576878E+03   -0.15951E-03   -0.48002E-03    96   0.288E-01    0.116E-02
DAV:   2    -0.166478579857E+03   -0.29789E-05   -0.58335E-05   120   0.310E-02    0.873E-03
DAV:   3    -0.166478578443E+03    0.14140E-05   -0.70037E-06   112   0.118E-02    0.235E-03
DAV:   4    -0.166478578440E+03    0.26350E-08   -0.12687E-06   112   0.460E-03    0.110E-03
DAV:   5    -0.166478578402E+03    0.38277E-07   -0.20884E-07   112   0.176E-03    0.348E-04
DAV:   6    -0.166478578409E+03   -0.67644E-08   -0.26950E-08   112   0.752E-04
  22 F= -.16647858E+03 E0= -.16646447E+03  d E =-.161034E-03
quench:  g(F)=  0.000E+00 g(S)=  0.000E+00 dE (1.order)= 0.000E+00
 bond charge predicted
       N       E                     dE             d eps       ncg     rms          rms(c)
DAV:   1    -0.166478612902E+03   -0.34500E-04   -0.48235E-03    96   0.307E-01    0.111E-02
DAV:   2    -0.166478617981E+03   -0.50786E-05   -0.72373E-05   120   0.360E-02    0.931E-03
DAV:   3    -0.166478616586E+03    0.13951E-05   -0.51539E-06   112   0.107E-02    0.346E-03
DAV:   4    -0.166478616645E+03   -0.59167E-07   -0.18143E-06   112   0.538E-03    0.101E-03
DAV:   5    -0.166478616624E+03    0.20874E-07   -0.16726E-07   112   0.186E-03    0.359E-04
DAV:   6    -0.166478616629E+03   -0.50927E-08   -0.41176E-08   112   0.845E-04
  23 F= -.16647862E+03 E0= -.16646451E+03  d E =-.382204E-04
quench:  g(F)=  0.000E+00 g(S)=  0.000E+00 dE (1.order)= 0.000E+00
 bond charge predicted
       N       E                     dE             d eps       ncg     rms          rms(c)
DAV:   1    -0.166478852254E+03   -0.23563E-03   -0.48563E-03    96   0.291E-01    0.119E-02
DAV:   2    -0.166478854645E+03   -0.23910E-05   -0.49117E-05   112   0.294E-02    0.907E-03
DAV:   3    -0.166478853139E+03    0.15063E-05   -0.89331E-06   104   0.136E-02    0.167E-03
DAV:   4    -0.166478853155E+03   -0.16408E-07   -0.18297E-06   112   0.532E-03    0.108E-03
DAV:   5    -0.166478853119E+03    0.36345E-07   -0.28233E-07   120   0.195E-03    0.370E-04
DAV:   6    -0.166478853125E+03   -0.60777E-08   -0.25991E-08   104   0.697E-04
  24 F= -.16647885E+03 E0= -.16646475E+03  d E =-.236496E-03
quench:  g(F)=  0.000E+00 g(S)=  0.000E+00 dE (1.order)= 0.000E+00
 bond charge predicted
       N       E                     dE             d eps       ncg     rms          rms(c)
DAV:   1    -0.166478619942E+03    0.23318E-03   -0.48091E-03    96   0.286E-01    0.114E-02
DAV:   2    -0.166478623632E+03   -0.36903E-05   -0.58634E-05   120   0.307E-02    0.880E-03
DAV:   3    -0.166478622541E+03    0.10904E-05   -0.60784E-06   112   0.111E-02    0.260E-03
DAV:   4    -0.166478622723E+03   -0.18197E-06   -0.13675E-06   112   0.471E-03    0.113E-03
DAV:   5    -0.166478622720E+03    0.37383E-08   -0.16819E-07   112   0.172E-03    0.365E-04
DAV:   6    -0.166478622721E+03   -0.12146E-08   -0.45034E-08   112   0.914E-04
  25 F= -.16647862E+03 E0= -.16646452E+03  d E =0.230404E-03
quench:  g(F)=  0.000E+00 g(S)=  0.000E+00 dE (1.order)= 0.000E+00
 bond charge predicted
       N       E                     dE             d eps       ncg     rms          rms(c)
DAV:   1    -0.166478616778E+03    0.59414E-05   -0.48312E-03    96   0.302E-01    0.111E-02
DAV:   2    -0.166478622245E+03   -0.54671E-05   -0.75981E-05   120   0.364E-02    0.937E-03
DAV:   3    -0.166478620901E+03    0.13447E-05   -0.51069E-06   112   0.103E-02    0.399E-03
DAV:   4    -0.166478620913E+03   -0.12545E-07   -0.19320E-06   104   0.564E-03    0.107E-03
DAV:   5    -0.166478620903E+03    0.10406E-07   -0.21167E-07   112   0.204E-03    0.354E-04
DAV:   6    -0.166478620912E+03   -0.91516E-08   -0.41133E-08   104   0.841E-04
  26 F= -.16647862E+03 E0= -.16646452E+03  d E =0.180893E-05
quench:  g(F)=  0.000E+00 g(S)=  0.000E+00 dE (1.order)= 0.000E+00
 bond charge predicted
       N       E                     dE             d eps       ncg     rms          rms(c)
DAV:   1    -0.166478815486E+03   -0.19458E-03   -0.48569E-03    96   0.282E-01    0.119E-02
DAV:   2    -0.166478818043E+03   -0.25567E-05   -0.50507E-05   104   0.289E-02    0.910E-03
DAV:   3    -0.166478816515E+03    0.15278E-05   -0.84980E-06   104   0.131E-02    0.159E-03
DAV:   4    -0.166478816552E+03   -0.37075E-07   -0.18042E-06   112   0.511E-03    0.105E-03
DAV:   5    -0.166478816514E+03    0.37985E-07   -0.25559E-07   120   0.188E-03    0.363E-04
DAV:   6    -0.166478816518E+03   -0.40459E-08   -0.24029E-08   112   0.673E-04
  27 F= -.16647882E+03 E0= -.16646471E+03  d E =-.195606E-03
quench:  g(F)=  0.000E+00 g(S)=  0.000E+00 dE (1.order)= 0.000E+00
 bond charge predicted
       N       E                     dE             d eps       ncg     rms          rms(c)
DAV:   1    -0.166478635795E+03    0.18072E-03   -0.48128E-03    96   0.283E-01    0.115E-02
DAV:   2    -0.166478639466E+03   -0.36707E-05   -0.58451E-05   112   0.303E-02    0.877E-03
DAV:   3    -0.166478638388E+03    0.10779E-05   -0.65433E-06   112   0.114E-02    0.245E-03
DAV:   4    -0.166478638565E+03   -0.17723E-06   -0.13939E-06   112   0.468E-03    0.113E-03
DAV:   5    -0.166478638564E+03    0.10339E-08   -0.18749E-07   112   0.179E-03    0.347E-04
DAV:   6    -0.166478638567E+03   -0.30775E-08   -0.39054E-08   112   0.860E-04
  28 F= -.16647864E+03 E0= -.16646453E+03  d E =0.177951E-03
quench:  g(F)=  0.000E+00 g(S)=  0.000E+00 dE (1.order)= 0.000E+00
 bond charge predicted
       N       E                     dE             d eps       ncg     rms          rms(c)
DAV:   1    -0.166478572155E+03    0.66409E-04   -0.49848E-03    96   0.308E-01    0.115E-02
DAV:   2    -0.166478577242E+03   -0.50872E-05   -0.75460E-05   112   0.366E-02    0.944E-03
DAV:   3    -0.166478575785E+03    0.14562E-05   -0.67023E-06   112   0.117E-02    0.289E-03
DAV:   4    -0.166478575935E+03   -0.14989E-06   -0.17010E-06    96   0.487E-03    0.102E-03
DAV:   5    -0.166478575934E+03    0.91950E-09   -0.13449E-07   120   0.152E-03    0.362E-04
DAV:   6    -0.166478575937E+03   -0.20591E-08   -0.22340E-08   112   0.687E-04
  29 F= -.16647858E+03 E0= -.16646447E+03  d E =0.626304E-04
quench:  g(F)=  0.000E+00 g(S)=  0.000E+00 dE (1.order)= 0.000E+00
 bond charge predicted
       N       E                     dE             d eps       ncg     rms          rms(c)
DAV:   1    -0.166478354479E+03    0.22146E-03   -0.48555E-03    96   0.305E-01    0.120E-02
DAV:   2    -0.166478357210E+03   -0.27312E-05   -0.48557E-05   104   0.300E-02    0.906E-03
DAV:   3    -0.166478356348E+03    0.86193E-06   -0.92352E-06   104   0.140E-02    0.177E-03
DAV:   4    -0.166478356319E+03    0.29376E-07   -0.18207E-06   112   0.550E-03    0.104E-03
DAV:   5    -0.166478356330E+03   -0.10997E-07   -0.31493E-07   120   0.205E-03    0.368E-04
DAV:   6    -0.166478356336E+03   -0.62146E-08   -0.24675E-08   104   0.671E-04
  30 F= -.16647836E+03 E0= -.16646425E+03  d E =0.219601E-03
quench:  g(F)=  0.000E+00 g(S)=  0.000E+00 dE (1.order)= 0.000E+00
 bond charge predicted
       N       E                     dE             d eps       ncg     rms          rms(c)
DAV:   1    -0.166478582697E+03   -0.22637E-03   -0.48069E-03    96   0.298E-01    0.116E-02
DAV:   2    -0.166478585837E+03   -0.31405E-05   -0.58894E-05   120   0.316E-02    0.874E-03
DAV:   3    -0.166478584410E+03    0.14279E-05   -0.67470E-06   112   0.116E-02    0.241E-03
DAV:   4    -0.166478584428E+03   -0.18538E-07   -0.13839E-06   112   0.469E-03    0.111E-03
DAV:   5    -0.166478584389E+03    0.39582E-07   -0.18953E-07   104   0.170E-03    0.350E-04
DAV:   6    -0.166478584396E+03   -0.75165E-08   -0.32418E-08   112   0.805E-04
  31 F= -.16647858E+03 E0= -.16646448E+03  d E =-.228060E-03
quench:  g(F)=  0.000E+00 g(S)=  0.000E+00 dE (1.order)= 0.000E+00
 bond charge predicted
       N       E                     dE             d eps       ncg     rms          rms(c)
DAV:   1    -0.166478834408E+03   -0.25002E-03   -0.27721E-03   104   0.231E-01    0.114E-02
DAV:   2    -0.166478836194E+03   -0.17858E-05   -0.46205E-05   112   0.286E-02    0.849E-03
DAV:   3    -0.166478834918E+03    0.12760E-05   -0.80519E-06   112   0.126E-02    0.239E-03
DAV:   4    -0.166478834885E+03    0.33312E-07   -0.14796E-06   104   0.524E-03    0.125E-03
DAV:   5    -0.166478834835E+03    0.49327E-07   -0.32071E-07   104   0.211E-03    0.359E-04
DAV:   6    -0.166478834840E+03   -0.43497E-08   -0.32316E-08   120   0.788E-04
  32 F= -.16647883E+03 E0= -.16646473E+03  d E =-.250444E-03
quench:  g(F)=  0.000E+00 g(S)=  0.000E+00 dE (1.order)= 0.000E+00
 bond charge predicted
       N       E                     dE             d eps       ncg     rms          rms(c)
DAV:   1    -0.166478547344E+03    0.28749E-03   -0.76621E-04   112   0.111E-01    0.131E-02
DAV:   2    -0.166478545946E+03    0.13984E-05   -0.18607E-05   112   0.174E-02    0.805E-03
DAV:   3    -0.166478545858E+03    0.88220E-07   -0.81826E-06   112   0.108E-02    0.266E-03
DAV:   4    -0.166478545607E+03    0.25099E-06   -0.21181E-06   104   0.596E-03    0.127E-03
DAV:   5    -0.166478545709E+03   -0.10180E-06   -0.24450E-07   112   0.195E-03    0.344E-04
DAV:   6    -0.166478545714E+03   -0.52225E-08   -0.24704E-08   120   0.644E-04
  33 F= -.16647855E+03 E0= -.16646444E+03  d E =0.289126E-03
quench:  g(F)=  0.000E+00 g(S)=  0.000E+00 dE (1.order)= 0.000E+00
 bond charge predicted
       N       E                     dE             d eps       ncg     rms          rms(c)
DAV:   1    -0.166478649621E+03   -0.10391E-03   -0.71561E-04   104   0.104E-01    0.850E-03
DAV:   2    -0.166478649467E+03    0.15334E-06   -0.67055E-06   112   0.973E-03    0.526E-03
DAV:   3    -0.166478649170E+03    0.29684E-06   -0.17803E-06   112   0.536E-03    0.108E-03
DAV:   4    -0.166478649154E+03    0.16622E-07   -0.31652E-07   112   0.232E-03    0.595E-04
DAV:   5    -0.166478649150E+03    0.34661E-08   -0.86335E-08   112   0.113E-03
  34 F= -.16647865E+03 E0= -.16646454E+03  d E =-.103436E-03
quench:  g(F)=  0.000E+00 g(S)=  0.000E+00 dE (1.order)= 0.000E+00
 bond charge predicted
       N       E                     dE             d eps       ncg     rms          rms(c)
DAV:   1    -0.166478463156E+03    0.18600E-03   -0.71978E-04   112   0.115E-01    0.957E-03
DAV:   2    -0.166478463266E+03   -0.11038E-06   -0.10970E-05   112   0.138E-02    0.612E-03
DAV:   3    -0.166478463344E+03   -0.77533E-07   -0.41554E-06   104   0.846E-03    0.198E-03
DAV:   4    -0.166478463206E+03    0.13723E-06   -0.74935E-07   112   0.373E-03    0.102E-03
DAV:   5    -0.166478463234E+03   -0.27462E-07   -0.29859E-07   104   0.193E-03    0.295E-04
DAV:   6    -0.166478463236E+03   -0.16178E-08   -0.21629E-08   120   0.608E-04
  35 F= -.16647846E+03 E0= -.16646436E+03  d E =0.185915E-03
quench:  g(F)=  0.000E+00 g(S)=  0.000E+00 dE (1.order)= 0.000E+00
 bond charge predicted
       N       E                     dE             d eps       ncg     rms          rms(c)
DAV:   1    -0.166478751587E+03   -0.28835E-03   -0.78058E-04   120   0.119E-01    0.134E-02
DAV:   2    -0.166478749169E+03    0.24177E-05   -0.19787E-05   112   0.188E-02    0.829E-03
DAV:   3    -0.166478748217E+03    0.95161E-06   -0.10840E-05   120   0.131E-02    0.318E-03
DAV:   4    -0.166478747975E+03    0.24201E-06   -0.23021E-06   104   0.642E-03    0.139E-03
DAV:   5    -0.166478747921E+03    0.54341E-07   -0.47515E-07   112   0.254E-03    0.398E-04
DAV:   6    -0.166478747916E+03    0.45391E-08   -0.22596E-08   120   0.652E-04
  36 F= -.16647875E+03 E0= -.16646464E+03  d E =-.284681E-03
quench:  g(F)=  0.000E+00 g(S)=  0.000E+00 dE (1.order)= 0.000E+00
 bond charge predicted
       N       E                     dE             d eps       ncg     rms          rms(c)
DAV:   1    -0.166478665576E+03    0.82345E-04   -0.71702E-04   104   0.112E-01    0.817E-03
DAV:   2    -0.166478665805E+03   -0.22854E-06   -0.63610E-06   104   0.977E-03    0.494E-03
DAV:   3    -0.166478665902E+03   -0.97156E-07   -0.13866E-06   112   0.483E-03    0.999E-04
DAV:   4    -0.166478665882E+03    0.20570E-07   -0.20876E-07   120   0.189E-03    0.570E-04
DAV:   5    -0.166478665887E+03   -0.49724E-08   -0.87339E-08   112   0.115E-03
  37 F= -.16647867E+03 E0= -.16646456E+03  d E =0.820300E-04
quench:  g(F)=  0.000E+00 g(S)=  0.000E+00 dE (1.order)= 0.000E+00
 bond charge predicted
       N       E                     dE             d eps       ncg     rms          rms(c)
DAV:   1    -0.166478445203E+03    0.22068E-03   -0.72861E-04   112   0.114E-01    0.931E-03
DAV:   2    -0.166478445501E+03   -0.29770E-06   -0.11370E-05   112   0.136E-02    0.614E-03
DAV:   3    -0.166478445687E+03   -0.18643E-06   -0.42833E-06   104   0.839E-03    0.201E-03
DAV:   4    -0.166478445527E+03    0.16034E-06   -0.75747E-07   112   0.375E-03    0.105E-03
DAV:   5    -0.166478445546E+03   -0.19614E-07   -0.34409E-07   112   0.204E-03    0.315E-04
DAV:   6    -0.166478445547E+03   -0.64529E-09   -0.28194E-08   112   0.696E-04
  38 F= -.16647845E+03 E0= -.16646434E+03  d E =0.220339E-03
quench:  g(F)=  0.000E+00 g(S)=  0.000E+00 dE (1.order)= 0.000E+00
 bond charge predicted
       N       E                     dE             d eps       ncg     rms          rms(c)
DAV:   1    -0.166478565053E+03   -0.11951E-03   -0.70722E-04   104   0.104E-01    0.816E-03
DAV:   2    -0.166478565097E+03   -0.43274E-07   -0.61357E-06   104   0.946E-03    0.510E-03
DAV:   3    -0.166478564893E+03    0.20308E-06   -0.15319E-06   104   0.502E-03    0.993E-04
DAV:   4    -0.166478564877E+03    0.16156E-07   -0.24332E-07   120   0.203E-03    0.665E-04
DAV:   5    -0.166478564875E+03    0.24095E-08   -0.13474E-07   112   0.129E-03    0.270E-04
DAV:   6    -0.166478564874E+03    0.45247E-09   -0.18303E-08   112   0.561E-04
  39 F= -.16647856E+03 E0= -.16646446E+03  d E =-.119327E-03
quench:  g(F)=  0.000E+00 g(S)=  0.000E+00 dE (1.order)= 0.000E+00
 bond charge predicted
       N       E                     dE             d eps       ncg     rms          rms(c)
DAV:   1    -0.166478780805E+03   -0.21593E-03   -0.74454E-04   112   0.107E-01    0.107E-02
DAV:   2    -0.166478779711E+03    0.10946E-05   -0.11671E-05    96   0.135E-02    0.667E-03
DAV:   3    -0.166478779068E+03    0.64243E-06   -0.47112E-06   120   0.846E-03    0.193E-03
DAV:   4    -0.166478778995E+03    0.73213E-07   -0.10903E-06   104   0.432E-03    0.907E-04
DAV:   5    -0.166478778959E+03    0.36026E-07   -0.14497E-07   112   0.143E-03    0.256E-04
DAV:   6    -0.166478778956E+03    0.32394E-08   -0.11051E-08   112   0.458E-04
  40 F= -.16647878E+03 E0= -.16646467E+03  d E =-.214082E-03
quench:  g(F)=  0.000E+00 g(S)=  0.000E+00 dE (1.order)= 0.000E+00
 bond charge predicted
       N       E                     dE             d eps       ncg     rms          rms(c)
DAV:   1    -0.166478769021E+03    0.99386E-05   -0.74022E-04   120   0.117E-01    0.108E-02
DAV:   2    -0.166478768490E+03    0.53104E-06   -0.14729E-05    96   0.163E-02    0.710E-03
DAV:   3    -0.166478768130E+03    0.35998E-06   -0.78511E-06   112   0.120E-02    0.281E-03
DAV:   4    -0.166478767902E+03    0.22766E-06   -0.15413E-06   104   0.561E-03    0.141E-03
DAV:   5    -0.166478767888E+03    0.13878E-07   -0.62116E-07   120   0.278E-03    0.358E-04
DAV:   6    -0.166478767890E+03   -0.18604E-08   -0.41438E-08   112   0.846E-04
  41 F= -.16647877E+03 E0= -.16646466E+03  d E =0.110661E-04
quench:  g(F)=  0.000E+00 g(S)=  0.000E+00 dE (1.order)= 0.000E+00
 bond charge predicted
       N       E                     dE             d eps       ncg     rms          rms(c)
DAV:   1    -0.166478734355E+03    0.33533E-04   -0.71304E-04   104   0.112E-01    0.772E-03
DAV:   2    -0.166478734748E+03   -0.39355E-06   -0.61126E-06   104   0.960E-03    0.481E-03
DAV:   3    -0.166478734781E+03   -0.33139E-07   -0.10181E-06   104   0.429E-03    0.741E-04
DAV:   4    -0.166478734775E+03    0.67030E-08   -0.14329E-07   120   0.157E-03    0.529E-04
DAV:   5    -0.166478734771E+03    0.40461E-08   -0.74281E-08   112   0.103E-03
  42 F= -.16647873E+03 E0= -.16646463E+03  d E =0.331193E-04
quench:  g(F)=  0.000E+00 g(S)=  0.000E+00 dE (1.order)= 0.000E+00
 bond charge predicted
       N       E                     dE             d eps       ncg     rms          rms(c)
DAV:   1    -0.166478561038E+03    0.17374E-03   -0.74489E-04   112   0.115E-01    0.101E-02
DAV:   2    -0.166478560827E+03    0.21071E-06   -0.10304E-05    96   0.132E-02    0.618E-03
DAV:   3    -0.166478560910E+03   -0.82369E-07   -0.44519E-06   112   0.851E-03    0.198E-03
DAV:   4    -0.166478560775E+03    0.13460E-06   -0.78562E-07   112   0.374E-03    0.980E-04
DAV:   5    -0.166478560815E+03   -0.39827E-07   -0.25041E-07   112   0.184E-03    0.286E-04
DAV:   6    -0.166478560818E+03   -0.32783E-08   -0.18189E-08   112   0.554E-04
  43 F= -.16647856E+03 E0= -.16646446E+03  d E =0.173952E-03
quench:  g(F)=  0.000E+00 g(S)=  0.000E+00 dE (1.order)= 0.000E+00
 bond charge predicted
       N       E                     dE             d eps       ncg     rms          rms(c)
DAV:   1    -0.166478555068E+03    0.57466E-05   -0.70847E-04   104   0.112E-01    0.761E-03
DAV:   2    -0.166478555434E+03   -0.36566E-06   -0.71692E-06    96   0.103E-02    0.481E-03
DAV:   3    -0.166478555451E+03   -0.16967E-07   -0.87878E-07   104   0.381E-03    0.515E-04
DAV:   4    -0.166478555459E+03   -0.78612E-08   -0.12342E-07   120   0.123E-03    0.387E-04
DAV:   5    -0.166478555461E+03   -0.17378E-08   -0.22604E-08   104   0.598E-04
  44 F= -.16647856E+03 E0= -.16646445E+03  d E =0.535763E-05
quench:  g(F)=  0.000E+00 g(S)=  0.000E+00 dE (1.order)= 0.000E+00
 bond charge predicted
       N       E                     dE             d eps       ncg     rms          rms(c)
DAV:   1    -0.166478522831E+03    0.32628E-04   -0.71646E-04   104   0.893E-02    0.771E-03
DAV:   2    -0.166478523048E+03   -0.21732E-06   -0.51821E-06   112   0.804E-03    0.472E-03
DAV:   3    -0.166478523171E+03   -0.12288E-06   -0.75250E-07   112   0.355E-03    0.591E-04
DAV:   4    -0.166478523173E+03   -0.18517E-08   -0.10215E-07   120   0.128E-03    0.418E-04
DAV:   5    -0.166478523173E+03    0.46384E-10   -0.45702E-08   104   0.833E-04
  45 F= -.16647852E+03 E0= -.16646442E+03  d E =0.322878E-04
quench:  g(F)=  0.000E+00 g(S)=  0.000E+00 dE (1.order)= 0.000E+00
 bond charge predicted
       N       E                     dE             d eps       ncg     rms          rms(c)
DAV:   1    -0.166478435252E+03    0.87921E-04   -0.72255E-04    96   0.879E-02    0.805E-03
DAV:   2    -0.166478435497E+03   -0.24521E-06   -0.61141E-06   120   0.816E-03    0.492E-03
DAV:   3    -0.166478435632E+03   -0.13486E-06   -0.12778E-06    96   0.422E-03    0.910E-04
DAV:   4    -0.166478435611E+03    0.20420E-07   -0.16360E-07   120   0.165E-03    0.550E-04
DAV:   5    -0.166478435614E+03   -0.27467E-08   -0.92389E-08   112   0.123E-03
  46 F= -.16647844E+03 E0= -.16646433E+03  d E =0.875589E-04
quench:  g(F)=  0.000E+00 g(S)=  0.000E+00 dE (1.order)= 0.000E+00
 bond charge predicted
       N       E                     dE             d eps       ncg     rms          rms(c)
DAV:   1    -0.166478793984E+03   -0.35837E-03   -0.76442E-04   120   0.118E-01    0.118E-02
DAV:   2    -0.166478792536E+03    0.14477E-05   -0.17099E-05   104   0.176E-02    0.753E-03
DAV:   3    -0.166478791580E+03    0.95589E-06   -0.91383E-06   112   0.121E-02    0.294E-03
DAV:   4    -0.166478791385E+03    0.19516E-06   -0.16482E-06   104   0.558E-03    0.144E-03
DAV:   5    -0.166478791313E+03    0.72209E-07   -0.63588E-07   112   0.291E-03    0.410E-04
DAV:   6    -0.166478791314E+03   -0.11446E-08   -0.41587E-08   120   0.857E-04
  47 F= -.16647879E+03 E0= -.16646469E+03  d E =-.355700E-03
quench:  g(F)=  0.000E+00 g(S)=  0.000E+00 dE (1.order)= 0.000E+00
 bond charge predicted
       N       E                     dE             d eps       ncg     rms          rms(c)
DAV:   1    -0.166478711808E+03    0.79505E-04   -0.71318E-04    96   0.108E-01    0.788E-03
DAV:   2    -0.166478712095E+03   -0.28699E-06   -0.57791E-06    96   0.923E-03    0.483E-03
DAV:   3    -0.166478712116E+03   -0.20701E-07   -0.10646E-06   112   0.429E-03    0.778E-04
DAV:   4    -0.166478712102E+03    0.13755E-07   -0.15642E-07   120   0.163E-03    0.514E-04
DAV:   5    -0.166478712100E+03    0.25289E-08   -0.76273E-08   112   0.103E-03
  48 F= -.16647871E+03 E0= -.16646461E+03  d E =0.792143E-04
quench:  g(F)=  0.000E+00 g(S)=  0.000E+00 dE (1.order)= 0.000E+00
 bond charge predicted
       N       E                     dE             d eps       ncg     rms          rms(c)
DAV:   1    -0.166478525683E+03    0.18642E-03   -0.73655E-04   112   0.110E-01    0.976E-03
DAV:   2    -0.166478525451E+03    0.23234E-06   -0.89500E-06    96   0.123E-02    0.611E-03
DAV:   3    -0.166478525540E+03   -0.88995E-07   -0.41735E-06   104   0.831E-03    0.193E-03
DAV:   4    -0.166478525404E+03    0.13537E-06   -0.85238E-07   104   0.390E-03    0.949E-04
DAV:   5    -0.166478525446E+03   -0.41326E-07   -0.23124E-07   120   0.176E-03    0.254E-04
DAV:   6    -0.166478525446E+03   -0.62528E-10   -0.16942E-08   120   0.524E-04
  49 F= -.16647853E+03 E0= -.16646442E+03  d E =0.186654E-03
quench:  g(F)=  0.000E+00 g(S)=  0.000E+00 dE (1.order)= 0.000E+00
 bond charge predicted
       N       E                     dE             d eps       ncg     rms          rms(c)
DAV:   1    -0.166478468390E+03    0.57056E-04   -0.74097E-04   112   0.117E-01    0.998E-03
DAV:   2    -0.166478468261E+03    0.12911E-06   -0.11631E-05    96   0.146E-02    0.641E-03
DAV:   3    -0.166478468267E+03   -0.61366E-08   -0.57838E-06   112   0.101E-02    0.237E-03
DAV:   4    -0.166478468085E+03    0.18226E-06   -0.10582E-06   104   0.459E-03    0.127E-03
DAV:   5    -0.166478468100E+03   -0.15639E-07   -0.43981E-07   112   0.243E-03    0.265E-04
DAV:   6    -0.166478468102E+03   -0.20320E-08   -0.31968E-08   112   0.761E-04
  50 F= -.16647847E+03 E0= -.16646436E+03  d E =0.573435E-04
quench:  g(F)=  0.000E+00 g(S)=  0.000E+00 dE (1.order)= 0.000E+00
 bond charge predicted
       N       E                     dE             d eps       ncg     rms          rms(c)
DAV:   1    -0.166478497222E+03   -0.29122E-04   -0.71975E-04    96   0.109E-01    0.789E-03
DAV:   2    -0.166478497400E+03   -0.17770E-06   -0.54822E-06    96   0.899E-03    0.488E-03
DAV:   3    -0.166478497237E+03    0.16318E-06   -0.10536E-06   112   0.424E-03    0.734E-04
DAV:   4    -0.166478497233E+03    0.37219E-08   -0.13802E-07   120   0.155E-03    0.503E-04
DAV:   5    -0.166478497233E+03   -0.60095E-09   -0.73940E-08   112   0.103E-03
  51 F= -.16647850E+03 E0= -.16646439E+03  d E =-.291310E-04
quench:  g(F)=  0.000E+00 g(S)=  0.000E+00 dE (1.order)= 0.000E+00
 bond charge predicted
       N       E                     dE             d eps       ncg     rms          rms(c)
DAV:   1    -0.166478666301E+03   -0.16907E-03   -0.74291E-04   112   0.112E-01    0.980E-03
DAV:   2    -0.166478665633E+03    0.66878E-06   -0.96518E-06    96   0.126E-02    0.625E-03
DAV:   3    -0.166478665139E+03    0.49371E-06   -0.47830E-06   104   0.893E-03    0.213E-03
DAV:   4    -0.166478665036E+03    0.10271E-06   -0.91232E-07   112   0.410E-03    0.102E-03
DAV:   5    -0.166478665009E+03    0.27671E-07   -0.29403E-07   104   0.199E-03    0.271E-04
DAV:   6    -0.166478665010E+03   -0.18899E-08   -0.20660E-08   120   0.597E-04
  52 F= -.16647867E+03 E0= -.16646456E+03  d E =-.167777E-03
quench:  g(F)=  0.000E+00 g(S)=  0.000E+00 dE (1.order)= 0.000E+00
 bond charge predicted
       N       E                     dE             d eps       ncg     rms          rms(c)
DAV:   1    -0.166478426762E+03    0.23825E-03   -0.73401E-04   104   0.117E-01    0.948E-03
DAV:   2    -0.166478426929E+03   -0.16739E-06   -0.10852E-05   104   0.139E-02    0.618E-03
DAV:   3    -0.166478427093E+03   -0.16414E-06   -0.48485E-06   104   0.921E-03    0.215E-03
DAV:   4    -0.166478426926E+03    0.16698E-06   -0.87490E-07   104   0.412E-03    0.120E-03
DAV:   5    -0.166478426943E+03   -0.16201E-07   -0.42494E-07   104   0.235E-03    0.293E-04
DAV:   6    -0.166478426941E+03    0.12462E-08   -0.34362E-08   112   0.791E-04
  53 F= -.16647843E+03 E0= -.16646432E+03  d E =0.238069E-03
quench:  g(F)=  0.000E+00 g(S)=  0.000E+00 dE (1.order)= 0.000E+00
 bond charge predicted
       N       E                     dE             d eps       ncg     rms          rms(c)
DAV:   1    -0.166478729684E+03   -0.30274E-03   -0.78130E-04   112   0.114E-01    0.133E-02
DAV:   2    -0.166478727291E+03    0.23925E-05   -0.17780E-05   104   0.179E-02    0.822E-03
DAV:   3    -0.166478726296E+03    0.99543E-06   -0.10892E-05   112   0.131E-02    0.316E-03
DAV:   4    -0.166478726045E+03    0.25092E-06   -0.24524E-06   104   0.666E-03    0.136E-03
DAV:   5    -0.166478725976E+03    0.68758E-07   -0.45302E-07    96   0.248E-03    0.295E-04
DAV:   6    -0.166478725980E+03   -0.36994E-08   -0.18707E-08   120   0.580E-04
  54 F= -.16647873E+03 E0= -.16646462E+03  d E =-.299038E-03
quench:  g(F)=  0.000E+00 g(S)=  0.000E+00 dE (1.order)= 0.000E+00
 bond charge predicted
       N       E                     dE             d eps       ncg     rms          rms(c)
DAV:   1    -0.166478652519E+03    0.73457E-04   -0.71828E-04    96   0.107E-01    0.793E-03
DAV:   2    -0.166478652821E+03   -0.30233E-06   -0.61189E-06    96   0.942E-03    0.494E-03
DAV:   3    -0.166478652902E+03   -0.80714E-07   -0.13136E-06   104   0.479E-03    0.932E-04
DAV:   4    -0.166478652883E+03    0.19135E-07   -0.21740E-07   120   0.193E-03    0.589E-04
DAV:   5    -0.166478652881E+03    0.13824E-08   -0.92700E-08   112   0.119E-03
  55 F= -.16647865E+03 E0= -.16646455E+03  d E =0.730982E-04
quench:  g(F)=  0.000E+00 g(S)=  0.000E+00 dE (1.order)= 0.000E+00
 bond charge predicted
       N       E                     dE             d eps       ncg     rms          rms(c)
DAV:   1    -0.166478743958E+03   -0.91075E-04   -0.73864E-04   104   0.117E-01    0.968E-03
DAV:   2    -0.166478743602E+03    0.35542E-06   -0.10563E-05    96   0.139E-02    0.622E-03
DAV:   3    -0.166478743285E+03    0.31730E-06   -0.52331E-06   112   0.977E-03    0.227E-03
DAV:   4    -0.166478743154E+03    0.13140E-06   -0.95044E-07   112   0.439E-03    0.124E-03
DAV:   5    -0.166478743126E+03    0.27761E-07   -0.43267E-07   112   0.242E-03    0.267E-04
DAV:   6    -0.166478743131E+03   -0.47007E-08   -0.33315E-08   112   0.785E-04
  56 F= -.16647874E+03 E0= -.16646464E+03  d E =-.902492E-04
quench:  g(F)=  0.000E+00 g(S)=  0.000E+00 dE (1.order)= 0.000E+00
 bond charge predicted
       N       E                     dE             d eps       ncg     rms          rms(c)
DAV:   1    -0.166478485405E+03    0.25772E-03   -0.79038E-04   120   0.117E-01    0.134E-02
DAV:   2    -0.166478483725E+03    0.16796E-05   -0.18612E-05   104   0.182E-02    0.831E-03
DAV:   3    -0.166478483670E+03    0.55761E-07   -0.11196E-05   112   0.132E-02    0.323E-03
DAV:   4    -0.166478483270E+03    0.40006E-06   -0.24698E-06   104   0.665E-03    0.138E-03
DAV:   5    -0.166478483393E+03   -0.12294E-06   -0.47183E-07   112   0.256E-03    0.349E-04
DAV:   6    -0.166478483392E+03    0.98544E-09   -0.21307E-08   120   0.629E-04
  57 F= -.16647848E+03 E0= -.16646438E+03  d E =0.259739E-03
quench:  g(F)=  0.000E+00 g(S)=  0.000E+00 dE (1.order)= 0.000E+00
 bond charge predicted
       N       E                     dE             d eps       ncg     rms          rms(c)
DAV:   1    -0.166478569910E+03   -0.86518E-04   -0.72383E-04   104   0.110E-01    0.807E-03
DAV:   2    -0.166478569977E+03   -0.67119E-07   -0.62311E-06   104   0.960E-03    0.505E-03
DAV:   3    -0.166478569784E+03    0.19335E-06   -0.14730E-06   112   0.511E-03    0.102E-03
DAV:   4    -0.166478569767E+03    0.16589E-07   -0.22804E-07   120   0.204E-03    0.621E-04
DAV:   5    -0.166478569763E+03    0.44520E-08   -0.10779E-07   104   0.126E-03    0.205E-04
DAV:   6    -0.166478569764E+03   -0.12210E-08   -0.13734E-08   112   0.492E-04
  58 F= -.16647857E+03 E0= -.16646447E+03  d E =-.863726E-04
quench:  g(F)=  0.000E+00 g(S)=  0.000E+00 dE (1.order)= 0.000E+00
 bond charge predicted
       N       E                     dE             d eps       ncg     rms          rms(c)
DAV:   1    -0.166478737839E+03   -0.16808E-03   -0.73865E-04   112   0.118E-01    0.964E-03
DAV:   2    -0.166478737390E+03    0.44941E-06   -0.11014E-05    96   0.140E-02    0.620E-03
DAV:   3    -0.166478736848E+03    0.54211E-06   -0.49796E-06   112   0.920E-03    0.221E-03
DAV:   4    -0.166478736734E+03    0.11307E-06   -0.84484E-07   104   0.410E-03    0.120E-03
DAV:   5    -0.166478736693E+03    0.41383E-07   -0.44044E-07   120   0.241E-03    0.329E-04
DAV:   6    -0.166478736695E+03   -0.21209E-08   -0.35686E-08   112   0.807E-04
  59 F= -.16647874E+03 E0= -.16646463E+03  d E =-.166931E-03
quench:  g(F)=  0.000E+00 g(S)=  0.000E+00 dE (1.order)= 0.000E+00
 bond charge predicted
       N       E                     dE             d eps       ncg     rms          rms(c)
DAV:   1    -0.166478490554E+03    0.24614E-03   -0.78630E-04   120   0.115E-01    0.132E-02
DAV:   2    -0.166478489144E+03    0.14098E-05   -0.19537E-05   104   0.187E-02    0.825E-03
DAV:   3    -0.166478489088E+03    0.56283E-07   -0.10948E-05   120   0.130E-02    0.324E-03
DAV:   4    -0.166478488680E+03    0.40860E-06   -0.24645E-06   112   0.672E-03    0.141E-03
DAV:   5    -0.166478488807E+03   -0.12705E-06   -0.50913E-07   104   0.264E-03    0.412E-04
DAV:   6    -0.166478488805E+03    0.19577E-08   -0.26373E-08   120   0.713E-04
  60 F= -.16647849E+03 E0= -.16646438E+03  d E =0.247891E-03
quench:  g(F)=  0.000E+00 g(S)=  0.000E+00 dE (1.order)= 0.000E+00
 bond charge predicted
       N       E                     dE             d eps       ncg     rms          rms(c)
DAV:   1    -0.166478582700E+03   -0.93893E-04   -0.72296E-04   104   0.108E-01    0.807E-03
DAV:   2    -0.166478582777E+03   -0.77876E-07   -0.63614E-06    96   0.973E-03    0.497E-03
DAV:   3    -0.166478582623E+03    0.15455E-06   -0.13269E-06   104   0.476E-03    0.932E-04
DAV:   4    -0.166478582607E+03    0.15923E-07   -0.19765E-07   112   0.193E-03    0.552E-04
DAV:   5    -0.166478582603E+03    0.39158E-08   -0.84300E-08   112   0.112E-03
  61 F= -.16647858E+03 E0= -.16646448E+03  d E =-.937984E-04
quench:  g(F)=  0.000E+00 g(S)=  0.000E+00 dE (1.order)= 0.000E+00
 bond charge predicted
       N       E                     dE             d eps       ncg     rms          rms(c)
DAV:   1    -0.166478486230E+03    0.96377E-04   -0.74022E-04   112   0.115E-01    0.973E-03
DAV:   2    -0.166478486150E+03    0.79676E-07   -0.11344E-05   104   0.140E-02    0.627E-03
DAV:   3    -0.166478486080E+03    0.70186E-07   -0.51221E-06   112   0.950E-03    0.223E-03
DAV:   4    -0.166478485918E+03    0.16256E-06   -0.94679E-07   112   0.430E-03    0.119E-03
DAV:   5    -0.166478485928E+03   -0.10393E-07   -0.43105E-07   120   0.239E-03    0.309E-04
DAV:   6    -0.166478485928E+03   -0.25921E-09   -0.36898E-08   112   0.808E-04
  62 F= -.16647849E+03 E0= -.16646438E+03  d E =0.966748E-04
quench:  g(F)=  0.000E+00 g(S)=  0.000E+00 dE (1.order)= 0.000E+00
 bond charge predicted
       N       E                     dE             d eps       ncg     rms          rms(c)
DAV:   1    -0.166478753957E+03   -0.26803E-03   -0.78991E-04   112   0.110E-01    0.134E-02
DAV:   2    -0.166478751413E+03    0.25439E-05   -0.18592E-05    96   0.178E-02    0.831E-03
DAV:   3    -0.166478750494E+03    0.91885E-06   -0.11796E-05   120   0.131E-02    0.333E-03
DAV:   4    -0.166478750197E+03    0.29717E-06   -0.25745E-06   112   0.668E-03    0.143E-03
DAV:   5    -0.166478750136E+03    0.61431E-07   -0.55062E-07   112   0.268E-03    0.379E-04
DAV:   6    -0.166478750135E+03    0.49545E-09   -0.23959E-08   120   0.660E-04
  63 F= -.16647875E+03 E0= -.16646465E+03  d E =-.264207E-03
quench:  g(F)=  0.000E+00 g(S)=  0.000E+00 dE (1.order)= 0.000E+00
 bond charge predicted
       N       E                     dE             d eps       ncg     rms          rms(c)
DAV:   1    -0.166478672349E+03    0.77787E-04   -0.72361E-04   104   0.103E-01    0.811E-03
DAV:   2    -0.166478672598E+03   -0.24876E-06   -0.61781E-06   112   0.949E-03    0.499E-03
DAV:   3    -0.166478672651E+03   -0.52715E-07   -0.14104E-06   112   0.477E-03    0.964E-04
DAV:   4    -0.166478672628E+03    0.23258E-07   -0.20930E-07   112   0.195E-03    0.565E-04
DAV:   5    -0.166478672629E+03   -0.10609E-08   -0.92619E-08   120   0.115E-03
  64 F= -.16647867E+03 E0= -.16646457E+03  d E =0.775068E-04
quench:  g(F)=  0.000E+00 g(S)=  0.000E+00 dE (1.order)= 0.000E+00
 bond charge predicted
       N       E                     dE             d eps       ncg     rms          rms(c)
DAV:   1    -0.166478480420E+03    0.19221E-03   -0.74320E-04   112   0.115E-01    0.101E-02
DAV:   2    -0.166478480387E+03    0.32894E-07   -0.12469E-05   104   0.149E-02    0.652E-03
DAV:   3    -0.166478480592E+03   -0.20430E-06   -0.59121E-06   120   0.987E-03    0.242E-03
DAV:   4    -0.166478480363E+03    0.22840E-06   -0.10479E-06   104   0.451E-03    0.125E-03
DAV:   5    -0.166478480405E+03   -0.41385E-07   -0.46882E-07   104   0.246E-03    0.331E-04
DAV:   6    -0.166478480401E+03    0.36614E-08   -0.34105E-08   120   0.778E-04
  65 F= -.16647848E+03 E0= -.16646438E+03  d E =0.192228E-03
quench:  g(F)=  0.000E+00 g(S)=  0.000E+00 dE (1.order)= 0.000E+00
 bond charge predicted
       N       E                     dE             d eps       ncg     rms          rms(c)
DAV:   1    -0.166478503511E+03   -0.23107E-04   -0.71734E-04    96   0.108E-01    0.794E-03
DAV:   2    -0.166478503697E+03   -0.18633E-06   -0.57755E-06    96   0.943E-03    0.489E-03
DAV:   3    -0.166478503521E+03    0.17628E-06   -0.10770E-06   112   0.428E-03    0.781E-04
DAV:   4    -0.166478503514E+03    0.72391E-08   -0.14622E-07   120   0.161E-03    0.522E-04
DAV:   5    -0.166478503514E+03    0.45679E-09   -0.82551E-08   112   0.108E-03
  66 F= -.16647850E+03 E0= -.16646440E+03  d E =-.231126E-04
quench:  g(F)=  0.000E+00 g(S)=  0.000E+00 dE (1.order)= 0.000E+00
 bond charge predicted
       N       E                     dE             d eps       ncg     rms          rms(c)
DAV:   1    -0.166478672989E+03   -0.16948E-03   -0.73916E-04   112   0.110E-01    0.980E-03
DAV:   2    -0.166478672312E+03    0.67694E-06   -0.93004E-06   104   0.125E-02    0.603E-03
DAV:   3    -0.166478671885E+03    0.42663E-06   -0.38912E-06   112   0.795E-03    0.186E-03
DAV:   4    -0.166478671802E+03    0.83065E-07   -0.76616E-07   104   0.377E-03    0.899E-04
DAV:   5    -0.166478671779E+03    0.23743E-07   -0.19677E-07   112   0.164E-03    0.256E-04
DAV:   6    -0.166478671778E+03    0.66325E-09   -0.13249E-08   120   0.489E-04
  67 F= -.16647867E+03 E0= -.16646457E+03  d E =-.168264E-03
quench:  g(F)=  0.000E+00 g(S)=  0.000E+00 dE (1.order)= 0.000E+00
 bond charge predicted
       N       E                     dE             d eps       ncg     rms          rms(c)
DAV:   1    -0.166478756961E+03   -0.85182E-04   -0.74042E-04   112   0.115E-01    0.996E-03
DAV:   2    -0.166478756513E+03    0.44706E-06   -0.12113E-05    96   0.145E-02    0.643E-03
DAV:   3    -0.166478756078E+03    0.43548E-06   -0.56833E-06   120   0.981E-03    0.235E-03
DAV:   4    -0.166478755938E+03    0.14014E-06   -0.10531E-06   112   0.449E-03    0.124E-03
DAV:   5    -0.166478755907E+03    0.30515E-07   -0.46061E-07   120   0.242E-03    0.307E-04
DAV:   6    -0.166478755910E+03   -0.25179E-08   -0.35764E-08   104   0.789E-04
  68 F= -.16647876E+03 E0= -.16646465E+03  d E =-.841319E-04
quench:  g(F)=  0.000E+00 g(S)=  0.000E+00 dE (1.order)= 0.000E+00
 bond charge predicted
       N       E                     dE             d eps       ncg     rms          rms(c)
DAV:   1    -0.166478736374E+03    0.19533E-04   -0.71746E-04    96   0.102E-01    0.787E-03
DAV:   2    -0.166478736642E+03   -0.26803E-06   -0.53995E-06    96   0.881E-03    0.485E-03
DAV:   3    -0.166478736669E+03   -0.26831E-07   -0.10702E-06   112   0.418E-03    0.754E-04
DAV:   4    -0.166478736658E+03    0.11546E-07   -0.14811E-07   120   0.159E-03    0.524E-04
DAV:   5    -0.166478736653E+03    0.44342E-08   -0.78277E-08   112   0.104E-03
  69 F= -.16647874E+03 E0= -.16646463E+03  d E =0.192566E-04
quench:  g(F)=  0.000E+00 g(S)=  0.000E+00 dE (1.order)= 0.000E+00
 bond charge predicted
       N       E                     dE             d eps       ncg     rms          rms(c)
DAV:   1    -0.166478580593E+03    0.15606E-03   -0.74033E-04   112   0.105E-01    0.996E-03
DAV:   2    -0.166478580239E+03    0.35443E-06   -0.91267E-06    96   0.123E-02    0.610E-03
DAV:   3    -0.166478580327E+03   -0.87818E-07   -0.42306E-06   112   0.803E-03    0.193E-03
DAV:   4    -0.166478580189E+03    0.13771E-06   -0.82052E-07   104   0.380E-03    0.926E-04
DAV:   5    -0.166478580236E+03   -0.46972E-07   -0.21436E-07   120   0.168E-03    0.260E-04
DAV:   6    -0.166478580236E+03    0.31901E-09   -0.13800E-08   112   0.488E-04
  70 F= -.16647858E+03 E0= -.16646448E+03  d E =0.156417E-03
quench:  g(F)=  0.000E+00 g(S)=  0.000E+00 dE (1.order)= 0.000E+00
 bond charge predicted
       N       E                     dE             d eps       ncg     rms          rms(c)
DAV:   1    -0.166478755849E+03   -0.17561E-03   -0.74127E-04   112   0.118E-01    0.999E-03
DAV:   2    -0.166478755271E+03    0.57823E-06   -0.12225E-05    96   0.149E-02    0.644E-03
DAV:   3    -0.166478754683E+03    0.58820E-06   -0.58501E-06   120   0.988E-03    0.238E-03
DAV:   4    -0.166478754552E+03    0.13089E-06   -0.99837E-07   112   0.442E-03    0.127E-03
DAV:   5    -0.166478754507E+03    0.44935E-07   -0.49093E-07   120   0.253E-03    0.315E-04
DAV:   6    -0.166478754510E+03   -0.28660E-08   -0.37442E-08   104   0.819E-04
  71 F= -.16647875E+03 E0= -.16646465E+03  d E =-.174274E-03
quench:  g(F)=  0.000E+00 g(S)=  0.000E+00 dE (1.order)= 0.000E+00
 bond charge predicted
       N       E                     dE             d eps       ncg     rms          rms(c)
DAV:   1    -0.166478724567E+03    0.29940E-04   -0.71759E-04    96   0.109E-01    0.791E-03
DAV:   2    -0.166478724852E+03   -0.28521E-06   -0.55762E-06   104   0.926E-03    0.486E-03
DAV:   3    -0.166478724872E+03   -0.19926E-07   -0.10495E-06   112   0.423E-03    0.753E-04
DAV:   4    -0.166478724862E+03    0.10128E-07   -0.13955E-07   120   0.157E-03    0.504E-04
DAV:   5    -0.166478724859E+03    0.27046E-08   -0.76343E-08   112   0.104E-03
  72 F= -.16647872E+03 E0= -.16646462E+03  d E =0.296504E-04
quench:  g(F)=  0.000E+00 g(S)=  0.000E+00 dE (1.order)= 0.000E+00
 bond charge predicted
       N       E                     dE             d eps       ncg     rms          rms(c)
DAV:   1    -0.166478586301E+03    0.13856E-03   -0.73914E-04   112   0.111E-01    0.990E-03
DAV:   2    -0.166478585921E+03    0.37940E-06   -0.86647E-06    96   0.120E-02    0.600E-03
DAV:   3    -0.166478586017E+03   -0.95740E-07   -0.37702E-06   120   0.771E-03    0.180E-03
DAV:   4    -0.166478585903E+03    0.11424E-06   -0.76351E-07   112   0.370E-03    0.854E-04
DAV:   5    -0.166478585951E+03   -0.48157E-07   -0.15944E-07   112   0.151E-03    0.240E-04
DAV:   6    -0.166478585951E+03   -0.27399E-09   -0.99454E-09   112   0.434E-04
  73 F= -.16647859E+03 E0= -.16646448E+03  d E =0.138908E-03
quench:  g(F)=  0.000E+00 g(S)=  0.000E+00 dE (1.order)= 0.000E+00
 bond charge predicted
       N       E                     dE             d eps       ncg     rms          rms(c)
DAV:   1    -0.166478466643E+03    0.11931E-03   -0.74202E-04   104   0.117E-01    0.998E-03
DAV:   2    -0.166478466485E+03    0.15827E-06   -0.11491E-05    96   0.145E-02    0.642E-03
DAV:   3    -0.166478466523E+03   -0.37625E-07   -0.60222E-06   120   0.102E-02    0.243E-03
DAV:   4    -0.166478466331E+03    0.19192E-06   -0.10748E-06   104   0.460E-03    0.136E-03
DAV:   5    -0.166478466334E+03   -0.34829E-08   -0.51343E-07   120   0.260E-03    0.269E-04
DAV:   6    -0.166478466338E+03   -0.39404E-08   -0.40690E-08   112   0.861E-04
  74 F= -.16647847E+03 E0= -.16646436E+03  d E =0.119613E-03
quench:  g(F)=  0.000E+00 g(S)=  0.000E+00 dE (1.order)= 0.000E+00
 bond charge predicted
       N       E                     dE             d eps       ncg     rms          rms(c)
DAV:   1    -0.166478501267E+03   -0.34933E-04   -0.71878E-04   104   0.106E-01    0.791E-03
DAV:   2    -0.166478501425E+03   -0.15769E-06   -0.53964E-06    96   0.889E-03    0.486E-03
DAV:   3    -0.166478501243E+03    0.18228E-06   -0.10372E-06   112   0.415E-03    0.736E-04
DAV:   4    -0.166478501238E+03    0.49231E-08   -0.14235E-07   112   0.156E-03    0.502E-04
DAV:   5    -0.166478501238E+03   -0.39267E-09   -0.73111E-08   112   0.101E-03
  75 F= -.16647850E+03 E0= -.16646440E+03  d E =-.349000E-04
quench:  g(F)=  0.000E+00 g(S)=  0.000E+00 dE (1.order)= 0.000E+00
 bond charge predicted
       N       E                     dE             d eps       ncg     rms          rms(c)
DAV:   1    -0.166478657897E+03   -0.15666E-03   -0.74273E-04   112   0.109E-01    0.999E-03
DAV:   2    -0.166478657016E+03    0.88122E-06   -0.87335E-06    96   0.121E-02    0.607E-03
DAV:   3    -0.166478656572E+03    0.44402E-06   -0.40879E-06   112   0.794E-03    0.189E-03
DAV:   4    -0.166478656488E+03    0.83988E-07   -0.82623E-07   112   0.381E-03    0.891E-04
DAV:   5    -0.166478656463E+03    0.24487E-07   -0.17555E-07   128   0.156E-03    0.235E-04
DAV:   6    -0.166478656464E+03   -0.89426E-09   -0.98349E-09   112   0.416E-04
  76 F= -.16647866E+03 E0= -.16646455E+03  d E =-.155226E-03
quench:  g(F)=  0.000E+00 g(S)=  0.000E+00 dE (1.order)= 0.000E+00
 bond charge predicted
       N       E                     dE             d eps       ncg     rms          rms(c)
DAV:   1    -0.166478491450E+03    0.16501E-03   -0.73713E-04   104   0.116E-01    0.952E-03
DAV:   2    -0.166478491547E+03   -0.97546E-07   -0.10498E-05    96   0.135E-02    0.608E-03
DAV:   3    -0.166478491728E+03   -0.18037E-06   -0.47458E-06   104   0.889E-03    0.213E-03
DAV:   4    -0.166478491565E+03    0.16303E-06   -0.78835E-07   112   0.391E-03    0.119E-03
DAV:   5    -0.166478491580E+03   -0.15362E-07   -0.42861E-07   112   0.236E-03    0.303E-04
DAV:   6    -0.166478491580E+03   -0.23010E-09   -0.34367E-08   104   0.779E-04
  77 F= -.16647849E+03 E0= -.16646439E+03  d E =0.164884E-03
quench:  g(F)=  0.000E+00 g(S)=  0.000E+00 dE (1.order)= 0.000E+00
 bond charge predicted
       N       E                     dE             d eps       ncg     rms          rms(c)
DAV:   1    -0.166478742114E+03   -0.25053E-03   -0.79373E-04   112   0.116E-01    0.135E-02
DAV:   2    -0.166478739479E+03    0.26350E-05   -0.18167E-05    96   0.178E-02    0.816E-03
DAV:   3    -0.166478738560E+03    0.91951E-06   -0.10429E-05   104   0.125E-02    0.307E-03
DAV:   4    -0.166478738326E+03    0.23404E-06   -0.25253E-06   104   0.666E-03    0.138E-03
DAV:   5    -0.166478738252E+03    0.73720E-07   -0.36447E-07   112   0.239E-03    0.318E-04
DAV:   6    -0.166478738252E+03   -0.63665E-11   -0.18433E-08   120   0.589E-04
  78 F= -.16647874E+03 E0= -.16646463E+03  d E =-.246672E-03
quench:  g(F)=  0.000E+00 g(S)=  0.000E+00 dE (1.order)= 0.000E+00
 bond charge predicted
       N       E                     dE             d eps       ncg     rms          rms(c)
DAV:   1    -0.166478676502E+03    0.61750E-04   -0.72200E-04    96   0.109E-01    0.810E-03
DAV:   2    -0.166478676735E+03   -0.23263E-06   -0.59465E-06   104   0.945E-03    0.494E-03
DAV:   3    -0.166478676783E+03   -0.48362E-07   -0.12661E-06   104   0.458E-03    0.914E-04
DAV:   4    -0.166478676764E+03    0.19257E-07   -0.18572E-07   112   0.185E-03    0.520E-04
DAV:   5    -0.166478676767E+03   -0.34906E-08   -0.78166E-08   112   0.107E-03
  79 F= -.16647868E+03 E0= -.16646457E+03  d E =0.614849E-04
quench:  g(F)=  0.000E+00 g(S)=  0.000E+00 dE (1.order)= 0.000E+00
 bond charge predicted
       N       E                     dE             d eps       ncg     rms          rms(c)
DAV:   1    -0.166478739189E+03   -0.62425E-04   -0.74161E-04   104   0.117E-01    0.970E-03
DAV:   2    -0.166478738831E+03    0.35771E-06   -0.10815E-05    96   0.140E-02    0.622E-03
DAV:   3    -0.166478738504E+03    0.32755E-06   -0.53590E-06   104   0.969E-03    0.226E-03
DAV:   4    -0.166478738371E+03    0.13260E-06   -0.98035E-07   104   0.441E-03    0.127E-03
DAV:   5    -0.166478738341E+03    0.30442E-07   -0.47008E-07   112   0.250E-03    0.281E-04
DAV:   6    -0.166478738343E+03   -0.23583E-08   -0.38920E-08   112   0.842E-04
  80 F= -.16647874E+03 E0= -.16646463E+03  d E =-.615760E-04
quench:  g(F)=  0.000E+00 g(S)=  0.000E+00 dE (1.order)= 0.000E+00
 bond charge predicted
       N       E                     dE             d eps       ncg     rms          rms(c)
DAV:   1    -0.166478487411E+03    0.25093E-03   -0.79900E-04   112   0.114E-01    0.135E-02
DAV:   2    -0.166478485619E+03    0.17925E-05   -0.18192E-05    96   0.179E-02    0.824E-03
DAV:   3    -0.166478485569E+03    0.49796E-07   -0.11079E-05   104   0.128E-02    0.316E-03
DAV:   4    -0.166478485198E+03    0.37157E-06   -0.25228E-06   104   0.665E-03    0.138E-03
DAV:   5    -0.166478485319E+03   -0.12131E-06   -0.43100E-07   112   0.248E-03    0.320E-04
DAV:   6    -0.166478485317E+03    0.18458E-08   -0.19092E-08   104   0.595E-04
  81 F= -.16647849E+03 E0= -.16646438E+03  d E =0.253026E-03
quench:  g(F)=  0.000E+00 g(S)=  0.000E+00 dE (1.order)= 0.000E+00
 bond charge predicted
       N       E                     dE             d eps       ncg     rms          rms(c)
DAV:   1    -0.166478563125E+03   -0.77806E-04   -0.72443E-04   104   0.107E-01    0.816E-03
DAV:   2    -0.166478563109E+03    0.15862E-07   -0.59413E-06    96   0.941E-03    0.499E-03
DAV:   3    -0.166478562927E+03    0.18183E-06   -0.14007E-06   112   0.477E-03    0.970E-04
DAV:   4    -0.166478562908E+03    0.19107E-07   -0.20542E-07   104   0.193E-03    0.555E-04
DAV:   5    -0.166478562907E+03    0.13813E-08   -0.87983E-08   112   0.112E-03
  82 F= -.16647856E+03 E0= -.16646446E+03  d E =-.775900E-04
quench:  g(F)=  0.000E+00 g(S)=  0.000E+00 dE (1.order)= 0.000E+00
 bond charge predicted
       N       E                     dE             d eps       ncg     rms          rms(c)
DAV:   1    -0.166478737442E+03   -0.17453E-03   -0.74013E-04   104   0.115E-01    0.945E-03
DAV:   2    -0.166478737184E+03    0.25764E-06   -0.11793E-05   104   0.141E-02    0.625E-03
DAV:   3    -0.166478736585E+03    0.59904E-06   -0.52384E-06   104   0.949E-03    0.226E-03
DAV:   4    -0.166478736484E+03    0.10162E-06   -0.97975E-07   104   0.430E-03    0.127E-03
DAV:   5    -0.166478736439E+03    0.44778E-07   -0.45799E-07   112   0.244E-03    0.267E-04
DAV:   6    -0.166478736444E+03   -0.54733E-08   -0.36358E-08   112   0.816E-04
  83 F= -.16647874E+03 E0= -.16646463E+03  d E =-.173537E-03
quench:  g(F)=  0.000E+00 g(S)=  0.000E+00 dE (1.order)= 0.000E+00
 bond charge predicted
       N       E                     dE             d eps       ncg     rms          rms(c)
DAV:   1    -0.166478480834E+03    0.25561E-03   -0.79800E-04   112   0.106E-01    0.134E-02
DAV:   2    -0.166478479150E+03    0.16842E-05   -0.18637E-05    96   0.172E-02    0.828E-03
DAV:   3    -0.166478479133E+03    0.16381E-07   -0.11636E-05   112   0.126E-02    0.328E-03
DAV:   4    -0.166478478722E+03    0.41078E-06   -0.25162E-06   104   0.645E-03    0.143E-03
DAV:   5    -0.166478478845E+03   -0.12235E-06   -0.53064E-07   112   0.260E-03    0.351E-04
DAV:   6    -0.166478478842E+03    0.29318E-08   -0.22839E-08   112   0.632E-04
  84 F= -.16647848E+03 E0= -.16646437E+03  d E =0.257603E-03
quench:  g(F)=  0.000E+00 g(S)=  0.000E+00 dE (1.order)= 0.000E+00
 bond charge predicted
       N       E                     dE             d eps       ncg     rms          rms(c)
DAV:   1    -0.166478558807E+03   -0.79963E-04   -0.72549E-04   104   0.999E-02    0.818E-03
DAV:   2    -0.166478558792E+03    0.15611E-07   -0.61010E-06    96   0.911E-03    0.497E-03
DAV:   3    -0.166478558620E+03    0.17172E-06   -0.13256E-06   104   0.448E-03    0.950E-04
DAV:   4    -0.166478558603E+03    0.16926E-07   -0.19214E-07   112   0.182E-03    0.528E-04
DAV:   5    -0.166478558600E+03    0.33683E-08   -0.79411E-08   112   0.105E-03
  85 F= -.16647856E+03 E0= -.16646445E+03  d E =-.797580E-04
quench:  g(F)=  0.000E+00 g(S)=  0.000E+00 dE (1.order)= 0.000E+00
 bond charge predicted
       N       E                     dE             d eps       ncg     rms          rms(c)
DAV:   1    -0.166478489696E+03    0.68908E-04   -0.74065E-04   112   0.115E-01    0.970E-03
DAV:   2    -0.166478489465E+03    0.23032E-06   -0.11061E-05   104   0.143E-02    0.620E-03
DAV:   3    -0.166478489443E+03    0.22033E-07   -0.55703E-06   104   0.969E-03    0.233E-03
DAV:   4    -0.166478489263E+03    0.18015E-06   -0.10623E-06   112   0.446E-03    0.118E-03
DAV:   5    -0.166478489286E+03   -0.22945E-07   -0.40396E-07   112   0.226E-03    0.305E-04
DAV:   6    -0.166478489286E+03    0.30104E-09   -0.24198E-08   112   0.630E-04
  86 F= -.16647849E+03 E0= -.16646438E+03  d E =0.693140E-04
quench:  g(F)=  0.000E+00 g(S)=  0.000E+00 dE (1.order)= 0.000E+00
 bond charge predicted
       N       E                     dE             d eps       ncg     rms          rms(c)
DAV:   1    -0.166478749272E+03   -0.25999E-03   -0.79680E-04   120   0.120E-01    0.134E-02
DAV:   2    -0.166478746772E+03    0.25008E-05   -0.18688E-05    96   0.188E-02    0.831E-03
DAV:   3    -0.166478745843E+03    0.92860E-06   -0.11988E-05   104   0.139E-02    0.336E-03
DAV:   4    -0.166478745544E+03    0.29866E-06   -0.25453E-06   104   0.694E-03    0.146E-03
DAV:   5    -0.166478745484E+03    0.60712E-07   -0.57970E-07   112   0.284E-03    0.348E-04
DAV:   6    -0.166478745486E+03   -0.22981E-08   -0.25317E-08   112   0.683E-04
  87 F= -.16647875E+03 E0= -.16646464E+03  d E =-.256200E-03
quench:  g(F)=  0.000E+00 g(S)=  0.000E+00 dE (1.order)= 0.000E+00
 bond charge predicted
       N       E                     dE             d eps       ncg     rms          rms(c)
DAV:   1    -0.166478675491E+03    0.69993E-04   -0.72513E-04   104   0.112E-01    0.813E-03
DAV:   2    -0.166478675746E+03   -0.25490E-06   -0.61527E-06    96   0.999E-03    0.499E-03
DAV:   3    -0.166478675802E+03   -0.55875E-07   -0.14549E-06   104   0.499E-03    0.980E-04
DAV:   4    -0.166478675780E+03    0.22205E-07   -0.21476E-07   120   0.202E-03    0.594E-04
DAV:   5    -0.166478675779E+03    0.56616E-09   -0.98509E-08   112   0.124E-03
  88 F= -.16647868E+03 E0= -.16646457E+03  d E =0.697070E-04
quench:  g(F)=  0.000E+00 g(S)=  0.000E+00 dE (1.order)= 0.000E+00
 bond charge predicted
       N       E                     dE             d eps       ncg     rms          rms(c)
DAV:   1    -0.166478465049E+03    0.21073E-03   -0.74542E-04   104   0.115E-01    0.102E-02
DAV:   2    -0.166478465034E+03    0.15383E-07   -0.11642E-05    96   0.140E-02    0.653E-03
DAV:   3    -0.166478465203E+03   -0.16864E-06   -0.54609E-06   112   0.951E-03    0.223E-03
DAV:   4    -0.166478465016E+03    0.18709E-06   -0.91966E-07   104   0.425E-03    0.122E-03
DAV:   5    -0.166478465035E+03   -0.19827E-07   -0.46115E-07   112   0.251E-03    0.300E-04
DAV:   6    -0.166478465034E+03    0.17076E-08   -0.48166E-08   112   0.915E-04
  89 F= -.16647847E+03 E0= -.16646436E+03  d E =0.210745E-03
quench:  g(F)=  0.000E+00 g(S)=  0.000E+00 dE (1.order)= 0.000E+00
 bond charge predicted
       N       E                     dE             d eps       ncg     rms          rms(c)
DAV:   1    -0.166478496417E+03   -0.31381E-04   -0.71845E-04   104   0.993E-02    0.795E-03
DAV:   2    -0.166478496584E+03   -0.16768E-06   -0.56912E-06    96   0.870E-03    0.487E-03
DAV:   3    -0.166478496400E+03    0.18459E-06   -0.10258E-06   112   0.398E-03    0.744E-04
DAV:   4    -0.166478496394E+03    0.56634E-08   -0.14256E-07   120   0.151E-03    0.502E-04
DAV:   5    -0.166478496395E+03   -0.54797E-09   -0.74276E-08   112   0.991E-04
  90 F= -.16647850E+03 E0= -.16646439E+03  d E =-.313610E-04
quench:  g(F)=  0.000E+00 g(S)=  0.000E+00 dE (1.order)= 0.000E+00
 bond charge predicted
       N       E                     dE             d eps       ncg     rms          rms(c)
DAV:   1    -0.166478652852E+03   -0.15646E-03   -0.74253E-04   112   0.102E-01    0.999E-03
DAV:   2    -0.166478651977E+03    0.87490E-06   -0.88284E-06    96   0.116E-02    0.601E-03
DAV:   3    -0.166478651554E+03    0.42284E-06   -0.37890E-06   104   0.736E-03    0.182E-03
DAV:   4    -0.166478651476E+03    0.77838E-07   -0.77098E-07   104   0.356E-03    0.862E-04
DAV:   5    -0.166478651452E+03    0.24092E-07   -0.15894E-07   112   0.147E-03    0.238E-04
DAV:   6    -0.166478651452E+03   -0.90949E-10   -0.94237E-09   104   0.412E-04
  91 F= -.16647865E+03 E0= -.16646455E+03  d E =-.155057E-03
quench:  g(F)=  0.000E+00 g(S)=  0.000E+00 dE (1.order)= 0.000E+00
 bond charge predicted
       N       E                     dE             d eps       ncg     rms          rms(c)
DAV:   1    -0.166478756800E+03   -0.10535E-03   -0.74034E-04   104   0.115E-01    0.100E-02
DAV:   2    -0.166478756232E+03    0.56766E-06   -0.11472E-05    96   0.142E-02    0.640E-03
DAV:   3    -0.166478755845E+03    0.38705E-06   -0.55163E-06   112   0.914E-03    0.235E-03
DAV:   4    -0.166478755694E+03    0.15126E-06   -0.92037E-07   104   0.415E-03    0.115E-03
DAV:   5    -0.166478755669E+03    0.24823E-07   -0.39081E-07   112   0.227E-03    0.326E-04
DAV:   6    -0.166478755670E+03   -0.63255E-09   -0.31125E-08   104   0.718E-04
  92 F= -.16647876E+03 E0= -.16646465E+03  d E =-.104218E-03
quench:  g(F)=  0.000E+00 g(S)=  0.000E+00 dE (1.order)= 0.000E+00
 bond charge predicted
       N       E                     dE             d eps       ncg     rms          rms(c)
DAV:   1    -0.166478730977E+03    0.24692E-04   -0.71804E-04   104   0.112E-01    0.790E-03
DAV:   2    -0.166478731263E+03   -0.28637E-06   -0.54647E-06   104   0.945E-03    0.487E-03
DAV:   3    -0.166478731269E+03   -0.54879E-08   -0.11179E-06   112   0.449E-03    0.792E-04
DAV:   4    -0.166478731255E+03    0.13857E-07   -0.15824E-07   112   0.171E-03    0.541E-04
DAV:   5    -0.166478731251E+03    0.44470E-08   -0.84434E-08   112   0.111E-03
  93 F= -.16647873E+03 E0= -.16646463E+03  d E =0.244192E-04
quench:  g(F)=  0.000E+00 g(S)=  0.000E+00 dE (1.order)= 0.000E+00
 bond charge predicted
       N       E                     dE             d eps       ncg     rms          rms(c)
DAV:   1    -0.166478585066E+03    0.14619E-03   -0.74233E-04   104   0.114E-01    0.981E-03
DAV:   2    -0.166478584845E+03    0.22087E-06   -0.92402E-06    96   0.129E-02    0.612E-03
DAV:   3    -0.166478584932E+03   -0.86330E-07   -0.45178E-06   104   0.871E-03    0.201E-03
DAV:   4    -0.166478584785E+03    0.14699E-06   -0.82712E-07   104   0.401E-03    0.100E-03
DAV:   5    -0.166478584819E+03   -0.34859E-07   -0.27088E-07   112   0.195E-03    0.252E-04
DAV:   6    -0.166478584819E+03    0.79922E-09   -0.19403E-08   112   0.590E-04
  94 F= -.16647858E+03 E0= -.16646448E+03  d E =0.146432E-03
quench:  g(F)=  0.000E+00 g(S)=  0.000E+00 dE (1.order)= 0.000E+00
--------------------------------------------------------
>>>  Job finished at Sun Mar 29 16:04:26 EDT 2020
