  168.587274 cm^{-1} ... 1 
  126.406960 cm^{-1} ... 1 
  121.769190 cm^{-1} ... 1 
   63.039356 cm^{-1} ... 1 
   54.745984 cm^{-1} ... 1 
   40.027202 cm^{-1} ... 1 
   38.985235 cm^{-1} ... 1 
   12.807161 cm^{-1} ... 1 
   15.994861 cm^{-1} ... 0 
   20.025671 cm^{-1} ... 0 
   26.948924 cm^{-1} ... 0 
   48.124246 cm^{-1} ... 0 
   69.723698 cm^{-1} ... 0 
   80.730435 cm^{-1} ... 0 
  108.673999 cm^{-1} ... 0 
  114.522513 cm^{-1} ... 0 
  120.082491 cm^{-1} ... 0 
  144.774471 cm^{-1} ... 0 
  189.828056 cm^{-1} ... 0 
  220.914183 cm^{-1} ... 0 
  268.293598 cm^{-1} ... 0 
  321.049656 cm^{-1} ... 0 
  352.042529 cm^{-1} ... 0 
  418.859027 cm^{-1} ... 0 
  451.851323 cm^{-1} ... 0 
  493.825657 cm^{-1} ... 0 
  545.414213 cm^{-1} ... 0 
  681.530219 cm^{-1} ... 0 
  684.145631 cm^{-1} ... 0 
  697.531624 cm^{-1} ... 0 
  705.233277 cm^{-1} ... 0 
  750.240763 cm^{-1} ... 0 
  814.836667 cm^{-1} ... 0 
  861.198428 cm^{-1} ... 0 
  869.645540 cm^{-1} ... 0 
  888.484528 cm^{-1} ... 0 
  944.842505 cm^{-1} ... 0 
  969.934972 cm^{-1} ... 0 
  988.106095 cm^{-1} ... 0 
 1000.333260 cm^{-1} ... 0 
 1013.188651 cm^{-1} ... 0 
 1037.105785 cm^{-1} ... 0 
 1051.631006 cm^{-1} ... 0 
 1052.925287 cm^{-1} ... 0 
 1058.540399 cm^{-1} ... 0 
 1080.075731 cm^{-1} ... 0 
 1096.552943 cm^{-1} ... 0 
 1108.572241 cm^{-1} ... 0 
 1145.701756 cm^{-1} ... 0 
 1166.234573 cm^{-1} ... 0 
 1183.913064 cm^{-1} ... 0 
 1207.716827 cm^{-1} ... 0 
 1222.874645 cm^{-1} ... 0 
 1244.752236 cm^{-1} ... 0 
 1256.244688 cm^{-1} ... 0 
 1272.148402 cm^{-1} ... 0 
 1275.354350 cm^{-1} ... 0 
 1284.700343 cm^{-1} ... 0 
 1287.885755 cm^{-1} ... 0 
 1289.321473 cm^{-1} ... 0 
 1303.440377 cm^{-1} ... 0 
 1312.181033 cm^{-1} ... 0 
 1325.955690 cm^{-1} ... 0 
 1330.726610 cm^{-1} ... 0 
 1333.195327 cm^{-1} ... 0 
 1338.171986 cm^{-1} ... 0 
 1348.816907 cm^{-1} ... 0 
 1405.457266 cm^{-1} ... 0 
 1422.733698 cm^{-1} ... 0 
 1426.206917 cm^{-1} ... 0 
 1426.827018 cm^{-1} ... 0 
 1428.651815 cm^{-1} ... 0 
 1434.983550 cm^{-1} ... 0 
 1441.276261 cm^{-1} ... 0 
 1442.691950 cm^{-1} ... 0 
 1443.907387 cm^{-1} ... 0 
 1450.606712 cm^{-1} ... 0 
 1456.890827 cm^{-1} ... 0 
 2984.592385 cm^{-1} ... 0 
 2987.056143 cm^{-1} ... 0 
 2990.016696 cm^{-1} ... 0 
 2996.840676 cm^{-1} ... 0 
 3004.769869 cm^{-1} ... 0 
 3006.354680 cm^{-1} ... 0 
 3014.456356 cm^{-1} ... 0 
 3014.884648 cm^{-1} ... 0 
 3018.057018 cm^{-1} ... 0 
 3020.455134 cm^{-1} ... 0 
 3031.551661 cm^{-1} ... 0 
 3032.627258 cm^{-1} ... 0 
 3044.136385 cm^{-1} ... 0 
 3051.990151 cm^{-1} ... 0 
 3055.816761 cm^{-1} ... 0 
 3062.086222 cm^{-1} ... 0 
 3080.444200 cm^{-1} ... 0 
 3088.246494 cm^{-1} ... 0 
 3094.711814 cm^{-1} ... 0 
 3120.359405 cm^{-1} ... 0 
 3132.074825 cm^{-1} ... 0 
