>>>  VASP 5.4.4 with BEEF-vdw and vtst
--------------------------------------------------------
>>>  Job information
     SLURM_JOBID=2036438
     SLURM_JOB_NODELIST=cpn-u25-24
     SLURM_NNODES=1
     SLURMTMPDIR=/scratch/2036438
     working directory = /projects/academic/ericwalk/cahorvat/DecaneReaction/NO
--------------------------------------------------------
>>>  Module information
The Intel compilers are in your path. This is adequate for compiling and
running most codes. Source
/util/academic/intel/17.0/compilers_and_libraries_2017/linux/bin/compilervars.sh
for more features. 
 The MKL Libraries are in your library path. This is adequate for compiling and
running most codes. Source $MKL/bin/mklvars.sh" for more features. 
 Intel-MPI is in your path. This is adequate for compiling and running most
codes. Source the
/util/academic/intel/17.0/compilers_and_libraries_2017/linux/mpi/intel64/bin/mpivars.sh
file for more features. 

Currently Loaded Modules:
  1) intel/17.0   2) mkl/2017.0.1   3) intel-mpi/2017.0.1

 

--------------------------------------------------------
>>>  Running Configuration
NPROCS=16
--------------------------------------------------------
>>>  Job started at Mon Mar 23 15:46:27 EDT 2020
--------------------------------------------------------
 running on   16 total cores
 distrk:  each k-point on   16 cores,    1 groups
 distr:  one band on    4 cores,    4 groups
 using from now: INCAR     
 vasp.5.4.4.18Apr17-6-g9f103f2a35 (build Dec 31 2018 11:41:54) complex          
  
 POSCAR found type information on POSCAR  O  N 
 POSCAR found :  2 types and       2 ions
 scaLAPACK will be used

     **************************************************************************
     Initializing libbeef V0.1.3 with the BEEF-vdW functional.
     Citation: Wellendorff et al., PRB 85, 235149 (2012).
     **************************************************************************


 ----------------------------------------------------------------------------- 
|                                                                             |
|  ADVICE TO THIS USER RUNNING 'VASP/VAMP'   (HEAR YOUR MASTER'S VOICE ...):  |
|                                                                             |
|      You have switched on vdW-DFT.                                          |
|      This routine was written and supplied by Jiri Klimes.                  |
|      We recommed that you carefully read and cite the following             |
|      publication                                                            |
|      J. Klimes, D.R. Bowler, A. Michelides                                  |
|        J. Phys.: Cond Matt. 22 022201 (2010)                                |
|      J. Klimes, D.R. Bowler, A. Michelides                                  |
|        Phys. Rev. B. 83, 195131 (2011)                                      |
|      and references therein.                                                |
|                                                                             |
 ----------------------------------------------------------------------------- 


 ----------------------------------------------------------------------------- 
|                                                                             |
|  ADVICE TO THIS USER RUNNING 'VASP/VAMP'   (HEAR YOUR MASTER'S VOICE ...):  |
|                                                                             |
|      You have a (more or less) 'small supercell' and for smaller cells      |
|      it is recommended  to use the reciprocal-space projection scheme!      |
|      The real space optimization is not  efficient for small cells and it   |
|      is also less accurate ...                                              |
|      Therefore set LREAL=.FALSE. in the  INCAR file                         |
|                                                                             |
 ----------------------------------------------------------------------------- 


 ----------------------------------------------------------------------------- 
|                                                                             |
|  ADVICE TO THIS USER RUNNING 'VASP/VAMP'   (HEAR YOUR MASTER'S VOICE ...):  |
|                                                                             |
|      You enforced a specific xc-type in the INCAR file,                     |
|      a different type was found on the POTCAR file                          |
|          I HOPE YOU KNOW, WHAT YOU ARE  DOING                               |
|                                                                             |
 ----------------------------------------------------------------------------- 

 LDA part: xc-table for Pade appr. of Perdew
 POSCAR found type information on POSCAR  O  N 
 POSCAR found :  2 types and       2 ions
 POSCAR, INCAR and KPOINTS ok, starting setup
 FFT: planning ...
 WAVECAR not read
 entering main loop
       N       E                     dE             d eps       ncg     rms          rms(c)
 No kernel file found, calculating vdW kernel
 it is strongly recommened to download the file vdw_kernel.bindat
 (it is included in the source directory of vasp.5)
 the calculation of the kernel might take days ...
  0.507104952116469       0.373543861371089     
  0.796202846057805       0.189765141790449     
   1.11192896856814       8.942645232181552E-002
   1.45673599250183       3.530615446422729E-002
   1.83330250150242       8.525011697685417E-003
   2.24455379819341      -2.534322993939993E-003
   2.69368462896985      -5.421232018740641E-003
   3.18418400192505      -4.818079609253885E-003
   3.71986229070676      -3.279556781285872E-003
   4.30488083485548      -1.913921718326169E-003
   4.94378426657054      -1.008085498630907E-003
   5.64153581503002      -4.979123590193276E-004
   6.40355586252091      -2.388782126262504E-004
   7.23576405189726      -1.146859676628062E-004
   8.14462527247212      -5.609309271814495E-005
   9.13719988157784      -2.806843882969270E-005
   10.2211985519339      -1.432200984686501E-005
   11.4050421708962      -7.422375379424868E-006
   12.6979272569059      -3.897628562384875E-006
   14.1098974013170      -2.070752542852099E-006
   15.6519212905873      -1.111672808684076E-006
   17.3359779149375      -6.023665852351654E-007
   19.1751496254094      -3.291306846012770E-007
   21.1837237622236      -1.811998944168490E-007
   23.3773036439213      -1.004509197321234E-007
   25.7729297794946      -5.604638992579630E-008
   28.3892122451236      -3.146325929636404E-008
   31.2464752538692      -1.776939334991182E-008
   34.3669150413914      -1.009744878633885E-008
   37.7747722942059      -5.775861071493161E-009
   41.4965204599610      -3.328641794707888E-009
   45.5610714025986      -1.935461940513925E-009
  1  
  2  
  3  
  4  
  5  
  6  
  7  
  8  
  9  
 10  
 11  
 12  
 13  
 14  
 15  
 16  
 17  
 18  
 19  
 20  
 21  
 22  
 23  
 24  
 25  
 26  
 27  
 28  
 29  
 30  
 31  
 32  
 33  
 34  
 35  
 done 
Total vdW correction in eV:      2.4777745
DAV:   1     0.642303983180E+02    0.64230E+02   -0.23855E+03    80   0.333E+02
DAV:   2    -0.158271469245E+01   -0.65813E+02   -0.65681E+02    64   0.119E+02
DAV:   3    -0.116305521059E+02   -0.10048E+02   -0.98275E+01    80   0.367E+01
DAV:   4    -0.126600030057E+02   -0.10295E+01   -0.10033E+01    80   0.834E+00
DAV:   5    -0.126740369374E+02   -0.14034E-01   -0.13970E-01    60   0.867E-01    0.678E+00
Total vdW correction in eV:      2.4944189
DAV:   6    -0.109678387924E+02    0.17062E+01   -0.23476E+00    48   0.104E+01    0.271E+00
Total vdW correction in eV:      2.5045395
DAV:   7    -0.119559558784E+02   -0.98812E+00   -0.71451E-01    52   0.512E+00    0.216E+00
Total vdW correction in eV:      2.5091185
DAV:   8    -0.123076892615E+02   -0.35173E+00   -0.14162E-01    60   0.241E+00    0.301E+00
Total vdW correction in eV:      2.5123516
DAV:   9    -0.121488650288E+02    0.15882E+00   -0.51099E-02    48   0.192E+00    0.359E+00
Total vdW correction in eV:      2.5115683
DAV:  10    -0.123081704172E+02   -0.15931E+00   -0.72738E-02    56   0.188E+00    0.236E+00
Total vdW correction in eV:      2.5111766
DAV:  11    -0.124771741308E+02   -0.16900E+00   -0.18612E-01    48   0.201E+00    0.149E+00
Total vdW correction in eV:      2.5124154
DAV:  12    -0.124377356764E+02    0.39438E-01   -0.16293E-01    56   0.211E+00    0.106E+00
Total vdW correction in eV:      2.5126970
DAV:  13    -0.125239570054E+02   -0.86221E-01   -0.96865E-02    48   0.137E+00    0.798E-01
Total vdW correction in eV:      2.5116219
DAV:  14    -0.126081767369E+02   -0.84220E-01   -0.23217E-02    52   0.132E+00    0.155E-01
Total vdW correction in eV:      2.5117204
DAV:  15    -0.126248339676E+02   -0.16657E-01   -0.32592E-03    56   0.569E-01    0.655E-02
Total vdW correction in eV:      2.5116467
DAV:  16    -0.126348340031E+02   -0.10000E-01   -0.64641E-04    52   0.213E-01    0.616E-02
Total vdW correction in eV:      2.5115184
DAV:  17    -0.126433710407E+02   -0.85370E-02   -0.26678E-04    52   0.119E-01    0.172E-02
Total vdW correction in eV:      2.5114098
DAV:  18    -0.126479654535E+02   -0.45944E-02   -0.12430E-04    56   0.614E-02    0.200E-02
Total vdW correction in eV:      2.5113554
DAV:  19    -0.126489232332E+02   -0.95778E-03   -0.68144E-05    52   0.601E-02    0.144E-02
Total vdW correction in eV:      2.5112972
DAV:  20    -0.126489703232E+02   -0.47090E-04   -0.31914E-05    48   0.366E-02    0.325E-03
Total vdW correction in eV:      2.5112575
DAV:  21    -0.126489824324E+02   -0.12109E-04   -0.13663E-05    52   0.176E-02    0.299E-03
Total vdW correction in eV:      2.5112314
DAV:  22    -0.126490093689E+02   -0.26936E-04   -0.62635E-06    56   0.127E-02    0.208E-03
Total vdW correction in eV:      2.5112087
DAV:  23    -0.126490605996E+02   -0.51231E-04   -0.68751E-06    56   0.111E-02    0.238E-03
Total vdW correction in eV:      2.5112014
DAV:  24    -0.126490913534E+02   -0.30754E-04   -0.19085E-06    56   0.729E-03    0.935E-04
Total vdW correction in eV:      2.5111988
DAV:  25    -0.126490921912E+02   -0.83776E-06   -0.30227E-07    52   0.370E-03
Total vdW correction in eV:      2.5111978
   1 F= -.12649092E+02 E0= -.12649091E+02  d E =-.126491E+02  mag=     1.0003
 BRION: g(F)=  0.241E-03 g(S)=  0.000E+00
 bond charge predicted
       N       E                     dE             d eps       ncg     rms          rms(c)
Total vdW correction in eV:      2.5104709
DAV:   1    -0.126481685820E+02    0.92277E-03   -0.68071E-02    56   0.213E+00    0.819E-02
Total vdW correction in eV:      2.5106449
DAV:   2    -0.126480887399E+02    0.79842E-04   -0.11296E-03    52   0.269E-01    0.431E-02
Total vdW correction in eV:      2.5107410
DAV:   3    -0.126481453585E+02   -0.56619E-04   -0.94910E-05    56   0.773E-02    0.192E-02
Total vdW correction in eV:      2.5107913
DAV:   4    -0.126481570994E+02   -0.11741E-04   -0.20011E-05    52   0.360E-02    0.725E-03
Total vdW correction in eV:      2.5107877
DAV:   5    -0.126481549228E+02    0.21766E-05   -0.33224E-06    52   0.161E-02
Total vdW correction in eV:      2.5107888
   2 F= -.12648155E+02 E0= -.12648154E+02  d E =0.937268E-03  mag=     1.0000
 BRION: g(F)=  0.189E-01 g(S)=  0.000E+00 retain N=  1 mean eig= 0.10
 eig:   0.102
 bond charge predicted
       N       E                     dE             d eps       ncg     rms          rms(c)
Total vdW correction in eV:      2.5114421
DAV:   1    -0.126491373205E+02   -0.98022E-03   -0.54940E-02    52   0.191E+00    0.733E-02
Total vdW correction in eV:      2.5112819
DAV:   2    -0.126490322634E+02    0.10506E-03   -0.88795E-04    52   0.240E-01    0.396E-02
Total vdW correction in eV:      2.5111996
DAV:   3    -0.126490657782E+02   -0.33515E-04   -0.91520E-05    52   0.708E-02    0.267E-02
Total vdW correction in eV:      2.5111662
DAV:   4    -0.126490761979E+02   -0.10420E-04   -0.71911E-05    56   0.364E-02    0.411E-02
Total vdW correction in eV:      2.5111429
DAV:   5    -0.126489675357E+02    0.10866E-03   -0.98742E-05    48   0.440E-02    0.188E-02
Total vdW correction in eV:      2.5111578
DAV:   6    -0.126490305326E+02   -0.62997E-04   -0.35952E-05    48   0.309E-02    0.763E-03
Total vdW correction in eV:      2.5111642
DAV:   7    -0.126490847826E+02   -0.54250E-04   -0.38896E-06    52   0.188E-02    0.257E-03
Total vdW correction in eV:      2.5111611
DAV:   8    -0.126490933486E+02   -0.85659E-05   -0.73374E-07    56   0.885E-03
Total vdW correction in eV:      2.5111596
   3 F= -.12649093E+02 E0= -.12649092E+02  d E =-.938426E-03  mag=     1.0000
 BRION: g(F)=  0.135E-06 g(S)=  0.000E+00 retain N=  1 mean eig= 0.10
 eig:   0.101
 reached required accuracy - stopping structural energy minimisation
  1  2  3  4  5  6  7  8  9 10 11 12 13 14 15 16 17 18 19 20 21 22 23 24 25 26 27 28 29 30 31 32 33 34 35  1  2  3  4  5  6  7  8  9 10 11 12 13 14 15 16 17 18 19 20 21 22 23 24 25 26 27 28 29 30 31 32 33 34 35  1  2  3  4  5  6  7  8  9 10 11 12 13 14 15 16 17 18 19 20 21 22 23 24 25 26 27 28 29 30 31 32 33 34 35  1  2  3  4  5  6  7  8  9 10 11 12 13 14 15 16 17 18 19 20 21 22 23 24 25 26 27 28 29 30 31 32 33 34 35  1  2  3  4  5  6  7  8  9 10 11 12 13 14 15 16 17 18 19 20 21 22 23 24 25 26 27 28 29 30 31 32 33 34 35  1  2  3  4  5  6  7  8  9 10 11 12 13 14 15 16 17 18 19 20 21 22 23 24 25 26 27 28 29 30 31 32 33 34 35  1  2  3  4  5  6  7  8  9 10 11 12 13 14 15 16 17 18 19 20 21 22 23 24 25 26 27 28 29 30 31 32 33 34 35  1  2  3  4  5  6  7  8  9 10 11 12 13 14 15 16 17 18 19 20 21 22 23 24 25 26 27 28 29 30 31 32 33 34 35  1  2  3  4  5  6  7  8  9 10 11 12 13 14 15 16 17 18 19 20 21 22 23 24 25 26 27 28 29 30 31 32 33 34 35  1  2  3  4  5  6  7  8  9 10 11 12 13 14 15 16 17 18 19 20 21 22 23 24 25 26 27 28 29 30 31 32 33 34 35  1  2  3  4  5  6  7  8  9 10 11 12 13 14 15 16 17 18 19 20 21 22 23 24 25 26 27 28 29 30 31 32 33 34 35  1  2  3  4  5  6  7  8  9 10 11 12 13 14 15 16 17 18 19 20 21 22 23 24 25 26 27 28 29 30 31 32 33 34 35  1  2  3  4  5  6  7  8  9 10 11 12 13 14 15 16 17 18 19 20 21 22 23 24 25 26 27 28 29 30 31 32 33 34 35  1  2  3  4  5  6  7  8  9 10 11 12 13 14 15 16 17 18 19 20 21 22 23 24 25 26 27 28 29 30 31 32 33 34 35  1  2  3  4  5  6  7  8  9 10 11 12 13 14 15 16 17 18 19 20 21 22 23 24 25 26 27 28 29 30 31 32 33 34 35--------------------------------------------------------
>>>  Job finished at Mon Mar 23 23:46:17 EDT 2020
